Lab 4 - Copy/simulation/qsim/g21_lab4.msim.vcd
$comment
	File created using the following command:
		vcd file g21_lab4.msim.vcd -direction
$end
$date
	Fri Nov 17 13:27:18 2017
$end
$version
	ModelSim Version 10.1d
$end
$timescale
	1ps
$end
$scope module g21_dealer_FSM_vlg_vec_tst $end
$var reg 1 ! Clock $end
$var reg 1 " Request_Deal $end
$var reg 1 # reset $end
$var wire 1 $ Rand_Enable $end
$var wire 1 % sampler $end
$scope module i1 $end
$var wire 1 & gnd $end
$var wire 1 ' vcc $end
$var wire 1 ( unknown $end
$var tri1 1 ) devclrn $end
$var tri1 1 * devpor $end
$var tri1 1 + devoe $end
$var wire 1 , Clock~combout $end
$var wire 1 - Request_Deal~combout $end
$var wire 1 . Rand_Enable~reg0feeder_combout $end
$var wire 1 / reset~combout $end
$var wire 1 0 Rand_Enable~reg0_regout $end
$upscope $end
$upscope $end
$enddefinitions $end
#0
$dumpvars
0!
0"
0#
x$
x%
0&
1'
x(
1)
1*
1+
0,
0-
x.
0/
x0
$end
#243
00
#3675
0$
#4958
0.
#10000
1!
0%
#10884
1,
#20000
0!
1%
#20884
0,
#30000
1!
0%
#30884
1,
#40000
0!
1%
#40884
0,
#50000
1!
0%
#50884
1,
#60000
1"
0!
1%
#60844
1-
#60884
0,
#65802
1.
#70000
1!
0%
#70884
1,
#72537
10
#75969
1$
#80000
0!
1%
#80884
0,
#90000
1!
0%
#90884
1,
#100000
0!
1%
#100884
0,
#110000
1!
0%
#110884
1,
#120000
0"
0!
1%
#120844
0-
#120884
0,
#125802
0.
#130000
1!
0%
#130884
1,
#132537
00
#135969
0$
#140000
0!
1%
#140884
0,
#150000
1!
0%
#150884
1,
#160000
0!
1%
#160884
0,
#170000
1!
0%
#170884
1,
#180000
1"
0!
1%
#180844
1-
#180884
0,
#185802
1.
#190000
1!
0%
#190884
1,
#192537
10
#195969
1$
#200000
0!
1%
#200884
0,
#210000
1!
0%
#210884
1,
#220000
0!
1%
#220884
0,
#230000
1!
0%
#230884
1,
#240000
0"
0!
1%
#240844
0-
#240884
0,
#245802
0.
#250000
1!
0%
#250884
1,
#252537
00
#255969
0$
#260000
0!
1%
#260884
0,
#270000
1!
0%
#270884
1,
#280000
0!
1%
#280884
0,
#290000
1!
0%
#290884
1,
#300000
1"
0!
1%
#300844
1-
#300884
0,
#305802
1.
#310000
1!
0%
#310884
1,
#312537
10
#315969
1$
#320000
0!
1%
#320884
0,
#330000
1!
0%
#330884
1,
#340000
0!
1%
#340884
0,
#350000
1!
0%
#350884
1,
#360000
0"
0!
1%
#360844
0-
#360884
0,
#365802
0.
#370000
1!
0%
#370884
1,
#372537
00
#375969
0$
#380000
0!
1%
#380884
0,
#390000
1!
0%
#390884
1,
#400000
0!
1%
#400884
0,
#410000
1!
0%
#410884
1,
#420000
1"
0!
1%
#420844
1-
#420884
0,
#425802
1.
#430000
1!
0%
#430884
1,
#432537
10
#435969
1$
#440000
0!
1%
#440884
0,
#450000
1!
0%
#450884
1,
#460000
0!
1%
#460884
0,
#470000
1!
0%
#470884
1,
#480000
0"
0!
1%
#480844
0-
#480884
0,
#485802
0.
#490000
1!
0%
#490884
1,
#492537
00
#495969
0$
#500000
1#
0!
1%
#500884
0,
1/
#510000
1!
0%
#510884
1,
#520000
0!
1%
#520884
0,
#530000
1!
0%
#530884
1,
#540000
1"
0!
1%
#540844
1-
#540884
0,
#545802
1.
#550000
1!
0%
#550884
1,
#560000
0!
1%
#560884
0,
#570000
1!
0%
#570884
1,
#580000
0!
1%
#580884
0,
#590000
1!
0%
#590884
1,
#600000
0"
0!
1%
#600844
0-
#600884
0,
#605802
0.
#610000
1!
0%
#610884
1,
#620000
0!
1%
#620884
0,
#630000
1!
0%
#630884
1,
#640000
0!
1%
#640884
0,
#650000
1!
0%
#650884
1,
#660000
1"
0!
1%
#660844
1-
#660884
0,
#665802
1.
#670000
1!
0%
#670884
1,
#680000
0!
1%
#680884
0,
#690000
1!
0%
#690884
1,
#700000
0!
1%
#700884
0,
#710000
1!
0%
#710884
1,
#720000
0"
0!
1%
#720844
0-
#720884
0,
#725802
0.
#730000
1!
0%
#730884
1,
#740000
0!
1%
#740884
0,
#750000
1!
0%
#750884
1,
#760000
0!
1%
#760884
0,
#770000
1!
0%
#770884
1,
#780000
1"
0!
1%
#780844
1-
#780884
0,
#785802
1.
#790000
1!
0%
#790884
1,
#800000
0!
1%
#800884
0,
#810000
1!
0%
#810884
1,
#820000
0!
1%
#820884
0,
#830000
1!
0%
#830884
1,
#840000
0"
0!
1%
#840844
0-
#840884
0,
#845802
0.
#850000
1!
0%
#850884
1,
#860000
0!
1%
#860884
0,
#870000
1!
0%
#870884
1,
#880000
0!
1%
#880884
0,
#890000
1!
0%
#890884
1,
#900000
1"
0!
1%
#900844
1-
#900884
0,
#905802
1.
#910000
1!
0%
#910884
1,
#920000
0!
1%
#920884
0,
#930000
1!
0%
#930884
1,
#940000
0!
1%
#940884
0,
#950000
1!
0%
#950884
1,
#960000
0"
0!
1%
#960844
0-
#960884
0,
#965802
0.
#970000
1!
0%
#970884
1,
#980000
0!
1%
#980884
0,
#990000
1!
0%
#990884
1,
