Lab 4/simulation/qsim/g21_lab4.msim.vcd
$comment
	File created using the following command:
		vcd file g21_lab4.msim.vcd -direction
$end
$date
	Fri Nov 17 00:13:56 2017
$end
$version
	ModelSim Version 10.1d
$end
$timescale
	1ps
$end
$scope module g21_rules_vlg_vec_tst $end
$var reg 6 ! card_to_play [5:0] $end
$var reg 6 " play_pile_top_card [5:0] $end
$var wire 1 # legal_play $end
$var wire 1 $ total_value [5] $end
$var wire 1 % total_value [4] $end
$var wire 1 & total_value [3] $end
$var wire 1 ' total_value [2] $end
$var wire 1 ( total_value [1] $end
$var wire 1 ) total_value [0] $end
$var wire 1 * sampler $end
$scope module i1 $end
$var wire 1 + gnd $end
$var wire 1 , vcc $end
$var wire 1 - unknown $end
$var tri1 1 . devclrn $end
$var tri1 1 / devpor $end
$var tri1 1 0 devoe $end
$var wire 1 1 Add2~5 $end
$var wire 1 2 Add2~6_combout $end
$var wire 1 3 Add2~7 $end
$var wire 1 4 Add2~8_combout $end
$var wire 1 5 modulo_top|inst5|inst25|inst13~combout $end
$var wire 1 6 top_val[2]~0_combout $end
$var wire 1 7 Add0~0_combout $end
$var wire 1 8 top_val[3]~4_combout $end
$var wire 1 9 top_val[3]~5_combout $end
$var wire 1 : modulo_top|inst1|inst26|inst16~0_combout $end
$var wire 1 ; modulo_top|inst1|inst28|inst16~0_combout $end
$var wire 1 < modulo_top|inst5|inst26|inst13~3_combout $end
$var wire 1 = modulo_top|inst1|inst27|inst16~0_combout $end
$var wire 1 > modulo_top|inst4|inst25|inst15~0_combout $end
$var wire 1 ? modulo_top|inst1|inst29|inst13~combout $end
$var wire 1 @ modulo_top|inst1|inst30|inst13~combout $end
$var wire 1 A modulo_top|inst5|inst24|inst16~0_combout $end
$var wire 1 B modulo_top|inst5|inst25|inst16~3_combout $end
$var wire 1 C modulo_top|inst5|inst25|inst16~2_combout $end
$var wire 1 D modulo_top|inst5|inst26|inst13~2_combout $end
$var wire 1 E modulo_top|inst1|inst28|inst16~1_combout $end
$var wire 1 F modulo_top|inst5|inst|inst23~combout $end
$var wire 1 G modulo_top|inst5|inst25|inst13~0_combout $end
$var wire 1 H modulo_top|inst5|inst24|inst13~combout $end
$var wire 1 I total_value_temp[0]~1_combout $end
$var wire 1 J total_value_temp[4]~2_combout $end
$var wire 1 K LessThan2~0_combout $end
$var wire 1 L total_value_temp[0]~5_combout $end
$var wire 1 M Add2~1_cout $end
$var wire 1 N Add2~2_combout $end
$var wire 1 O total_value_temp[0]~5clkctrl_outclk $end
$var wire 1 P Add2~3 $end
$var wire 1 Q Add2~4_combout $end
$var wire 1 R top_val[1]~1_combout $end
$var wire 1 S top_val[1]~2_combout $end
$var wire 1 T top_val[0]~3_combout $end
$var wire 1 U Add3~1 $end
$var wire 1 V Add3~3 $end
$var wire 1 W Add3~4_combout $end
$var wire 1 X Add3~2_combout $end
$var wire 1 Y Add3~5 $end
$var wire 1 Z Add3~7 $end
$var wire 1 [ Add3~8_combout $end
$var wire 1 \ LessThan6~1_combout $end
$var wire 1 ] total_value_temp[4]~2clkctrl_outclk $end
$var wire 1 ^ Add1~0_combout $end
$var wire 1 _ total_value_temp[4]~0_combout $end
$var wire 1 ` LessThan3~0_combout $end
$var wire 1 a card_val_assign~0_combout $end
$var wire 1 b total_value_temp[2]~4_combout $end
$var wire 1 c LessThan6~0_combout $end
$var wire 1 d LessThan6~2_combout $end
$var wire 1 e Add3~0_combout $end
$var wire 1 f total_value_temp[0]~6_combout $end
$var wire 1 g total_value_temp[1]~7_combout $end
$var wire 1 h total_value_temp[2]~8_combout $end
$var wire 1 i total_value_temp[3]~3_combout $end
$var wire 1 j Add3~6_combout $end
$var wire 1 k total_value_temp[3]~9_combout $end
$var wire 1 l total_value_temp[4]~10_combout $end
$var wire 1 m new_ace~0_combout $end
$var wire 1 n try_add [4] $end
$var wire 1 o try_add [3] $end
$var wire 1 p try_add [2] $end
$var wire 1 q try_add [1] $end
$var wire 1 r try_add [0] $end
$var wire 1 s fake_add [4] $end
$var wire 1 t fake_add [3] $end
$var wire 1 u fake_add [2] $end
$var wire 1 v fake_add [1] $end
$var wire 1 w fake_add [0] $end
$var wire 1 x play_pile_top_card~combout [5] $end
$var wire 1 y play_pile_top_card~combout [4] $end
$var wire 1 z play_pile_top_card~combout [3] $end
$var wire 1 { play_pile_top_card~combout [2] $end
$var wire 1 | play_pile_top_card~combout [1] $end
$var wire 1 } play_pile_top_card~combout [0] $end
$var wire 1 ~ card_to_play~combout [5] $end
$var wire 1 !! card_to_play~combout [4] $end
$var wire 1 "! card_to_play~combout [3] $end
$var wire 1 #! card_to_play~combout [2] $end
$var wire 1 $! card_to_play~combout [1] $end
$var wire 1 %! card_to_play~combout [0] $end
$upscope $end
$upscope $end
$enddefinitions $end
#0
$dumpvars
b101111 !
b0 "
x#
x)
x(
x'
x&
x%
x$
x*
0+
1,
x-
1.
1/
10
x1
x2
x3
x4
x5
x6
x7
x8
x9
x:
x;
x<
x=
x>
x?
x@
xA
xB
xC
xD
xE
xF
xG
xH
xI
xJ
xK
xL
xM
xN
xO
xP
xQ
xR
xS
xT
xU
xV
xW
xX
xY
xZ
x[
x\
x]
x^
x_
x`
xa
xb
xc
xd
xe
xf
xg
xh
xi
xj
xk
xl
xm
xr
xq
xp
xo
xn
zw
xv
xu
xt
xs
0}
0|
0{
0z
0y
0x
1%!
1$!
1#!
1"!
0!!
1~
$end
#5572
0E
#5573
0@
#5576
0B
#5755
03
#5765
1M
#5771
0:
#5989
0P
#6055
0;
#6064
0C
#6069
11
#6077
0=
#6117
0A
#6122
0>
#6124
0?
#6127
0<
#6128
0G
#6213
14
#6223
1N
#6447
0Q
#6527
12
#6577
0F
#6628
07
#6839
05
#6993
0H
#7190
0D
#7462
1I
#7807
0K
#8124
0T
#8169
08
#8239
06
#8450
0J
#8599
0L
#8907
0e
#8911
1U
#8991
0V
#9071
1Y
#9151
0Z
#9449
0W
#9509
0]
#9609
1[
#9677
0O
#10313
0f
#10626
1l
#11122
0h
#11258
1s
#11259
1v
0u
#11260
1t
#12308
1R
#13034
09
#13035
0S
#13771
0m
#13860
0X
#13893
0j
#13978
0)
#14564
1%
#14804
0'
#14930
0k
#15038
0g
#15261
0\
#16072
0d
#17455
0$
#18716
0(
#18876
0&
#20029
1#
#30000
b1 "
0*
#30843
1}
#32348
1F
#32542
1L
#32930
1J
#33620
1O
#33625
xf
#33895
1T
#33989
1]
#34124
17
#34140
xh
#34345
xd
#34370
xm
#34372
xg
#34373
xl
#34377
xk
#34678
1e
#34682
0U
#34762
1V
#34842
0Y
#34922
1Z
#35140
1X
#35220
1W
#35300
1j
#35380
0[
#35486
1S
#35561
0q
#35562
1n
#35563
0o
0p
0r
#36005
0n
#36037
0f
#36070
1p
#36084
1r
#36172
1o
#36237
1q
#36290
0V
#36311
0X
#36370
1Y
#36450
0Z
#36558
1f
#36748
0W
#36828
0j
#36908
1[
#37408
0q
#37432
0`
#37533
1n
#37598
0p
#37700
0o
#37722
1b
#37822
x'
#37864
1^
#37918
0a
#37921
1m
#38050
x(
#38054
x$
#38302
x#
#38310
0_
#38311
x%
#38323
x&
#38541
1h
#38716
1_
#38720
0^
#38750
1i
#38761
0g
#38937
0l
#38944
0d
#39041
0i
#39262
0b
#39301
1^
#39343
1l
#39350
xd
#39672
0k
#39911
0c
#40081
0h
#40223
1)
#40389
0d
#41605
1$
#42439
0(
#43281
1%
#43618
0&
#43763
0'
#44346
1#
#60000
b11 "
b10 "
1*
#60843
0}
#60853
1|
#62348
0F
#62542
0L
#62930
0J
#63419
0S
#63620
0O
#63895
0T
#63989
0]
#64124
07
#64223
1V
#64244
1X
#64303
0Y
#64370
0m
#64383
1Z
#64678
0e
#64681
1W
#64682
1U
#64761
1j
#64762
0V
#64841
0[
#64842
1Y
#64922
0Z
#65140
0X
#65220
0W
#65300
0j
#65341
1q
#65380
1[
#65422
1g
#65561
0q
#66084
0f
#66318
0g
#66586
17
#66907
1H
#67376
0I
#68054
0$
#68364
1J
#68513
1L
#69390
1S
#69423
1]
#69591
1O
#69596
1f
#69749
0)
#69804
1m
#70215
1X
#70995
1q
#70997
0r
#71471
0f
#72348
1g
#73488
1$
#76026
1(
#90000
b11 "
0*
#90843
1}
#92348
1F
#93895
1T
#94010
16
#94124
07
#94678
1e
#94682
0U
#95106
1W
#95140
0X
#95486
0S
#95956
1p
#96084
1r
#96237
0q
#96290
1V
#96311
1X
#96558
1f
#96748
0W
#97408
1q
#97489
1\
#97598
0p
#97620
1b
#98081
0\
#98243
1c
#98439
1h
#98721
1d
#99262
0b
#99885
0c
#100081
0h
#100223
1)
#100363
0d
#120000
b111 "
b101 "
b100 "
1*
#120833
1{
#120843
0}
#120853
0|
#122348
0F
#123895
0T
#124010
06
#124124
17
#124678
0e
#124682
1U
#124762
0V
#125140
0X
#125486
1S
#126084
0r
#126237
0q
#126311
1X
#126402
1G
#126558
0f
#126586
07
#126907
0H
#127113
15
#127408
1q
#127948
0S
#128444
16
#128773
0X
#129540
1W
#129870
0q
#130223
0)
#130390
1p
#131223
0g
#132054
1b
#132873
1h
#134901
0(
#136555
1'
#150000
b101 "
0*
#150843
1}
#152348
1F
#153895
1T
#154124
17
#154678
1e
#154682
0U
#154762
1V
#155140
1X
#155220
0W
#155486
1S
#156070
0p
#156084
1r
#156237
1q
#156290
0V
#156311
0X
#156558
1f
#156748
1W
#157408
0q
#157598
1p
#157734
0b
#158553
0h
#159262
1b
#160081
1h
#160223
1)
#180000
b111 "
b110 "
1*
#180843
0}
#180853
1|
#182348
0F
#183895
0T
#184124
07
#184678
0e
#184682
1U
#185140
1X
#185486
0S
#186084
0r
#186237
1q
#186311
0X
#186318
1\
#186558
0f
#186586
17
#186907
1H
#187408
0q
#187489
0\
#187722
1`
#187948
1S
#188208
1a
#188211
0m
#188600
0_
#188773
1X
#188893
0`
0b
#189039
1g
1c
#189040
1i
#189227
0l
#189379
0a
#189382
1m
#189671
1k
#189712
0h
#189766
1b
#189771
1_
#189870
1q
#189951
1\
#190210
0g
#190211
0i
#190223
0)
#190398
1l
#190405
1d
#190585
1h
#190842
0k
#191223
1g
#191355
1`
#191841
1a
#191844
0m
#192233
0_
#192672
0g
0c
#192673
1i
#192860
0l
#192867
0d
#193304
1k
#193543
1c
#195528
0$
#196798
0%
#197250
1&
#210000
b111 "
0*
#210843
1}
#212184
1:
#212348
1F
#212667
1;
#213035
1=
#213778
18
#213895
1T
#214010
06
#214124
07
#214352
19
#214678
1e
#214682
0U
#215106
0W
#215140
0X
#215211
1j
#215486
0S
#215956
0p
#216083
1o
#216084
1r
#216237
0q
#216290
1V
#216311
1X
#216370
0Y
#216558
1f
#216748
1W
#216828
0j
#217408
1q
#217424
0i
#217598
1p
#217700
0o
#217775
0^
#218055
0k
#218246
1_
#218294
0c
#218873
1l
#219041
1i
#219392
1^
#219672
1k
#219863
0_
#219911
1c
#220223
1)
#220490
0l
#240000
b1111 "
b1011 "
b1001 "
b1000 "
1*
#240833
1z
0{
#240843
0}
#240853
0|
#242184
0:
#242348
0F
#242667
0;
#243035
0=
#243778
08
#243895
0T
#244010
16
#244124
17
#244352
09
#244678
0e
#244682
1U
#244762
0V
#245079
1Y
#245140
0X
#245486
1S
#246084
0r
#246237
0q
#246311
1X
#246318
0\
#246402
0G
#246408
1<
#246558
0f
#246586
07
#246907
0H
#247113
05
#247376
1I
#247408
1q
#247471
1D
#247489
1\
#247722
0`
0b
#247948
0S
#248208
0a
#248211
1m
#248444
06
#248541
0h
#248557
18
#248595
1b
#248600
1_
#248773
0X
#248893
1`
#249039
1g
#249040
0i
#249131
19
#249227
1l
#249234
1d
#249379
1a
#249382
0m
#249414
1h
#249540
0W
#249671
0k
#249771
0_
#249870
0q
#249951
0\
#249990
1j
#250210
0g
0c
#250211
1i
#250223
0)
#250390
0p
#250398
0l
#250405
0d
#250842
1k
#250862
1o
#251081
1c
#251223
1g
#251355
0`
0b
#251358
1\
#251841
0a
#251844
1m
#251851
0i
#252174
0h
#252203
1i
#252206
1`
#252233
1_
#252482
0k
#252672
0g
#252692
1a
#252695
0m
#252834
1k
#252860
1l
#252867
1d
#253079
1b
#253084
0_
#253523
1g
#253711
0l
#253718
0d
#253898
1h
#257201
1(
#270000
b1001 "
0*
#270843
1}
#272348
1F
#273895
1T
#274124
17
#274678
1e
#274682
0U
#274762
1V
#274842
0Y
#275140
1X
#275220
1W
#275300
0j
#275486
1S
#276070
1p
#276084
1r
#276172
0o
#276237
1q
#276290
0V
#276311
0X
#276370
1Y
#276558
1f
#276748
0W
#276828
1j
#277408
0q
#277489
0\
#277598
0p
#277700
1o
#278196
1\
#280223
1)
#300000
b1011 "
b1010 "
1*
#300843
0}
#300853
1|
#302348
0F
#303895
0T
#304124
07
#304678
0e
#304682
1U
#305140
1X
#305486
0S
#306084
0r
#306237
1q
#306311
0X
#306558
0f
#306586
17
#306907
1H
#306969
1:
#307376
0I
#307408
0q
#307722
0b
#307948
1S
#308235
1K
#308541
0h
#308557
08
#308686
1T
#308773
1X
#308893
1b
#309469
1e
#309473
0U
#309712
1h
#309870
1q
#309931
0X
#310223
0)
#310875
1r
#311028
0q
#311349
1f
#315014
1)
#330000
b1011 "
0*
#330843
1}
#332348
1F
#334124
07
#360000
b1111 "
b1101 "
b1100 "
1*
#360833
1{
#360843
0}
#360853
0|
#362348
0F
#364124
17
#366399
1;
#366402
1G
#366554
1=
#366586
07
#366904
1?
#366905
1E
#366907
0H
0<
#366969
0:
#367113
15
#367246
1>
#367452
0;
#367773
1H
#367820
0=
#367910
1F
#367957
0?
#367958
0E
#367960
1<
#368512
0>
#368618
0K
#368826
0H
#368963
0F
#369023
0D
#369377
1D
#369685
0S
#369884
1K
#369935
09
#370489
1V
#370510
1X
#370569
0Y
#370649
1Z
#370947
1W
#370951
1S
#371107
0[
#371201
19
#371607
1q
#371732
0n
#371755
0V
#371776
0X
#371797
1p
#371835
1Y
#372035
0Z
#372125
0\
#372213
0W
#372493
1[
#372873
0q
#372960
0g
#373063
0p
#373118
1n
#373159
0`
#373349
0i
#373511
1\
#373645
0a
#373648
1m
#373980
0k
#374227
0c
#374301
1_
#374477
1i
#374545
1`
#374727
0b
#374928
1l
#375031
1a
#375034
0m
#375108
1k
#375347
1c
#375418
1b
#375423
0_
#375546
0h
#375862
1g
#376050
0l
#376237
1h
#390000
b1101 "
0*
#390843
1}
#392184
1:
#392348
1F
#392667
1;
#393035
1=
#393172
1?
#393173
1E
#393175
0<
#393727
1>
#393805
1A
#394178
0F
#394238
0D
#394439
1C
#394592
1D
#394634
05
#394635
1I
#395141
0D
#395252
0K
#395637
0L
#395725
0T
#395985
0J
#396319
0S
#396508
0e
#396512
1U
#396569
09
#396715
0O
#397044
0]
#397195
0h
#397400
1d
#397427
0g
#397428
1l
0j
#397914
0f
0r
#398300
0o
#398465
0k
#398796
0\
#399607
0d
#399641
0i
#399644
0`
#400130
0a
#400517
0b
#400522
1_
#400877
0'
#400961
0c
#401105
0(
#401366
1%
#401579
0)
#402411
0&
#420000
b1111 "
b1110 "
1*
#420843
0}
#420853
1|
#422184
0:
#422319
1H
#422348
1F
#422528
0A
#422542
1L
#422667
0;
#422788
0I
#422930
1J
#423035
0=
#423162
0C
#423172
0?
#423173
0E
#423175
1<
#423357
15
#423620
1O
#423727
0>
#423895
1T
#423975
1K
#423989
1]
#424041
0H
#424178
0F
#424370
1m
#424592
1D
#424678
1e
#424682
0U
#424687
18
#424762
1V
#424842
0Y
#424922
1Z
#425042
1S
#425087
08
#425140
1X
#425220
1W
#425292
19
#425300
1j
#425380
0[
#425846
0V
#425867
0X
#425926
1Y
#426005
0n
#426070
1p
#426084
1r
#426126
0Z
#426172
1o
#426237
1q
#426304
0W
#426558
1f
#426584
1[
#426586
17
#426907
1H
#426964
0q
#426969
1:
#427154
0p
#427188
0_
#427192
0^
#427209
1n
#427452
1;
#427513
1i
#427602
1\
#427815
0l
#427820
1=
#427957
1?
#427958
1E
#427960
0<
#428054
1$
#428144
1k
#428383
1c
#428392
1_
#428396
1^
#428512
1>
#428590
1A
#428636
1`
#428826
0H
#428963
1F
#429019
1l
#429023
0D
#429026
1d
#429122
1a
#429125
0m
#429224
1C
#429295
1I
#429377
1D
#429419
05
#429509
1b
#429514
0_
#429926
0D
#429953
1g
#430037
0K
#430141
0l
#430148
0d
#430223
1)
#430328
1h
#431354
09
#432090
1&
#432213
0j
#432809
0$
#433085
0o
#433581
0\
#433631
1(
#434010
1'
#434079
0%
#434426
0i
#434429
0`
#434915
0a
#434918
1m
#435057
0k
#435302
0b
#435307
1_
#435746
0g
0c
#435934
1l
#435941
1d
#436121
0h
#436224
0d
#438602
1$
#439003
0&
#439424
0(
#439803
0'
#439872
1%
#450000
b1111 "
0*
#450843
1}
#452319
1H
#452348
0F
#452542
0L
#452788
0I
#452930
0J
#453419
0S
#453620
0O
#453776
1J
#453895
0T
#453925
1L
#454223
1V
#454244
1X
#454303
0Y
#454383
1Z
#454678
0e
#454681
1W
#454682
1U
#454761
1j
#454762
0V
#454802
1S
#454841
0[
#454842
1Y
#454922
0Z
#455003
1O
#455220
0W
#455300
0j
#455341
1q
#455380
1[
#455466
0n
#455531
1p
#456005
1n
#456070
0p
#456084
0r
#456558
0f
#456694
1g
#460223
0)
#460372
1(
#480000
b11111 "
b10111 "
b10011 "
b10001 "
b10000 "
1*
#480833
1y
0z
0{
#480843
0}
#480853
0|
#482319
0H
#482348
1F
#482788
1I
#483895
1T
#484010
16
#484219
06
#484678
1e
#484682
0U
#485140
0X
#486084
1r
#486237
0q
#486402
0G
#486405
0E
#486408
0>
#486410
0?
#486558
1f
#486586
07
#486604
0:
#486641
0C
#486920
0F
#486955
1>
#486957
1?
#486960
1<
#486970
0A
#487037
0I
#487087
0;
#487113
15
#487410
1F
#487455
0=
#487502
0J
#487590
0g
#487799
05
#487800
1I
#487826
1H
#487896
1K
#487948
0S
#487992
1J
#488295
0I
#488640
0K
#488752
1V
#488773
1X
#488832
0Y
#488912
1Z
#488963
1S
#489210
1W
#489290
1j
#489370
0[
#489707
0S
#489726
16
#489767
0V
#489788
0X
#489847
1Y
#489870
1q
#489927
0Z
#489995
0n
#490060
1p
#490162
1o
#490223
1)
#490225
0W
#490305
0j
#490385
1[
#490511
1V
#490532
1X
#490885
0q
#491010
1n
#491075
0p
#491177
0o
#491178
0_
#491182
0^
#491268
0(
#491629
1q
#491805
0l
#492193
1_
#492197
1^
#492820
1l
#492982
1g
#496660
1(
#510000
b10001 "
0*
#510843
1}
#512319
0H
#512348
0F
#512528
1A
#512788
1I
#513357
15
#513358
0I
#513895
0T
#514010
06
#514678
0e
#514682
1U
#514688
16
#514762
0V
#515140
0X
#515784
1W
#516084
0r
#516237
0q
#516558
0f
#516634
1p
#517590
0g
#518298
1b
#519117
1h
#520223
0)
#521268
0(
#522799
1'
#540000
b10011 "
b10010 "
1*
#540843
0}
#540853
1|
#542319
1H
#542348
1F
#542528
0A
#543357
05
#543778
18
#543895
1T
#544352
19
#544678
1e
#544682
0U
#544687
08
#544762
1V
#545140
1X
#545211
1j
#545220
0W
#545261
09
#546070
0p
#546083
1o
#546084
1r
#546120
0j
#546237
1q
#546558
1f
#546579
1\
#546586
17
#546907
0H
#546970
1A
#546992
0o
#547488
0\
#547590
1g
#547591
1c
#547734
0b
#547799
15
#547948
1S
#548069
1d
#548357
0c
#548553
0h
#548752
0V
#548773
0X
#548835
0d
#549210
1W
#549870
0q
#550060
1p
#550223
1)
#551223
0g
#551268
1(
#551724
1b
#552235
0'
#552543
1h
#554901
0(
#556225
1'
#570000
b10011 "
0*
#570843
1}
#572319
1H
#572348
0F
#573895
0T
#574678
0e
#574682
1U
#575140
1X
#576084
0r
#576237
1q
#576318
1\
#576558
0f
#577590
1g
#577591
1c
#577722
1`
#578069
1d
#578208
1a
#578211
0m
#578600
0_
#579039
0g
0c
#579040
1i
#579227
0l
#579234
0d
#579671
1k
#579910
1c
#580223
0)
#581895
0$
#583165
0%
#583617
1&
#600000
b10111 "
b10101 "
b10100 "
1*
#600833
1{
#600843
0}
#600853
0|
#602319
0H
#602348
1F
#603895
1T
#604010
06
#604219
16
#604678
1e
#604682
0U
#605140
0X
#606084
1r
#606237
0q
#606318
0\
#606399
1;
#606402
1G
#606558
1f
#606586
07
#606641
1C
#606907
1H
#606970
0A
#607037
1I
#607113
05
#607343
1D
#607376
0I
#607454
1K
#607590
1g
#607604
0C
#607722
0`
0b
#607799
15
#607948
0S
#608167
06
#608208
0a
#608211
1m
#608306
0D
#608417
0K
#608521
1S
#608541
0h
#608595
1b
#608600
1_
#608752
1V
#608771
19
#608773
1X
#608801
18
#608832
0Y
#608912
1Z
#609039
0g
#609040
0i
#609227
1l
#609234
1d
#609325
0V
#609346
0X
#609370
0[
#609405
1Y
#609414
1h
#609484
0S
#609605
0Z
#609671
0k
#609783
0W
#609863
1j
#609870
1q
#609910
0c
#609995
0n
#610063
1[
#610223
1)
#610288
1V
#610309
1X
#610368
0Y
#610388
0d
#610443
0q
#610633
0p
#610688
1n
#610735
1o
#610746
1W
#610826
0j
#611231
1\
#611406
1q
#611596
1p
#611698
0o
#611895
1$
#612759
1g
#612760
1c
#612891
1`
#613165
1%
#613238
1d
#613377
1a
#613380
0m
#613617
0&
#613769
0_
#614208
0g
0c
#614209
1i
#614396
0l
#614403
0d
#614840
1k
#615079
1c
#617064
0$
#618334
0%
#618786
1&
#630000
b10101 "
0*
#630843
1}
#632319
0H
#632348
0F
#632528
1A
#633162
1C
#633357
05
#633358
1I
#633864
1D
#633895
0T
#633969
08
#634010
16
#634359
18
#634543
09
#634678
0e
#634682
1U
#634688
06
#634762
0V
#634933
19
#635079
1Y
#635140
0X
#635784
0W
#635792
1j
#636084
0r
#636237
0q
#636318
0\
#636558
0f
#636634
0p
#636664
1o
#637160
1\
#637590
1g
#637722
0`
0b
#638008
1`
#638298
1b
#638541
0h
#639117
1h
#640223
0)
#641268
1(
#660000
b10111 "
b10110 "
1*
#660843
0}
#660853
1|
#662319
1H
#662348
1F
#662528
0A
#662788
0I
#663162
0C
#663357
15
#663864
0D
#663969
08
#664098
1T
#664359
18
#664543
09
#664881
1e
#664885
0U
#664933
19
#664965
1V
#665045
0Y
#665125
1Z
#665343
1X
#665423
1W
#665583
0[
#665767
0Z
#665792
0j
#666208
0n
#666225
1[
#666273
1p
#666287
1r
#666440
1q
#666586
17
#666664
0o
#666761
1f
#666850
1n
#666907
0H
#666970
1A
#667604
1C
#667734
0i
#667793
0g
#667799
05
#667800
1I
#667948
1S
#668005
1i
#668306
1D
#668557
08
#668752
0V
#668773
0X
#668801
18
#668832
1Y
#669210
0W
#669290
1j
#669870
0q
#669951
0\
#670060
0p
#670162
1o
#670426
1)
#670658
1\
#671223
1g
#671471
0(
#674901
1(
#690000
b10111 "
0*
#690843
1}
#692184
1:
#692319
1H
#692348
0F
#692788
0I
#693035
1=
#693647
1K
#693969
08
#720000
b11111 "
b11011 "
b11001 "
b11000 "
1*
#720833
1z
0{
#720843
0}
#720853
0|
#722184
0:
#722319
0H
#722348
1F
#722788
1I
#723035
0=
#723647
0K
#723969
18
#726399
0;
#726402
0G
#726405
1E
#726406
1@
#726408
0<
#726409
1B
#726410
0?
#726586
07
#726641
0C
#726897
1C
#726902
1G
#726903
0B
#726904
1?
#726905
0E
#726906
0@
#726970
0A
#727037
0I
#727070
1H
#727391
0C
#727402
0G
#727471
0D
#727799
15
#727948
0S
#727966
08
#728088
1K
#728093
1D
#728113
05
#728540
09
#728752
1V
#728773
1X
#728832
0Y
#729155
1S
#729210
1W
#729374
1Z
#729405
19
#729832
0[
#729870
1q
#729959
0V
#729980
0X
#730039
1Y
#730060
1p
#730239
0Z
#730417
0W
#730457
0n
#730697
1[
#730850
0\
#731077
0q
#731221
0^
#731223
0g
#731267
0p
#731322
1n
#731612
0i
#731644
1^
#731692
1_
#731715
1\
#732115
0_
#732243
0k
#732319
1l
#732326
1d
#732430
1g
#732728
1i
#732742
0l
#732749
0d
#733359
1k
#750000
b11001 "
0*
#750843
1}
#752319
0H
#752348
0F
#752528
1A
#752788
1I
#753357
15
#753358
0I
#753647
0K
#753969
18
#754217
1K
#754687
08
#754714
0S
#755284
1S
#755518
1V
#755539
1X
#755598
0Y
#755976
1W
#756056
0j
#756088
0V
#756109
0X
#756168
1Y
#756546
0W
#756626
1j
#756636
1q
#756826
1p
#756928
0o
#757206
0q
#757396
0p
#757498
1o
#780000
b11011 "
b11010 "
1*
#780843
0}
#780853
1|
#782319
1H
#782348
1F
#782528
0A
#783357
05
#786586
17
#786907
0H
#786969
1:
#786970
1A
#787452
1;
#787799
15
#787820
1=
#787956
1B
#787957
0?
#787958
1E
#787959
1@
#788444
1C
#788455
1G
#788557
18
#788963
0F
#789014
07
#789090
1I
#789129
08
#789146
0D
#789166
05
#789257
0K
#789970
16
#790078
0J
#790227
0L
#790376
0S
#790497
06
#790510
0T
#790574
09
#791137
0]
#791180
1V
#791201
1X
#791260
0Y
#791288
0h
#791293
0e
#791297
1U
#791305
0O
#791340
1Z
#791377
0V
#791457
1Y
#791493
1d
#791520
0g
#791521
1l
#791537
0Z
#791755
0X
#791915
0j
#792298
1q
#792699
0f
#792952
0k
#793283
0\
#793649
0^
#793783
0b
#794040
0i
#794094
0d
#794120
1_
#794910
0c
#794970
0'
#795198
0(
#795459
1%
#796364
0)
#796898
0&
#810000
b11011 "
0*
#810843
1}
#812348
1F
#812542
1L
#812930
1J
#813620
1O
#813625
1f
#813895
1T
#813989
1]
#814124
17
#814678
1e
#814682
0U
#814762
1V
#814842
0Y
#814922
1Z
#815140
1X
#815220
1W
#815300
1j
#815380
0[
#815486
1S
#815561
0q
#815563
0o
0r
#816005
0n
#816037
0f
#816070
1p
#816084
1r
#816172
1o
#816237
1q
#816290
0V
#816311
0X
#816370
1Y
#816450
0Z
#816558
1f
#816748
0W
#816828
0j
#816908
1[
#817192
1^
#817290
1)
#817408
0q
#817432
0`
#817533
1n
#817598
0p
#817663
0_
#817700
0o
#817734
1b
#817918
0a
#817921
1m
#818290
0l
#818553
1h
#818716
1_
#818720
0^
#818750
1i
#819041
0i
#819262
0b
#819301
1^
#819343
1l
#820081
0h
#821605
1$
#840000
b11111 "
b11101 "
b11100 "
1*
#840833
1{
#840843
0}
#840853
0|
#842348
0F
#842542
0L
#842930
0J
#843419
0S
#843620
0O
#843895
0T
#843989
0]
#844124
07
#844223
1V
#844244
1X
#844303
0Y
#844370
0m
#844383
1Z
#844678
0e
#844681
1W
#844682
1U
#844761
1j
#844762
0V
#844841
0[
#844842
1Y
#844922
0Z
#845140
0X
#845220
0W
#845300
0j
#845341
1q
#845380
1[
#845422
1g
#845561
0q
#846084
0f
#846318
0g
#846402
0G
#846586
17
#846907
1H
#846969
0:
#846970
0A
#847037
0I
#847113
15
#847799
05
#847820
0=
#848025
1J
#848054
0$
#848174
1L
#849051
1S
#849084
1]
#849252
1O
#849257
1f
#849465
1m
#849749
0)
#849876
1X
#850656
1q
#850658
0r
#851132
0f
#852009
1g
#853149
1$
#855687
1(
#870000
b11101 "
0*
#870843
1}
#872184
1:
#872348
1F
#873035
1=
#873895
1T
#874010
16
#874124
07
#874678
1e
#874682
0U
#875106
1W
#875140
0X
#875486
0S
#875956
1p
#876084
1r
#876237
0q
#876290
1V
#876311
1X
#876558
1f
#876748
0W
#877408
1q
#877489
1\
#877598
0p
#877620
1b
#878081
0\
#878243
1c
#878439
1h
#878721
1d
#879262
0b
#879885
0c
#880081
0h
#880223
1)
#880363
0d
#900000
b11111 "
b11110 "
1*
#900843
0}
#900853
1|
#902184
0:
#902348
0F
#903035
0=
#903895
0T
#904010
06
#904124
17
#904678
0e
#904682
1U
#904762
0V
#905140
0X
#905486
1S
#906084
0r
#906237
0q
#906311
1X
#906558
0f
#906586
07
#906907
0H
#906969
1:
#906970
1A
#907408
1q
#907799
15
#907820
1=
#907948
0S
#908773
0X
#909130
16
#909870
0q
#910223
0)
#910226
1W
#911076
1p
#911223
0g
#912740
1b
#913559
1h
#914901
0(
#917241
1'
#930000
b11111 "
0*
#930843
1}
#932348
1F
#933895
1T
#934124
17
#934678
1e
#934682
0U
#934762
1V
#935140
1X
#935220
0W
#935486
1S
#936070
0p
#936084
1r
#936237
1q
#936290
0V
#936311
0X
#936558
1f
#936748
1W
#937408
0q
#937598
1p
#937734
0b
#938553
0h
#939262
1b
#940081
1h
#940223
1)
#960000
b111111 "
b101111 "
b100111 "
b100011 "
b100001 "
b100000 "
1*
#960833
0y
0z
0{
#960843
0}
#960853
1x
0|
#962348
0F
#963895
0T
#964124
07
#964678
0e
#964682
1U
#965140
1X
#965486
0S
#966084
0r
#966237
1q
#966311
0X
#966318
1\
#966402
1G
#966406
0@
#966558
0f
#966586
17
#966604
0:
#966888
0;
#966910
0=
#966920
1F
#966956
1@
#966957
1?
0B
#966961
0G
#966970
0A
#967037
1I
#967113
05
#967392
1B
#967393
0?
#967394
0E
#967396
1<
#967408
0q
#967445
0C
#967461
07
#967489
0\
#967722
1`
#967891
1G
#967948
1S
#968011
17
#968174
0L
#968208
1a
#968211
0m
#968262
1H
#968399
0F
#968444
06
#968467
1T
#968526
0I
#968600
0_
#968602
15
#968773
1X
#968893
0`
0b
#968981
0J
#969039
1g
1c
#969040
1i
#969051
0S
#969227
0l
#969250
1e
#969252
0O
#969254
0U
#969379
0a
#969382
1m
#969514
1J
#969540
0W
#969663
1L
#969671
1k
#969712
0h
#969766
1b
#969771
1_
#969855
1V
#969870
1q
#969933
16
#969935
0Y
#969946
0T
#969951
1\
#970015
1Z
#970210
0g
#970211
0i
#970223
0)
#970313
1W
#970390
0p
#970393
1j
#970398
1l
#970405
1d
#970473
0[
