Lab 4/simulation/qsim/g21_lab4.msim.vcd
$comment
	File created using the following command:
		vcd file g21_lab4.msim.vcd -direction
$end
$date
	Thu Nov 16 15:22:14 2017
$end
$version
	ModelSim Version 10.1d
$end
$timescale
	1ps
$end
$scope module g21_rules_vlg_vec_tst $end
$var reg 6 ! card_to_play [5:0] $end
$var reg 6 " play_pile_top_card [5:0] $end
$var wire 1 # legal_play $end
$var wire 1 $ total_value [5] $end
$var wire 1 % total_value [4] $end
$var wire 1 & total_value [3] $end
$var wire 1 ' total_value [2] $end
$var wire 1 ( total_value [1] $end
$var wire 1 ) total_value [0] $end
$var wire 1 * sampler $end
$scope module i1 $end
$var wire 1 + gnd $end
$var wire 1 , vcc $end
$var wire 1 - unknown $end
$var tri1 1 . devclrn $end
$var tri1 1 / devpor $end
$var tri1 1 0 devoe $end
$var wire 1 1 Add1~3 $end
$var wire 1 2 Add1~4_combout $end
$var wire 1 3 Add1~5 $end
$var wire 1 4 Add1~6_combout $end
$var wire 1 5 Add3~2_combout $end
$var wire 1 6 Add3~5 $end
$var wire 1 7 Add3~6_combout $end
$var wire 1 8 Add3~7 $end
$var wire 1 9 Add3~8_combout $end
$var wire 1 : card_val_assign~0_combout $end
$var wire 1 ; total_value_temp[3]~4_combout $end
$var wire 1 < modulo_top|inst1|inst26|inst16~0_combout $end
$var wire 1 = modulo_top|inst1|inst28|inst16~0_combout $end
$var wire 1 > modulo_top|inst5|inst26|inst13~3_combout $end
$var wire 1 ? modulo_top|inst1|inst27|inst16~0_combout $end
$var wire 1 @ modulo_top|inst4|inst25|inst15~0_combout $end
$var wire 1 A modulo_top|inst5|inst25|inst16~3_combout $end
$var wire 1 B modulo_top|inst1|inst30|inst13~combout $end
$var wire 1 C modulo_top|inst1|inst29|inst13~combout $end
$var wire 1 D modulo_top|inst5|inst24|inst16~0_combout $end
$var wire 1 E modulo_top|inst5|inst25|inst16~2_combout $end
$var wire 1 F modulo_top|inst5|inst26|inst13~2_combout $end
$var wire 1 G modulo_top|inst5|inst24|inst13~combout $end
$var wire 1 H modulo_top|inst1|inst28|inst16~1_combout $end
$var wire 1 I modulo_top|inst5|inst25|inst13~0_combout $end
$var wire 1 J Equal0~0_combout $end
$var wire 1 K total_value_temp[0]~11_combout $end
$var wire 1 L total_value_temp[0]~11clkctrl_outclk $end
$var wire 1 M Add2~1_combout $end
$var wire 1 N Equal0~1_combout $end
$var wire 1 O LessThan2~0_combout $end
$var wire 1 P total_value_temp[4]~1_combout $end
$var wire 1 Q Equal0~1clkctrl_outclk $end
$var wire 1 R Add3~1_cout $end
$var wire 1 S Add3~3 $end
$var wire 1 T Add3~4_combout $end
$var wire 1 U LessThan4~0_combout $end
$var wire 1 V modulo_top|inst5|inst25|inst13~combout $end
$var wire 1 W top_val[3]~0_combout $end
$var wire 1 X top_val[3]~1_combout $end
$var wire 1 Y modulo_top|inst5|inst|inst23~combout $end
$var wire 1 Z top_val[2]~2_combout $end
$var wire 1 [ Add0~0_combout $end
$var wire 1 \ top_val[1]~3_combout $end
$var wire 1 ] top_val[0]~4_combout $end
$var wire 1 ^ Add4~1 $end
$var wire 1 _ Add4~3 $end
$var wire 1 ` Add4~5 $end
$var wire 1 a Add4~6_combout $end
$var wire 1 b total_value_temp[3]~5_combout $end
$var wire 1 c Add4~7 $end
$var wire 1 d Add4~8_combout $end
$var wire 1 e total_value_temp[4]~0_combout $end
$var wire 1 f Add2~0_combout $end
$var wire 1 g total_value_temp[4]~2_combout $end
$var wire 1 h total_value_temp[4]~3_combout $end
$var wire 1 i Add4~2_combout $end
$var wire 1 j Add1~0_combout $end
$var wire 1 k total_value_temp[1]~8_combout $end
$var wire 1 l total_value_temp[1]~9_combout $end
$var wire 1 m Add4~4_combout $end
$var wire 1 n Add2~2_combout $end
$var wire 1 o Add1~1 $end
$var wire 1 p Add1~2_combout $end
$var wire 1 q total_value_temp[2]~6_combout $end
$var wire 1 r total_value_temp[2]~7_combout $end
$var wire 1 s LessThan5~0_combout $end
$var wire 1 t Add4~0_combout $end
$var wire 1 u total_value_temp[0]~10_combout $end
$var wire 1 v new_ace~combout $end
$var wire 1 w try_add [4] $end
$var wire 1 x try_add [3] $end
$var wire 1 y try_add [2] $end
$var wire 1 z try_add [1] $end
$var wire 1 { try_add [0] $end
$var wire 1 | fake_add [4] $end
$var wire 1 } fake_add [3] $end
$var wire 1 ~ fake_add [2] $end
$var wire 1 !! fake_add [1] $end
$var wire 1 "! fake_add [0] $end
$var wire 1 #! play_pile_top_card~combout [5] $end
$var wire 1 $! play_pile_top_card~combout [4] $end
$var wire 1 %! play_pile_top_card~combout [3] $end
$var wire 1 &! play_pile_top_card~combout [2] $end
$var wire 1 '! play_pile_top_card~combout [1] $end
$var wire 1 (! play_pile_top_card~combout [0] $end
$var wire 1 )! card_to_play~combout [5] $end
$var wire 1 *! card_to_play~combout [4] $end
$var wire 1 +! card_to_play~combout [3] $end
$var wire 1 ,! card_to_play~combout [2] $end
$var wire 1 -! card_to_play~combout [1] $end
$var wire 1 .! card_to_play~combout [0] $end
$upscope $end
$upscope $end
$enddefinitions $end
#0
$dumpvars
b110 !
b0 "
x#
x)
x(
x'
x&
x%
x$
x*
0+
1,
x-
1.
1/
10
x1
x2
x3
x4
x5
x6
x7
x8
x9
x:
x;
x<
x=
x>
x?
x@
xA
xB
xC
xD
xE
xF
xG
xH
xI
xJ
xK
xL
xM
xN
xO
xP
xQ
xR
xS
xT
xU
xV
xW
xX
xY
xZ
x[
x\
x]
x^
x_
x`
xa
xb
xc
xd
xe
xf
xg
xh
xi
xj
xk
xl
xm
xn
xo
xp
xq
xr
xs
xt
xu
xv
x{
xz
xy
xx
xw
z"!
x!!
x~
x}
x|
0(!
0'!
0&!
0%!
0$!
0#!
0.!
1-!
1,!
0+!
0*!
0)!
$end
#5615
0<
#5824
0S
#5855
0D
#5904
16
#5984
08
#6043
0^
#6053
0?
#6070
0H
#6076
0A
0B
#6084
0I
#6145
0=
#6146
0@
#6147
0C
0>
#6157
0R
#6282
0T
#6355
0E
#6362
07
#6442
19
#6559
0V
#6615
05
#6803
0G
0Y
#7063
0F
#7501
0[
#7667
1J
#7888
0W
#8147
1O
#8222
1]
#8434
0Z
#8654
1K
1N
#8879
1e
#9278
1t
#10265
1L
#10271
1Q
#10895
1P
#11599
1u
#11856
0!!
#11863
0}
1|
#11864
0~
#12068
1g
#12300
0k
#12301
1;
#12308
1q
#12972
1U
#13462
1\
#13834
1X
#14262
0_
#14267
1v
#14283
0i
#14342
1`
#14422
0c
#14720
0m
#14800
0a
#14880
1d
#15264
1)
#15422
0l
#15775
0b
#15835
0r
#15933
1h
#16897
0s
#17960
1$
#19359
0(
#19456
0&
#19500
0'
#19880
1%
#20839
1#
#30000
b1 "
0*
#30863
1(!
#32365
1Y
#32585
0N
#33377
0K
#33451
0\
#33456
0X
#33784
0]
#33857
0v
#34179
1[
#34202
0Q
#34245
1c
#34251
1_
#34266
1a
#34272
1i
#34331
0`
#34703
0d
#34709
1m
#34789
0a
#34826
0P
#34840
0t
#34988
0L
#35530
xu
#35756
0h
#35821
1\
#35824
1r
#35998
1b
#35999
0g
#36231
xk
#36232
x;
#36239
0q
#36563
0{
#36565
1z
#36621
0_
#36642
0i
#36701
1`
#36709
1y
#36710
0x
#36717
xh
#36920
0w
#36932
xl
#36951
xr
#37045
0u
#37079
0m
#37088
xb
#37120
1s
#37159
1a
#37330
1k
#37550
0$
#37581
1r
#37683
1o
#37711
0j
#37729
1M
#37730
0;
#37736
0z
#37788
0y
#37832
01
#37868
0n
#38028
1x
#38031
1l
#38053
03
#38069
0:
#38070
1f
#38141
1p
#38210
xs
#38290
12
#38501
0k
#38511
04
#38586
0b
#38660
0r
#38845
0h
#38854
0o
#38882
1j
#38934
11
#39048
1;
#39202
0l
#39708
0s
#39904
1b
#40710
0)
#42792
0%
#43585
1&
#60000
b11 "
b10 "
1*
#60843
1'!
#60863
0(!
#62365
0Y
#62585
1N
#63377
1K
#63456
1X
#63784
1]
#64179
0[
#64202
1Q
#64245
0c
#64266
0a
#64703
1d
#64826
1P
#64840
1t
#64988
1L
#65135
0x
#65327
1w
#65998
0b
#65999
1g
#66141
1v
#66154
0M
#66178
1u
#66182
1{
#66239
1q
#66504
02
#66563
0{
#66626
1G
1[
#66671
14
#66717
1h
#67490
0J
#68477
0K
0N
#68957
0v
#69348
0X
#69679
0&
#69843
1)
#70088
0L
#70094
0Q
#70137
1c
#70158
1a
#70595
0d
#70664
1%
#70718
0P
#71133
1b
#71422
0u
#71648
0h
#71663
1{
#71810
1x
#71891
0g
#72020
0w
#72124
0;
#72131
0q
#72145
1u
#72255
1s
#72609
1h
#72829
1:
1M
#72830
1;
#72831
0f
#72980
0b
#73169
0:
#73170
1f
#73179
12
#73364
04
#73686
1b
#73945
0h
#74102
0s
#74808
1s
#75891
0s
#76197
0#
#77367
1&
#77892
0%
#79833
1#
#90000
b11 "
0*
#90863
1(!
#92365
1Y
#93784
0]
#93996
1Z
#94179
0[
#94840
0t
#95052
1m
#95761
1y
#95821
0\
#96182
0{
#96621
1_
#96633
1r
#96642
1i
#96664
0u
#96880
0p
#96884
01
#96920
1n
#96964
13
#97079
0m
#97342
02
#97422
14
#97736
1z
#97788
0y
#98501
1k
#98660
0r
#98854
1o
#98882
0j
#99202
1l
#100329
0)
#103139
1(
#120000
b111 "
b101 "
b100 "
1*
#120843
0'!
#120853
1&!
#120863
0(!
#122365
0Y
#123784
1]
#123996
0Z
#124179
1[
#124840
1t
#125026
0`
#125052
1m
#125484
0a
#125761
1y
#125821
1\
#126182
1{
#126353
0x
#126621
0_
#126626
0G
0[
#126633
1r
#126642
0i
#126664
1u
#126701
1`
#126880
1p
#126920
0n
#126921
0M
#126937
1I
#127079
0m
#127159
1a
#127372
1M
#127373
0;
#127696
03
#127722
12
#127736
0z
#127755
1V
#127788
0y
#128028
1x
#128154
04
#128229
0b
#128268
0\
#128501
0k
#128660
0r
#128854
0o
#128882
1j
#128902
1Z
#128934
11
#129048
1;
#129068
1_
#129089
1i
#129148
0`
#129202
0l
#129606
0a
#129904
1b
#129932
1`
#130183
1z
#130329
1)
#130390
1a
#130475
0x
#130948
1k
#130949
1n
#131259
1x
#131301
1o
#131329
0j
#131381
01
#131461
13
#131649
1l
#131759
0p
#131839
02
#131919
14
#150000
b101 "
0*
#150863
1(!
#152365
1Y
#153784
0]
#154179
1[
#154840
0t
#155821
1\
#156182
0{
#156621
0_
#156642
0i
#156664
0u
#157079
1m
#157736
0z
#157788
1y
#158501
0k
#158660
1r
#158854
0o
#158882
1j
#159202
0l
#160329
0)
#162325
1'
#163139
0(
#180000
b111 "
b110 "
1*
#180843
1'!
#180863
0(!
#182365
0Y
#183784
1]
#184179
0[
#184840
1t
#185821
0\
#186182
1{
#186621
1_
#186626
1G
1[
#186642
1i
#186664
1u
#187079
0m
#187736
1z
#187788
0y
#188268
1\
#188501
1k
#188660
0r
#188854
1o
#188882
0j
#189068
0_
#189089
0i
#189202
1l
#189526
1m
#190183
0z
#190235
1y
#190329
1)
#190948
0k
#191107
1r
#191301
0o
#191329
1j
#191649
0l
#210000
b111 "
0*
#210863
1(!
#212200
1<
#212365
1Y
#212672
1=
#212902
1?
#213735
1W
#213784
0]
#213996
0Z
#214179
0[
#214389
1X
#214840
0t
#215052
0m
#215178
0c
#215199
0a
#215636
1d
#215761
0y
#215821
0\
#216068
0x
#216182
0{
#216260
1w
#216621
1_
#216633
0r
#216642
1i
#216664
0u
#216701
0`
#216781
1c
#216880
1p
#216884
11
#216920
0n
#216964
03
#217079
1m
#217087
0M
#217088
0;
#217159
1a
#217239
0d
#217736
1z
#217788
1y
#217863
0w
#217944
0b
#218028
1x
#218185
1h
#218501
1k
#218660
1r
#218854
1o
#218882
0j
#218911
01
#218991
13
#219048
1;
#219202
1l
#219788
0h
#219904
1b
#220131
1s
#220329
0)
#221734
0s
#223139
1(
#240000
b1111 "
b1011 "
b1001 "
b1000 "
1*
#240843
0'!
#240853
0&!
#240863
1%!
0(!
#242200
0<
#242365
0Y
#242672
0=
#242902
0?
#243735
0W
#243784
1]
#243996
1Z
#244179
1[
#244389
0X
#244840
1t
#245026
1`
#245052
0m
#245761
0y
#245821
1\
#246182
1{
#246621
0_
#246626
0G
0[
#246633
0r
#246642
0i
#246664
1u
#246880
0p
#246920
1n
#246921
1M
#246937
0I
#246943
1>
#247079
1m
#247603
1J
#247736
0z
#247755
0V
#247788
1y
#248010
1F
#248268
0\
#248501
0k
#248660
1r
#248801
1W
#248854
0o
#248882
1j
#248902
0Z
#249068
1_
#249089
1i
#249202
0l
#249455
1X
#249932
0`
#250183
1z
#250329
1)
#250948
1k
#250949
0n
#251301
1o
#251325
0M
#251329
0j
#251649
1l
#251759
1p
#270000
b1001 "
0*
#270863
1(!
#272365
1Y
#273784
0]
#274179
1[
#274840
0t
#275821
1\
#276182
0{
#276621
0_
#276642
0i
#276664
0u
#276701
1`
#276781
0c
#277079
0m
#277159
0a
#277239
1d
#277736
0z
#277788
0y
#277863
1w
#278028
0x
#278501
0k
#278660
0r
#278854
0o
#278882
1j
#278934
11
#279048
0;
#279202
0l
#279207
04
#279371
03
#279788
1h
#279829
14
#279904
0b
#280329
0)
#282325
0'
#283139
0(
#283585
0&
#283735
1%
#300000
b1011 "
b1010 "
1*
#300843
1'!
#300863
0(!
#302365
0Y
#303784
1]
#304179
0[
#304840
1t
#305821
0\
#306182
1{
#306458
1<
#306621
1_
#306626
1G
1[
#306642
1i
#306664
1u
#306701
0`
#306781
1c
#307079
1m
#307159
1a
#307239
0d
#307490
0J
#307736
1z
#307788
1y
#307863
0w
#308028
1x
#308075
0O
#308268
1\
#308477
0]
#308501
1k
#308601
0W
#308660
1r
#308854
1o
#308882
0j
#308911
01
#308991
13
#309048
1;
#309068
0_
#309089
0i
#309148
1`
#309202
1l
#309228
0c
#309526
0m
#309533
0t
#309606
0a
#309686
1d
#309788
0h
#309832
1s
#309904
1b
#310183
0z
#310235
0y
#310310
1w
#310329
1)
#310475
0x
#310875
0{
#310948
0k
#311107
0r
#311301
0o
#311329
1j
#311357
0u
#311381
11
#311495
0;
#311649
0l
#311654
04
#311734
0s
#311818
03
#312235
1h
#312276
14
#312351
0b
#315022
0)
#330000
b1011 "
0*
#330863
1(!
#332365
1Y
#334179
0[
#360000
b1111 "
b1101 "
b1100 "
1*
#360843
0'!
#360853
1&!
#360863
0(!
#362365
0Y
#364179
1[
#366458
0<
#366626
0G
0[
#366906
1?
#366937
1I
#367160
0?
#367755
1V
#368601
1W
#368801
0W
#390000
b1101 "
0*
#390863
1(!
#392200
1<
#392365
1Y
#392672
1=
#392902
1?
#393176
1C
#393177
0>
#393375
1H
#393629
1@
#393657
1D
#394108
0Y
#394157
1E
#394179
1[
#394361
0V
#394460
1J
#394472
0[
#394865
0F
#395177
1O
#395447
1K
1N
#395527
1]
#396583
1t
#397058
1L
#397064
1Q
#397688
1P
#397925
1{
#398392
1u
#398860
1b
#398861
1g
#399003
1v
#399094
1;
#399101
1q
#399950
0b
#399982
1s
#401072
0s
#402057
1)
#402696
1$
#420000
b1111 "
b1110 "
1*
#420843
1'!
#420863
0(!
#422200
0<
#422364
1G
#422365
1Y
#422543
0D
#422585
0N
#422672
0=
#422902
0?
#423043
0E
#423176
0C
#423177
1>
#423247
1V
#423346
0J
#423375
0H
#423377
0K
#423451
0\
#423456
0X
#423629
0@
#423784
0]
#423857
0v
#424046
0G
#424048
1N
#424108
0Y
#424245
1c
#424251
1_
#424266
1a
#424272
1i
#424293
1W
#424331
0`
#424333
0N
#424363
0O
#424394
1Z
#424492
1F
#424703
0d
#424709
1m
#424789
0a
#424840
0t
#424947
1X
#424988
0L
#425095
0e
#425188
1\
#425424
1`
#425431
0Z
#425450
0m
#425478
0W
#425504
0c
#425756
0h
#425950
0Q
#425962
1d
#425988
0_
#426009
0i
#426241
1k
#426253
1h
#426447
1r
#426458
1<
#426463
0;
#426465
0q
#426466
0g
#426563
0{
#426574
0P
#426613
1e
#426626
1G
1[
#426930
1=
#426942
1l
#427045
0u
#427160
1?
#427177
0r
#427184
0h
#427319
1b
#427434
1C
#427435
0>
#427550
0$
#427633
1H
#427746
0b
#427759
0k
#427771
1h
#427887
1@
#427915
1D
#428304
0G
#428366
1Y
#428415
1E
#428460
0l
#428619
0V
#429123
0F
#429168
1J
#429412
1O
#430430
0X
#430710
0)
#431219
1c
#431240
1a
#431677
0d
#432109
1x
#432301
0w
#433128
1:
1M
#433129
1;
#433450
0:
#433478
12
#433645
04
#433985
1b
#434226
0h
#435107
1s
#436172
0s
#437666
1&
#438173
0%
#450000
b1111 "
0*
#450863
1(!
#452364
1G
#452365
0Y
#452585
1N
#453228
0J
#453377
1K
#453456
1X
#453784
1]
#454202
1Q
#454215
0K
0N
#454245
0c
#454266
0a
#454703
1d
#454840
1t
#455086
0X
#455135
0x
#455327
1w
#455832
0Q
#455875
1c
#455896
1a
#456154
0M
#456155
0;
#456182
1{
#456333
0d
#456504
02
#456664
1u
#456671
14
#456765
1x
#456957
0w
#457011
0b
#457252
1h
#457784
1:
1M
#457785
1;
#458106
0:
#458134
12
#458301
04
#458641
1b
#458882
0h
#459763
1s
#460329
1)
#460828
0s
#480000
b11111 "
b10111 "
b10011 "
b10001 "
b10000 "
1*
#480843
0'!
#480853
0&!
#480863
1$!
0%!
0(!
#482364
0G
#482365
1Y
#483228
1J
#483784
0]
#483996
1Z
#484390
0Z
#484840
0t
#486182
0{
#486458
0<
#486626
1G
0[
#486664
0u
#486698
0D
#486919
0E
#486930
0=
#486933
0H
#487010
1>
#487011
0Y
#487160
0?
#487402
1V
#487404
0I
#487501
0J
#487666
1Y
#488023
1K
#488086
0O
#488222
0V
#488268
0\
#488678
0K
#488911
1\
#489010
1O
#489068
1_
#489089
1i
#489104
1X
#489148
0`
#489369
1Z
#489526
1m
#489711
0_
#489732
0i
#489791
1`
#489835
0\
#489871
0c
#490028
0X
#490183
1z
#490235
1y
#490249
0a
#490329
0)
1d
#490635
1_
#490656
1i
#490817
1c
#490826
0z
#490838
1a
#490948
1k
#490953
1w
#491093
0m
#491107
1r
#491118
0x
#491275
0d
#491301
1o
#491329
0j
#491358
01
#491438
13
#491591
0k
#491592
1n
#491649
1l
#491707
1x
#491750
1z
#491802
0y
#491816
02
#491899
0w
#491944
0o
#491972
1j
#492102
1:
#492103
0f
#492292
0l
#492402
0p
#492515
1k
#492674
0r
#492868
1o
#492896
0j
#493048
0:
#493049
1f
#493216
1l
#493243
14
#497153
1(
#510000
b10001 "
0*
#510863
1(!
#512364
0G
#512365
0Y
#512543
1D
#513247
1V
#513784
1]
#514840
1t
#516182
1{
#516664
1u
#520329
1)
#540000
b10011 "
b10010 "
1*
#540843
1'!
#540863
0(!
#542364
1G
#542365
1Y
#542543
0D
#543247
0V
#543784
0]
#544840
0t
#546182
0{
#546626
0G
1[
#546664
0u
#546698
1D
#547402
1V
#548268
1\
#549068
0_
#549089
0i
#549526
1m
#550183
0z
#550235
1y
#550329
0)
#550948
0k
#551107
1r
#551301
0o
#551329
1j
#551649
0l
#554772
1'
#555586
0(
#570000
b10011 "
0*
#570863
1(!
#572364
1G
#572365
0Y
#573784
1]
#574840
1t
#576182
1{
#576664
1u
#580329
1)
#600000
b10111 "
b10101 "
b10100 "
1*
#600843
0'!
#600853
1&!
#600863
0(!
#602364
0G
#602365
1Y
#603735
1W
#603784
0]
#603996
0Z
#604339
0W
#604389
1X
#604390
1Z
#604840
0t
#604993
0X
#605178
0c
#605199
0a
#605636
1d
#605782
1c
#605803
1a
#606068
0x
#606182
0{
#606240
0d
#606260
1w
#606626
1G
0[
#606664
0u
#606672
1x
#606698
0D
#606864
0w
#606919
1E
#606922
1=
#606937
1I
#607198
0E
#608268
0\
#608601
1W
#608652
0Z
#609068
1_
#609089
1i
#609255
1X
#609682
0`
#610183
1z
#610329
0)
#610948
1k
#610949
0n
#611301
1o
#611325
0M
#611329
0j
#611649
1l
#611759
1p
#615586
1(
#630000
b10101 "
0*
#630863
1(!
#632364
0G
#632365
0Y
#632543
1D
#633043
1E
#633228
1J
#633247
0V
#633735
0W
#633751
1F
#633784
1]
#634389
0X
#634576
1W
#634840
1t
#635199
0a
#635230
1X
#636040
1a
#636068
0x
#636182
1{
#636664
1u
#636909
1x
#637087
1M
#637928
0M
#640329
1)
#660000
b10111 "
b10110 "
1*
#660843
1'!
#660863
0(!
#662364
1G
#662365
1Y
#662543
0D
#663043
0E
#663247
1V
#663346
0J
#663751
0F
#663784
0]
#664840
0t
#666182
0{
#666626
0G
1[
#666664
0u
#666698
1D
#667198
1E
#667402
0V
#667490
1J
#667906
1F
#668268
1\
#669068
0_
#669089
0i
#669148
1`
#669228
0c
#669526
0m
#669606
0a
#669686
1d
#670183
0z
#670235
0y
#670310
1w
#670329
0)
#670475
0x
#670948
0k
#671107
0r
#671301
0o
#671329
1j
#671381
11
#671495
0;
#671649
0l
#671654
04
#671818
03
#672235
1h
#672276
14
#672351
0b
#674772
0'
#675586
0(
#676032
0&
#676182
1%
#690000
b10111 "
0*
#690863
1(!
#692200
1<
#692364
1G
#692365
0Y
#692902
1?
#693228
0J
#693784
1]
#693813
0O
#694215
0]
#694339
0W
#720000
b11111 "
b11011 "
b11001 "
b11000 "
1*
#720843
0'!
#720853
0&!
#720863
1%!
0(!
#722200
0<
#722364
0G
#722365
1Y
#722902
0?
#723228
1J
#723813
1O
#724339
1W
#726626
1G
0[
#726698
0D
#726919
0E
#726922
0=
#726933
1H
#726937
0I
#726939
1A
1B
#726943
0>
0C
#727404
1I
#727424
0B
#727426
1C
#727430
0A
#727501
0J
#727625
0H
#727666
0Y
#728096
0I
#728222
1V
#728268
0\
#728358
1Y
#728601
0W
#728914
0V
#728943
0O
#729068
1_
#729089
1i
#729148
0`
#729228
1c
#729255
0X
#729526
1m
#729686
0d
#729768
1\
#729961
1X
#730183
1z
#730235
1y
#730310
0w
#730568
0_
#730589
0i
#730648
1`
#730728
0c
#730948
1k
#731026
0m
#731107
1r
#731186
1d
#731301
1o
#731325
1M
#731329
0j
#731358
01
#731649
1l
#731654
04
#731683
0z
#731735
0y
#731810
1w
#731816
12
#732235
0h
#732279
1s
#732448
0k
#732607
0r
#732801
0o
#732829
1j
#732881
11
#732895
0M
#733088
0s
#733149
0l
#733154
14
#733339
02
#733735
1h
#750000
b11001 "
0*
#750863
1(!
#752364
0G
#752365
0Y
#752543
1D
#753247
1V
#780000
b11011 "
b11010 "
1*
#780843
1'!
#780863
0(!
#782364
1G
#782365
1Y
#782543
0D
#783247
0V
#786458
1<
#786626
0G
1[
#786698
1D
#786930
1=
#787160
1?
#787402
1V
#787432
1B
#787434
0C
#787438
1A
#787633
1H
#788056
1E
#788104
1I
#788366
0Y
#788764
0F
#788770
1J
#788857
0[
#788922
0V
#789376
1O
#789757
1K
1N
#789785
1]
#790841
1t
#791368
1L
#791374
1Q
#791998
1P
#792183
1{
#792702
1u
#793170
1b
#793171
1g
#793313
1v
#793404
1;
#793411
1q
#794260
0b
#794292
1s
#795382
0s
#796367
1)
#797006
1$
#810000
b11011 "
0*
#810863
1(!
#812365
1Y
#812585
0N
#813377
0K
#813451
0\
#813456
0X
#813784
0]
#813857
0v
#814179
1[
#814202
0Q
#814245
1c
#814251
1_
#814266
1a
#814272
1i
#814331
0`
#814703
0d
#814709
1m
#814789
0a
#814826
0P
#814840
0t
#814988
0L
#815756
0h
#815821
1\
#815824
1r
#815998
1b
#815999
0g
#816232
0;
#816239
0q
#816563
0{
#816565
1z
#816621
0_
#816642
0i
#816701
1`
#816709
1y
#816717
1h
#816920
0w
#816951
0r
#817045
0u
#817079
0m
#817088
0b
#817120
1s
#817159
1a
#817330
1k
#817550
0$
#817581
1r
#817683
1o
#817707
1M
#817711
0j
#817736
0z
#817788
0y
#817832
01
#818028
1x
#818031
1l
#818210
0s
#818264
04
#818290
12
#818501
0k
#818660
0r
#818661
1s
#818845
0h
#818854
0o
#818882
1j
#818934
11
#819048
1;
#819141
0s
#819202
0l
#819904
1b
#820710
0)
#822792
0%
#823585
1&
#840000
b11111 "
b11101 "
b11100 "
1*
#840843
0'!
#840853
1&!
#840863
0(!
#842365
0Y
#842585
1N
#843377
1K
#843456
1X
#843784
1]
#844179
0[
#844202
1Q
#844245
0c
#844266
0a
#844703
1d
#844826
1P
#844840
1t
#844988
1L
#845135
0x
#845327
1w
#845998
0b
#845999
1g
#846141
1v
#846154
0M
#846178
1u
#846182
1{
#846239
1q
#846458
0<
#846504
02
#846563
0{
#846626
1G
1[
#846671
14
#846698
0D
#846717
1h
#846937
0I
#847160
0?
#847501
0J
#848488
0K
0N
#848968
0v
#849359
0X
#849679
0&
#849843
1)
#850099
0L
#850105
0Q
#850148
1c
#850169
1a
#850606
0d
#850664
1%
#850729
0P
#851144
1b
#851433
0u
#851659
0h
#851674
1{
#851821
1x
#851902
0g
#852031
0w
#852135
0;
#852142
0q
#852156
1u
#852266
1s
#852620
1h
#852840
1:
1M
#852841
1;
#852842
0f
#852991
0b
#853180
0:
#853181
1f
#853190
12
#853375
04
#853697
1b
#853956
0h
#854113
0s
#854819
1s
#855902
0s
#856208
0#
#857378
1&
#857903
0%
#859844
1#
#870000
b11101 "
0*
#870863
1(!
#872200
1<
#872365
1Y
#872902
1?
#873784
0]
#873996
1Z
#874179
0[
#874840
0t
#875052
1m
#875761
1y
#875821
0\
#876182
0{
#876621
1_
#876633
1r
#876642
1i
#876664
0u
#876880
0p
#876884
01
#876920
1n
#876964
13
#877079
0m
#877342
02
#877422
14
#877736
1z
#877788
0y
#878501
1k
#878660
0r
#878854
1o
#878882
0j
#879202
1l
#880329
0)
#883139
1(
#900000
b11111 "
b11110 "
1*
#900843
1'!
#900863
0(!
#902200
0<
#902365
0Y
#902902
0?
#903784
1]
#903996
0Z
#904179
1[
#904840
1t
#905026
0`
#905052
1m
#905484
0a
#905761
1y
#905821
1\
#906182
1{
#906353
0x
#906458
1<
#906621
0_
#906626
0G
0[
#906633
1r
#906642
0i
#906664
1u
#906698
1D
#906701
1`
#906880
1p
#906920
0n
#906921
0M
#907079
0m
#907159
1a
#907160
1?
#907372
1M
#907373
0;
#907402
1V
#907696
03
#907722
12
#907736
0z
#907788
0y
#908028
1x
#908154
04
#908229
0b
#908268
0\
#908501
0k
#908549
1Z
#908660
0r
#908854
0o
#908882
1j
#908934
11
#909048
1;
#909068
1_
#909089
1i
#909202
0l
#909904
1b
#910183
1z
#910329
1)
#910948
1k
#910949
1n
#911301
1o
#911329
0j
#911381
01
#911461
13
#911649
1l
#911759
0p
#911839
02
#911919
14
#930000
b11111 "
0*
#930863
1(!
#932365
1Y
#933784
0]
#934179
1[
#934840
0t
#935821
1\
#936182
0{
#936621
0_
#936642
0i
#936664
0u
#937079
1m
#937736
0z
#937788
1y
#938501
0k
#938660
1r
#938854
0o
#938882
1j
#939202
0l
#940329
0)
#942325
1'
#943139
0(
#960000
b111111 "
b101111 "
b100111 "
b100011 "
b100001 "
b100000 "
1*
#960843
1#!
0'!
#960853
0&!
#960863
0$!
0%!
0(!
#962365
0Y
#963784
1]
#964179
0[
#964840
1t
#965821
0\
#966182
1{
#966458
0<
#966621
1_
#966626
1G
1[
#966642
1i
#966664
1u
#966698
0D
#966884
0?
#967008
0=
#967010
1C
#967011
1Y
#967012
0A
#967079
0m
#967198
0E
#967402
0V
#967512
0C
#967513
1>
#967516
1A
#967711
0H
#967736
1z
#967788
0y
#967906
1F
#968182
1I
#968268
1\
#968430
0]
#968444
0Y
#968501
1k
#968518
0O
#968580
0F
#968660
0r
#968854
1o
#968882
0j
#969000
1V
#969068
0_
#969089
0i
#969202
1l
#969486
0t
#969513
1O
#969526
1m
#969536
1X
#969863
1]
#970183
0z
#970235
1y
#970325
0c
#970329
1)
#970346
0a
#970531
0X
#970783
1d
#970828
0{
#970919
1t
#970948
0k
#971107
1r
#971215
0x
#971301
0o
#971310
0u
#971320
1c
#971329
1j
#971341
1a
#971407
1w
#971649
0l
#971778
0d
#972210
1x
#972234
0M
#972235
0;
#972261
1{
#972402
0w
#972558
03
#972584
12
#972743
1u
#973091
0b
#973229
1:
1M
#973230
1;
#973551
0:
#973553
13
#973579
02
#974086
1b
#990000
b100001 "
0*
#990863
1(!
#992365
1Y
#993735
1W
#993784
0]
#993996
0Z
#994179
0[
#994389
1X
#994840
0t
#995052
0m
#995178
0c
#995199
0a
#995636
1d
#995761
0y
#995821
0\
#996068
0x
#996182
0{
#996260
1w
#996621
1_
#996633
0r
#996642
1i
#996664
0u
#996701
0`
#996781
1c
#996880
1p
#996884
11
#996920
0n
#996964
03
#997079
1m
#997087
0M
#997088
0;
#997159
1a
#997239
0d
#997736
1z
#997788
1y
#997863
0w
#997944
0b
#998028
1x
#998185
1h
#998501
1k
#998660
1r
#998854
1o
#998882
0j
#998911
01
#998991
13
#999048
1;
#999202
1l
#999788
0h
#999904
1b
#1000131
1s
#1000329
0)
#1001734
0s
#1003139
1(
#1020000
b100011 "
b100010 "
1*
#1020843
1'!
#1020863
0(!
#1022365
0Y
#1023735
0W
#1023784
1]
#1023996
1Z
#1024179
1[
#1024389
0X
#1024840
1t
#1025026
1`
#1025052
0m
#1025761
0y
#1025821
1\
#1026182
1{
#1026621
0_
#1026626
0G
0[
#1026633
0r
#1026642
0i
#1026664
1u
#1026698
1D
#1026880
0p
#1026920
1n
#1026921
1M
#1027079
1m
#1027198
1E
#1027402
0V
#1027490
1J
#1027736
0z
#1027788
1y
#1027906
1F
#1028268
0\
#1028501
0k
#1028549
0Z
#1028660
1r
#1028731
1W
#1028854
0o
#1028882
1j
#1029068
1_
#1029089
1i
#1029202
0l
#1029385
1X
#1029579
0`
