Lab 4_trial/simulation/qsim/g21_Lab_4_tryagain.msim.vcd
$comment
	File created using the following command:
		vcd file g21_Lab_4_tryagain.msim.vcd -direction
$end
$date
	Tue Nov 21 22:41:04 2017
$end
$version
	ModelSim Version 10.1d
$end
$timescale
	1ps
$end
$scope module g21_rules_2_again_vlg_vec_tst $end
$var reg 6 ! card_to_add [5:0] $end
$var reg 6 " current_hand [5:0] $end
$var wire 1 # legal_play $end
$var wire 1 $ total_value [5] $end
$var wire 1 % total_value [4] $end
$var wire 1 & total_value [3] $end
$var wire 1 ' total_value [2] $end
$var wire 1 ( total_value [1] $end
$var wire 1 ) total_value [0] $end
$var wire 1 * sampler $end
$scope module i1 $end
$var wire 1 + gnd $end
$var wire 1 , vcc $end
$var wire 1 - unknown $end
$var tri1 1 . devclrn $end
$var tri1 1 / devpor $end
$var tri1 1 0 devoe $end
$var wire 1 1 Add1~1_cout $end
$var wire 1 2 Add1~2_combout $end
$var wire 1 3 Add1~3 $end
$var wire 1 4 Add1~4_combout $end
$var wire 1 5 Add1~5 $end
$var wire 1 6 Add1~6_combout $end
$var wire 1 7 Add1~7 $end
$var wire 1 8 Add1~8_combout $end
$var wire 1 9 modulo_top|inst1|inst28|inst16~1_combout $end
$var wire 1 : modulo_top|inst5|inst25|inst13~0_combout $end
$var wire 1 ; modulo_top|inst5|inst25|inst13~combout $end
$var wire 1 < card_value[3]~0_combout $end
$var wire 1 = Equal0~0_combout $end
$var wire 1 > Equal0~1_combout $end
$var wire 1 ? card_value[1]~1_combout $end
$var wire 1 @ LessThan2~0_combout $end
$var wire 1 A card_value[3]~2_combout $end
$var wire 1 B Add0~0_combout $end
$var wire 1 C card_value[1]~4_combout $end
$var wire 1 D card_value[0]~5_combout $end
$var wire 1 E Equal0~1clkctrl_outclk $end
$var wire 1 F modulo_top|inst1|inst26|inst16~0_combout $end
$var wire 1 G modulo_top|inst1|inst28|inst16~0_combout $end
$var wire 1 H modulo_top|inst5|inst25|inst16~3_combout $end
$var wire 1 I modulo_top|inst1|inst29|inst13~combout $end
$var wire 1 J modulo_top|inst1|inst30|inst13~combout $end
$var wire 1 K modulo_top|inst5|inst24|inst16~0_combout $end
$var wire 1 L modulo_top|inst5|inst25|inst16~2_combout $end
$var wire 1 M modulo_top|inst1|inst27|inst16~0_combout $end
$var wire 1 N modulo_top|inst4|inst25|inst15~0_combout $end
$var wire 1 O modulo_top|inst5|inst26|inst13~3_combout $end
$var wire 1 P modulo_top|inst5|inst26|inst13~2_combout $end
$var wire 1 Q modulo_top|inst5|inst24|inst13~combout $end
$var wire 1 R modulo_top|inst5|inst|inst23~combout $end
$var wire 1 S card_value[2]~3_combout $end
$var wire 1 T Add2~1 $end
$var wire 1 U Add2~3 $end
$var wire 1 V Add2~4_combout $end
$var wire 1 W Add2~2_combout $end
$var wire 1 X LessThan4~0_combout $end
$var wire 1 Y Add2~5 $end
$var wire 1 Z Add2~6_combout $end
$var wire 1 [ total_value_int~0_combout $end
$var wire 1 \ Add3~1_cout $end
$var wire 1 ] Add3~3 $end
$var wire 1 ^ Add3~5 $end
$var wire 1 _ Add3~6_combout $end
$var wire 1 ` Add3~7 $end
$var wire 1 a Add3~9 $end
$var wire 1 b Add3~10_combout $end
$var wire 1 c Add3~4_combout $end
$var wire 1 d Add3~8_combout $end
$var wire 1 e LessThan5~0_combout $end
$var wire 1 f Add2~0_combout $end
$var wire 1 g Add3~2_combout $end
$var wire 1 h Add2~7 $end
$var wire 1 i Add2~8_combout $end
$var wire 1 j ace_in_total~0_combout $end
$var wire 1 k fake_add [4] $end
$var wire 1 l fake_add [3] $end
$var wire 1 m fake_add [2] $end
$var wire 1 n fake_add [1] $end
$var wire 1 o fake_add [0] $end
$var wire 1 p current_hand~combout [5] $end
$var wire 1 q current_hand~combout [4] $end
$var wire 1 r current_hand~combout [3] $end
$var wire 1 s current_hand~combout [2] $end
$var wire 1 t current_hand~combout [1] $end
$var wire 1 u current_hand~combout [0] $end
$var wire 1 v card_to_add~combout [5] $end
$var wire 1 w card_to_add~combout [4] $end
$var wire 1 x card_to_add~combout [3] $end
$var wire 1 y card_to_add~combout [2] $end
$var wire 1 z card_to_add~combout [1] $end
$var wire 1 { card_to_add~combout [0] $end
$upscope $end
$upscope $end
$enddefinitions $end
#0
$dumpvars
b0 !
b1111 "
x#
x)
x(
x'
x&
x%
x$
x*
0+
1,
x-
1.
1/
10
x1
x2
x3
x4
x5
x6
x7
x8
x9
x:
x;
x<
x=
x>
x?
x@
xA
xB
xC
xD
xE
xF
xG
xH
xI
xJ
xK
xL
xM
xN
xO
xP
xQ
xR
xS
xT
xU
xV
xW
xX
xY
xZ
x[
x\
x]
x^
x_
x`
xa
xb
xc
xd
xe
xf
xg
xh
xi
xj
zo
xn
xm
xl
xk
1u
1t
1s
1r
0q
0p
0{
0z
0y
0x
0w
0v
$end
#1463
03
#1487
07
#1534
15
#1686
11
#1873
04
#1944
16
#2096
12
#5041
0F
#5227
09
#5229
0J
#5234
0H
#5288
0:
#5309
0N
#5311
0I
#5315
0O
#5425
0M
#5451
0G
#5473
0K
#5765
0L
#5815
1[
#5816
0j
#5863
0Q
#5942
0R
#5948
0B
#6018
18
#6397
0;
#6436
0P
#6479
0\
#6550
1]
#6600
1=
#6621
0^
#6692
1`
#6763
0a
#7007
1D
#7041
1@
#7101
0S
#7179
1>
#7315
0<
#8868
1T
#8891
0f
#8939
0U
#9010
1Y
#9081
0h
#9126
1E
#9349
0V
#9491
1i
#9809
0g
#9874
0X
#10000
b1 !
0*
#10224
1b
#10273
0_
#10327
0m
1k
#10456
1n
1l
#10642
0$
#10850
1{
#11245
0?
#12235
0>
#12904
0C
#12954
0A
#13793
0)
#14182
0E
#14816
0W
#14867
1%
#14878
0Z
#15098
0'
#15547
0c
#15612
0d
#15968
1R
#15971
1B
#16160
0D
#16919
1C
#17098
0e
#18021
0T
#18044
1f
#18092
1U
#18163
0Y
#18234
1h
#18502
1V
#18573
1Z
#18644
0i
#18807
0U
#18878
1Y
#18949
0h
#18962
1g
#19217
0V
#19288
0Z
#19307
1d
#19359
1i
#19377
0b
#19426
1_
#19699
0&
#20000
b11 !
b10 !
1*
#20022
0d
#20092
1b
#20141
0_
#20186
0(
#20850
0{
#20852
1z
#21096
1#
#22235
1>
#22904
0C
#22946
1)
#24182
1E
#24792
1U
#24816
1W
#24863
0Y
#24934
1h
#25202
1V
#25273
1Z
#25344
0i
#25547
1c
#25727
1X
#25968
0R
#26007
1d
#26077
0b
#26126
1_
#26160
1D
#26336
1Q
#27071
1S
#27073
0=
#27285
0S
#27493
1e
#27787
0>
#28021
1T
#28044
0f
#28083
0e
#28092
0U
#28163
1Y
#28234
0h
#28431
0W
#28456
1C
#28502
0V
#28573
0Z
#28644
1i
#28849
0X
#28962
0g
#29162
0c
#29307
0d
#29377
1b
#29426
0_
#29734
0E
#30000
b11 !
0*
#30094
1&
#30186
1(
#30368
1W
#30720
0%
#30850
1{
#30951
1'
#31099
1c
#32946
0)
#33394
0&
#34020
1%
#34251
0'
#35968
1R
#35971
0B
#36160
0D
#36919
0C
#37285
1S
#38021
0T
#38044
1f
#38807
1U
#38962
1g
#40000
b111 !
b101 !
b100 !
1*
#40850
0{
#40852
1y
0z
#42946
1)
#45968
0R
#46140
1:
#46160
1D
#46336
0Q
#46747
1;
#48021
1T
#48044
0f
#48092
0U
#48431
0W
#48502
1V
#48962
0g
#49162
0c
#49426
1_
#50000
b101 !
0*
#50850
1{
#52946
0)
#53801
0(
#54251
1'
#55968
1R
#55971
1B
#56160
0D
#56919
1C
#58021
0T
#58044
1f
#58092
1U
#58502
0V
#58807
0U
#58962
1g
#59217
1V
#59426
0_
#60000
b111 !
b110 !
1*
#60141
1_
#60850
0{
#60852
1z
#62946
1)
#65968
0R
#66160
1D
#66336
1Q
#67071
1<
0S
#67283
0<
#67285
1S
#68021
1T
#68044
0f
#68431
1W
#68849
1X
#68962
0g
#69162
1c
#70000
b111 !
0*
#70850
1{
#71072
1e
#72009
1F
#72426
1G
#72431
1M
#72946
0)
#73801
1(
#75070
0#
#75968
1R
#75971
0B
#76160
0D
#76919
0C
#77283
1<
#77285
0S
#78021
0T
#78044
1f
#78172
1A
#78807
1U
#78878
0Y
#78949
1h
#78962
1g
#79288
1Z
#79359
0i
#80000
b1111 !
b1011 !
b1001 !
b1000 !
1*
#80022
1d
#80072
0h
#80092
0b
#80096
0Z
#80482
1i
#80830
0d
#80850
0{
#80852
1x
0y
0z
#81215
1b
#82009
0F
#82426
0G
#82431
0M
#82946
1)
#85889
1O
#85893
1F
#85968
0R
#86140
0:
#86160
1D
#86286
1P
#86336
0Q
#86337
0F
#86731
0@
#86747
0;
#87030
0D
#87073
1=
#87480
1D
#87589
1C
#87928
1@
#88786
0C
#89341
1T
#89364
0f
#89412
0U
#89483
1Y
#89751
0W
#89822
0V
#89893
1Z
#90000
b1001 !
0*
#90169
0X
#90282
0g
#90482
0c
#90627
1d
#90746
0_
#90850
1{
#94266
0)
#94714
1&
#95121
0(
#95571
0'
#95968
1R
#95971
1B
#96160
0D
#96919
1C
#98021
0T
#98044
1f
#98092
1U
#98163
0Y
#98502
1V
#98573
0Z
#98807
0U
#98878
1Y
#98962
1g
#99217
0V
#99288
1Z
#99307
0d
#99426
1_
#100000
b1011 !
b1010 !
1*
#100022
1d
#100141
0_
#100850
0{
#100852
1z
#102946
1)
#105968
0R
#106160
1D
#106336
1Q
#106337
1F
#107071
0<
#107073
0=
#107480
0D
#107928
0@
#107960
0A
#108481
1A
#110000
b1011 !
0*
#110850
1{
#115968
1R
#115971
0B
#120000
b1111 !
b1101 !
b1100 !
1*
#120850
0{
#120852
1y
0z
#125968
0R
#126140
1:
#126277
1M
#126303
1G
#126336
0Q
#126337
0F
#126669
1N
#126728
1I
#126734
0O
#126736
19
#126747
1;
#126754
0G
#126759
0M
#127151
0N
#127179
0I
#127185
1O
#127187
09
#127280
1Q
#127451
1R
#127580
1@
#127731
0Q
#127902
0R
#128062
0@
#128133
0A
#128438
0C
#128615
1A
#128920
1C
#130000
b1101 !
0*
#130850
1{
#132009
1F
#132426
1G
#132431
1M
#132823
1N
#132851
1I
#132857
0O
#132859
19
#133407
1K
#133574
1R
#133831
1L
#134297
1=
#134331
0;
#134502
0P
#135152
1@
#135245
1>
#135705
0A
#135968
0R
#136010
0C
#136160
1D
#137192
1E
#137629
0Z
#137898
1U
#137922
1W
#137969
0Y
#138021
1T
#138040
1h
#138044
0f
#138092
0U
#138163
1Y
#138234
0h
#138363
0d
#138431
0W
#138653
1c
#138962
0g
#139162
0c
#139849
0e
#140000
b1111 !
b1110 !
1*
#140850
0{
#140852
1z
#142009
0F
#142235
0>
#142283
1Q
#142285
0K
#142426
0G
#142431
0M
#142450
0&
#142709
0L
#142823
0N
#142851
0I
#142857
1O
#142859
09
#142946
0)
#143020
0=
#143209
1;
#143254
1P
#143403
0Q
#143574
1R
#143731
0D
#143734
1B
#143847
1#
#143985
0@
#144182
0E
#144538
1A
#144843
1C
#145592
0T
#145615
1f
#145663
1U
#145734
0Y
#145805
1h
#145968
0R
#146002
1W
#146073
1V
#146215
0i
#146336
1Q
#146337
1F
#146438
0h
#146533
1g
#146598
1X
#146731
0U
#146733
1c
#146754
1G
#146755
0W
#146759
1M
#146802
1Y
#146848
1i
#146948
0b
#146997
1_
#147141
0V
#147151
1N
#147173
0X
#147179
1I
#147185
0O
#147187
19
#147212
1Z
#147486
0c
#147581
1b
#147731
0Q
#147735
1K
#147902
1R
#147946
1d
#148065
0_
#148159
1L
#148625
1=
#148659
0;
#148830
0P
#149432
1e
#149480
1@
#150000
b1111 !
0*
#150033
0A
#150517
1)
#150850
1{
#151957
0Z
#152033
1&
#152235
1>
#152283
1Q
#152691
0d
#152904
0C
#153018
1S
#153020
0=
#153430
0#
#153734
0>
#154177
0e
#154403
1C
#154792
1U
#154816
1W
#155547
1c
#155968
0R
#156160
1D
#156291
0U
#156315
0W
#156701
1V
#156778
0&
#157046
0c
#157285
0S
#157625
1_
#158021
1T
#158044
0f
#158175
1#
#158431
1W
#158849
1X
#158962
0g
#159134
0V
#159162
1c
#159659
0X
#160000
b11111 !
b10111 !
b10011 !
b10001 !
b10000 !
1*
#160058
0_
#160850
1w
0{
#160852
0x
0y
0z
#161072
1e
#162036
0e
#162283
0Q
#162946
0)
#163020
1=
#163801
1(
#165881
09
#165893
0F
#166029
0B
#166160
0D
#166165
1O
#166289
0:
#166302
0L
#166310
0G
#166315
0M
#166325
0K
#166336
1Q
#166596
1R
#166893
0=
#166977
0C
#167913
1S
#168021
0T
#168044
1f
#168431
0W
#168865
1U
#168889
1W
#168936
0Y
#168962
1g
#169007
1h
#169162
0c
#169275
1V
#169346
1Z
#169417
0i
#169620
1c
#169735
1Y
#169762
0V
#169800
1X
#169806
0h
#170000
b10001 !
0*
#170080
1d
#170145
0Z
#170150
0b
#170216
1i
#170287
0X
#170850
1{
#170879
0d
#170949
1b
#172283
0Q
#172285
1K
#172946
1)
#173018
0S
#173209
1;
#173913
1S
#175968
0R
#176160
1D
#178021
1T
#178044
0f
#178092
0U
#178431
0W
#178502
1V
#178962
0g
#179162
0c
#179426
1_
#180000
b10011 !
b10010 !
1*
#180850
0{
#180852
1z
#182283
1Q
#182285
0K
#182946
0)
#183209
0;
#183801
0(
#183913
0S
#184251
1'
#185762
0V
#185968
1R
#186029
1B
#186160
0D
#186325
1K
#186336
0Q
#186686
0_
#186977
1C
#187249
1;
#187953
1S
#188021
0T
#188044
1f
#188092
1U
#188163
0Y
#188234
1h
#188431
1W
#188502
1V
#188573
1Z
#188644
0i
#188865
0U
#188889
0W
#188936
1Y
#188962
1g
#189007
0h
#189027
1X
#189162
1c
#189275
0V
#189307
1d
0X
#189346
0Z
#189377
0b
#189417
1i
#189426
1_
#189620
0c
#189802
1V
#190000
b10011 !
0*
#190080
0d
#190150
1b
#190199
0_
#190726
1_
#190850
1{
#191511
0'
#192283
1Q
#192946
1)
#193018
1<
0S
#193907
1A
#194867
0V
#195551
1'
#195791
0_
#195831
1Z
#195968
0R
#196160
1D
#196565
1d
#197283
0<
#197285
1S
#198021
1T
#198044
0f
#198051
1e
#198172
0A
#198431
1W
#198962
0g
#199134
1V
#199162
1c
#199659
1X
#200000
b10111 !
b10101 !
b10100 !
1*
#200058
1_
#200096
0Z
#200616
0'
#200652
1&
#200830
0d
#200850
0{
#200852
1y
0z
#202049
0#
#202283
0Q
#202946
0)
#203801
1(
#204883
1'
#204917
0&
#205968
1R
#206029
0B
#206140
1:
#206160
0D
#206302
1L
#206303
1G
#206325
0K
#206336
1Q
#206744
1=
#206747
0;
#206749
0L
#206973
1P
#206977
0C
#207073
0=
#207249
1;
#207420
0P
#207928
1<
#207953
0S
#208021
0T
#208044
1f
#208431
0W
#208817
1A
#208849
0X
#208865
1U
#208889
1W
#208962
1g
#209162
0c
#209275
0V
#209307
1X
#209620
1c
#209775
0Y
#209800
0X
#209802
1V
#209846
1h
#210000
b10101 !
0*
#210185
1Z
#210199
0_
#210256
0i
#210327
1X
#210717
0h
#210726
1_
#210741
0Z
#210850
1{
#210919
1d
#210989
0b
#211127
1i
#211475
0d
#211860
1b
#212283
0Q
#212285
1K
#212709
1L
#212946
1)
#213018
0<
1S
#213175
1=
#213209
0;
#213380
1P
#213907
0A
#213913
0S
#214259
1<
#215148
1A
#215968
0R
#216160
1D
#218021
1T
#218044
0f
#218092
0U
#218163
1Y
#218431
0W
#218502
0V
#218573
1Z
#218849
0X
#218962
0g
#219162
0c
#219307
1d
#219426
0_
#220000
b10111 !
b10110 !
1*
#220850
0{
#220852
1z
#222283
1Q
#222285
0K
#222709
0L
#222946
0)
#223018
0<
#223020
0=
#223209
1;
#223380
0P
#223394
1&
#223427
0D
#223801
0(
#223907
0A
#224124
1D
#224223
1S
#224251
0'
#225831
0Z
#225968
1R
#226029
1B
#226072
1V
#226160
0D
#226325
1K
#226336
0Q
#226565
0d
#226749
1L
#226977
1C
#226996
1_
#227215
1=
#227249
0;
#227420
1P
#227953
0S
#228021
0T
#228044
1f
#228051
0e
#228092
1U
#228299
1<
#228431
1W
#228502
0V
#228865
0U
#228889
0W
#228962
1g
#229162
1c
#229188
1A
#229275
1V
#229426
0_
#229620
0c
#229802
0V
#230000
b10111 !
0*
#230199
1_
#230652
0&
#230726
0_
#230850
1{
#231112
1Z
#231821
1'
#231846
1d
#232009
1F
#232049
1#
#232283
1Q
#232431
1M
#232946
1)
#233018
0<
#233020
0=
#233332
1e
#233875
0@
#233907
0A
#234428
1A
#235551
0'
#235933
1&
#235968
0R
#237330
0#
#240000
b11111 !
b11011 !
b11001 !
b11000 !
1*
#240850
0{
#240852
1x
0y
0z
#242009
0F
#242283
0Q
#242431
0M
#243018
1<
#243020
1=
#243427
1D
#243875
1@
#245288
1T
#245311
0f
#245698
1W
#245881
19
#245887
1J
#245889
0O
#245892
1H
#245893
1F
#245894
0I
#245968
1R
#246029
0B
#246160
0D
#246229
0g
#246286
0P
#246315
1M
#246325
0K
#246337
0F
#246429
1c
#246446
1Q
#246596
0R
#246606
1B
#246749
0L
#246754
0G
#246759
0M
#246774
1D
#247029
1>
#247165
0<
#247179
1I
#247181
0H
#247186
0J
#247187
09
#247215
0=
#247249
1;
#247420
1P
#247595
0:
#247698
0C
#247902
1R
#247905
0B
#247929
0>
#248025
0@
#248054
0A
#248059
0D
#248202
0;
#248578
1A
#248598
1C
#249920
0T
#249943
1f
#250000
b11001 !
0*
#250213
0)
#250330
0W
#250850
1{
#250861
1g
#251061
0c
#251068
1(
#252283
0Q
#252285
1K
#253018
1<
#253209
1;
#253888
0<
#254845
1)
#255700
0(
#255968
0R
#260000
b11011 !
b11010 !
1*
#260850
0{
#260852
1z
#262283
1Q
#262285
0K
#263209
0;
#265968
1R
#266029
1B
#266325
1K
#266336
0Q
#266337
1F
#266754
1G
#266759
1M
#267071
1<
#267179
0I
#267181
1H
#267186
1J
#267187
19
#267249
1;
#267595
1:
#267712
1L
#267902
0R
#267905
0B
#267928
0<
#268199
1=
#268202
0;
#268383
0P
#268606
1D
#269054
1@
#269126
1>
#269607
0A
#269912
0C
#270000
b11011 !
0*
#270467
1T
#270490
0f
#270850
1{
#270877
1W
#271073
1E
#271408
0g
#271531
0Z
#271608
1c
#271824
0W
#272235
0>
#272265
0d
#272555
0c
#273751
0e
#274182
0E
#275392
0)
#275968
1R
#275971
1B
#276160
0D
#276352
0&
#276919
1C
#277749
1#
#278021
0T
#278044
1f
#278092
1U
#278163
0Y
#278234
1h
#278502
1V
#278573
1Z
#278644
0i
#278807
0U
#278878
1Y
#278949
0h
#278962
1g
#279217
0V
#279288
0Z
#279307
1d
#279359
1i
#279377
0b
#279426
1_
#280000
b11111 !
b11101 !
b11100 !
1*
#280022
0d
#280092
1b
#280141
0_
#280850
0{
#280852
1y
0z
#282235
1>
#282904
0C
#282946
1)
#284182
1E
#284792
1U
#284816
1W
#284863
0Y
#284934
1h
#285202
1V
#285273
1Z
#285344
0i
#285547
1c
#285727
1X
#285968
0R
#286007
1d
#286077
0b
#286126
1_
#286140
0:
#286160
1D
#286325
0K
#286336
1Q
#286337
0F
#286744
0=
#286747
1;
#286759
0M
#287249
0;
#287285
1S
#287458
0>
#287493
1e
#287953
0S
#288021
1T
#288044
0f
#288083
0e
#288092
0U
#288127
1C
#288163
1Y
#288234
0h
#288431
0W
#288502
0V
#288573
0Z
#288644
1i
#288849
0X
#288962
0g
#289162
0c
#289307
0d
#289377
1b
#289405
0E
#289426
0_
#290000
b11101 !
0*
#290039
1W
#290094
1&
#290186
1(
#290720
0%
#290770
1c
#290850
1{
#290951
1'
#292009
1F
#292431
1M
#292946
0)
#293394
0&
#294020
1%
#294251
0'
#295968
1R
#295971
0B
#296160
0D
#296919
0C
#297285
1S
#298021
0T
#298044
1f
#298807
1U
#298962
1g
#300000
b11111 !
b11110 !
1*
#300850
0{
#300852
1z
#302009
0F
#302431
0M
#302946
1)
#305968
0R
#306160
1D
#306325
1K
#306336
0Q
#306337
1F
#306759
1M
#307071
0S
#307249
1;
#307953
1S
#308021
1T
#308044
0f
#308092
0U
#308431
0W
#308502
1V
#308962
0g
#309162
0c
#309426
1_
#310000
b11111 !
0*
#310850
1{
#312946
0)
#313801
0(
#314251
1'
#315968
1R
#315971
1B
#316160
0D
#316919
1C
#318021
0T
#318044
1f
#318092
1U
#318502
0V
#318807
0U
#318962
1g
#319217
1V
#319426
0_
#320000
b111111 !
b101111 !
b100111 !
b100011 !
b100001 !
b100000 !
1*
#320141
1_
#320850
0w
0{
#320852
1v
0x
0y
0z
#322946
1)
#325893
0F
#326160
1D
#326161
1I
#326162
0H
#326277
0M
#326303
0G
#326325
0K
#326336
1Q
#326693
0L
#326713
0Q
#326728
0I
#326730
1H
#326734
1O
#326736
09
#327041
0D
#327144
1:
#327215
1=
#327249
0;
#327280
1Q
#327451
0R
#327576
0@
#327608
1D
#327748
0=
#327751
1;
#327929
1>
#328070
1@
#328129
1A
#328430
1<
#328455
0S
#328462
0>
#328623
0A
#328766
0<
#328768
1S
#329469
1T
#329492
0f
#329879
1W
#330000
b100001 !
0*
#330297
1X
#330410
0g
#330610
1c
#330850
1{
#332520
1e
#334394
0)
#335249
1(
#335968
1R
#335971
0B
#336160
0D
#336518
0#
#336919
0C
#337283
1<
#337285
0S
#338021
0T
#338044
1f
#338172
1A
#338807
1U
#338878
0Y
#338949
1h
#338962
1g
#339288
1Z
#339359
0i
#340000
b100011 !
b100010 !
1*
#340022
1d
#340072
0h
#340092
0b
#340096
0Z
#340482
1i
#340830
0d
#340850
0{
#340852
1z
#341215
1b
#342946
1)
#345968
0R
#346160
1D
#346325
1K
#346336
0Q
#346749
1L
#347071
0<
1S
#347215
1=
#347249
0;
#347420
1P
#347953
0S
#347960
0A
#348021
1T
#348044
0f
#348092
0U
#348163
1Y
#348299
1<
#348431
0W
#348502
0V
#348573
1Z
#348849
0X
#348962
0g
#349162
0c
#349188
1A
#349307
1d
#349426
0_
#350000
b100011 !
0*
#350850
1{
#352946
0)
#353394
1&
#353801
0(
#354251
0'
#355968
1R
#355971
1B
#356160
0D
#356919
1C
#358021
0T
#358044
1f
#358092
1U
#358163
0Y
#358502
1V
#358573
0Z
#358807
0U
#358878
1Y
#358962
1g
#359217
0V
#359288
1Z
#359307
0d
#359426
1_
#360000
b100111 !
b100101 !
b100100 !
1*
#360022
1d
#360141
0_
#360850
0{
#360852
1y
0z
#362946
1)
#365968
0R
#366140
0:
#366160
1D
#366325
0K
#366336
1Q
#366744
0=
#366747
1;
#367071
0<
#367151
0D
#367249
0;
#367599
0@
#367960
0A
#368152
1A
#370000
b100101 !
0*
#370850
1{
#375968
1R
#375971
0B
#380000
b100111 !
b100110 !
1*
#380850
0{
#380852
1z
#385968
0R
#386325
1K
#386336
0Q
#387071
1<
#387249
1;
#387928
0<
#390000
b100111 !
0*
#390850
1{
#392009
1F
#392426
1G
#392431
1M
#392851
1I
#392853
0H
#392857
0O
#392859
19
#393254
0P
#393267
1:
#393574
1R
#393699
1@
#393871
1=
#393874
0;
#394097
1S
#394252
0A
#394557
0C
#394578
0S
#394585
1>
#395968
0R
#396160
1D
#396176
0Z
#396445
1U
#396469
1W
#396516
0Y
#396532
1E
#396587
1h
#396855
1V
#396910
0d
#396926
1Z
#396997
0i
#397200
1c
#397380
1X
#397660
1d
#397730
0b
#397779
1_
#398021
1T
#398044
0f
#398092
0U
#398163
1Y
#398234
0h
#398431
0W
#398502
0V
#398573
0Z
#398644
1i
#398849
0X
#398962
0g
#399162
0c
#399307
0d
#399377
1b
#399426
0_
#399736
0e
#400000
b101111 !
b101011 !
b101001 !
b101000 !
1*
#400850
0{
#400852
1x
0y
0z
#402009
0F
#402235
0>
#402283
1Q
#402285
0K
#402426
0G
#402431
0M
#402709
0L
#402851
0I
#402853
1H
#402857
1O
#402859
09
#402946
0)
#403020
0=
#403209
1;
#403267
0:
#403384
1L
#403394
0&
#403403
0Q
#403407
1K
#403574
1R
#403699
0@
#403731
0D
#403734
1#
1B
#403874
0;
#403913
1S
#404055
1P
#404182
0E
#404252
1A
#404331
1;
#404557
1C
#404578
0S
#405592
0T
#405615
1f
#405663
1U
#405734
0Y
#405881
19
#405892
0H
#405893
1F
#405894
1I
#405968
0R
#406002
1W
#406073
1V
#406325
0K
#406337
0F
#406423
0L
#406445
0U
#406469
0W
#406516
1Y
#406533
1g
#406596
1R
#406598
1X
#406733
1c
#406855
0V
#406887
0X
#406926
1Z
#406997
1_
#407094
0P
#407200
0c
#407215
1=
#407249
0;
#407660
1d
#407699
1@
#407779
0_
#408252
0A
#409146
1e
#410000
b101001 !
0*
#410176
0Z
#410517
1)
#410850
1{
#410910
0d
#411747
1&
#412235
1>
#412283
1Q
#412396
0e
#412904
0C
#413018
1S
#413020
0=
#413144
0#
#413734
0>
#414403
1C
#414792
1U
#414816
1W
#414997
0&
#415547
1c
#415968
0R
#416160
1D
#416291
0U
#416315
0W
#416394
1#
#416701
1V
#417046
0c
#417285
0S
#417625
1_
#418021
1T
#418044
0f
#418431
1W
#418849
1X
#418962
0g
#419134
0V
#419162
1c
#419659
0X
#420000
b101011 !
b101010 !
1*
#420058
0_
#420850
0{
#420852
1z
#421072
1e
#422036
0e
#422283
0Q
#422946
0)
#423020
1=
#423801
1(
#425968
1R
#426029
0B
#426160
0D
#426336
1Q
#426337
1F
#426977
0C
#427073
0=
#427285
1S
#428021
0T
#428044
1f
#428431
0W
#428865
1U
#428889
1W
#428962
1g
#429162
0c
#429620
1c
#430000
b101011 !
0*
#430850
1{
#432283
0Q
#432285
1K
#432946
1)
#433018
0S
#433209
1;
#433913
1S
#435968
0R
#436160
1D
#438021
1T
#438044
0f
#438092
0U
#438431
0W
#438502
1V
#438962
0g
#439162
0c
#439426
1_
#440000
b101111 !
b101101 !
b101100 !
1*
#440850
0{
#440852
1y
0z
#442283
1Q
#442285
0K
#442946
0)
#443209
0;
#443801
0(
#443913
0S
#444251
1'
#445762
0V
#445968
1R
#446029
1B
#446140
1:
#446160
0D
#446277
1M
#446303
1G
#446336
0Q
#446337
0F
#446686
0_
#446747
1;
#446754
0G
#446759
0M
#446977
1C
#447451
1S
#448021
0T
#448044
1f
#448092
1U
#448163
0Y
#448234
1h
#448431
1W
#448502
1V
#448573
1Z
#448644
0i
#448865
0U
#448889
0W
#448936
1Y
#448962
1g
#449007
0h
#449027
1X
#449162
1c
#449307
1d
0X
#449346
0Z
#449377
0b
#449417
1i
#449426
1_
#449620
0c
#450000
b101101 !
0*
#450080
0d
#450150
1b
#450850
1{
#452009
1F
#452283
1Q
#452426
1G
#452431
1M
#452946
1)
#453018
1<
0S
#453907
1A
#454867
0V
#455791
0_
#455831
1Z
#455968
0R
#456160
1D
#456565
1d
#457283
0<
#457285
1S
#458021
1T
#458044
0f
#458051
1e
#458172
0A
#458431
1W
#458962
0g
#459134
1V
#459162
1c
#459659
1X
#460000
b101111 !
b101110 !
1*
#460058
1_
#460096
0Z
#460616
0'
#460652
1&
#460830
0d
#460850
0{
#460852
1z
#462009
0F
#462049
0#
#462283
0Q
#462426
0G
#462431
0M
#462946
0)
#463801
1(
#464883
1'
#464917
0&
#465968
1R
#466029
0B
#466160
0D
#466336
1Q
#466337
1F
#466754
1G
#466759
1M
#466977
0C
#467283
1<
#467285
0S
#468021
0T
#468044
1f
#468172
1A
#468431
0W
#468849
0X
#468865
1U
#468889
1W
#468936
0Y
#468962
1g
#469007
1h
#469162
0c
#469307
1X
#469346
1Z
#469417
0i
#469620
1c
#470000
b101111 !
0*
#470072
0h
#470080
1d
#470096
0Z
#470150
0b
#470482
1i
#470830
0d
#470850
1{
#471215
1b
#472283
0Q
#472285
1K
#472709
1L
#472946
1)
#473018
0<
1S
#473175
1=
#473209
0;
#473380
1P
#473907
0A
#473913
0S
#474259
1<
#475148
1A
#475968
0R
#476160
1D
#478021
1T
#478044
0f
#478092
0U
#478163
1Y
#478431
0W
#478502
0V
#478573
1Z
#478849
0X
#478962
0g
#479162
0c
#479307
1d
#479426
0_
#480000
b111111 !
b110111 !
b110011 !
b110001 !
b110000 !
1*
#480850
1w
0{
#480852
0x
0y
0z
#482283
1Q
#482285
0K
#482709
0L
#482946
0)
#483018
0<
#483020
0=
#483209
1;
#483380
0P
#483394
1&
#483427
0D
#483801
0(
#483907
0A
#484124
1D
#484223
1S
#484251
0'
#485831
0Z
#485889
0O
#485893
0F
#486029
1B
#486072
1V
#486160
0D
#486161
0I
#486162
1H
#486168
0J
#486286
1P
#486310
0G
#486315
0M
#486336
0Q
#486565
0d
#486731
0@
#486735
1I
#486737
0H
#486742
1J
#486743
09
#486887
0B
#486977
1C
#486996
1_
#487129
0S
#487151
0:
#487284
1A
#487458
1R
#487461
1B
#487755
1=
#487758
0;
#488021
0T
#488044
1f
#488051
0e
#488092
1U
#488431
1W
#488437
1<
#488502
0V
#488610
1@
#488865
0U
#488889
0W
#488962
1g
#489162
1c
#489208
1Z
#489426
0_
#489620
0c
#489942
1d
#490000
b110001 !
0*
#490652
0&
#490850
1{
#491428
1e
#492049
1#
#492283
1Q
#492946
1)
#493018
0<
#493020
0=
#493875
0@
#493907
0A
#494029
1&
#494428
1A
#495426
0#
#495968
0R
#500000
b110011 !
b110010 !
1*
#500850
0{
#500852
1z
#502283
0Q
#503018
1<
#503020
1=
#503427
1D
#503875
1@
#505288
1T
#505311
0f
#505698
1W
#505968
1R
#506029
0B
#506160
0D
#506229
0g
#506336
1Q
#506429
1c
#506977
0C
#507071
0<
#507073
0=
#507928
0@
#507960
0A
#508021
0T
#508044
1f
#508431
0W
#508481
1A
#508786
1C
#508865
1U
#508889
1W
#508936
0Y
#508962
1g
#509162
0c
