Lab 1/simulation/qsim/g21_lab1.msim.vcd
$comment
	File created using the following command:
		vcd file g21_lab1.msim.vcd -direction
$end
$date
	Thu Sep 21 15:08:30 2017
$end
$version
	ModelSim Version 10.1d
$end
$timescale
	1ps
$end
$scope module g21_lab1_vlg_vec_tst $end
$var reg 7 ! A [6:0] $end
$var reg 7 " B [6:0] $end
$var wire 1 # AeqB $end
$var wire 1 $ sampler $end
$scope module i1 $end
$var wire 1 % gnd $end
$var wire 1 & vcc $end
$var wire 1 ' unknown $end
$var tri1 1 ( devclrn $end
$var tri1 1 ) devpor $end
$var tri1 1 * devoe $end
$var wire 1 + inst|inst6~combout $end
$var wire 1 , inst|inst9~1_combout $end
$var wire 1 - inst|inst9~2_combout $end
$var wire 1 . inst|inst9~0_combout $end
$var wire 1 / inst|inst9~3_combout $end
$var wire 1 0 B~combout [6] $end
$var wire 1 1 B~combout [5] $end
$var wire 1 2 B~combout [4] $end
$var wire 1 3 B~combout [3] $end
$var wire 1 4 B~combout [2] $end
$var wire 1 5 B~combout [1] $end
$var wire 1 6 B~combout [0] $end
$var wire 1 7 A~combout [6] $end
$var wire 1 8 A~combout [5] $end
$var wire 1 9 A~combout [4] $end
$var wire 1 : A~combout [3] $end
$var wire 1 ; A~combout [2] $end
$var wire 1 < A~combout [1] $end
$var wire 1 = A~combout [0] $end
$upscope $end
$upscope $end
$enddefinitions $end
#0
$dumpvars
b0 !
b0 "
1#
x$
0%
1&
x'
1(
1)
1*
0+
1,
1-
1.
1/
06
05
04
03
02
01
00
0=
0<
0;
0:
09
08
07
$end
#50000
b1 !
b10 "
15
1=
0$
0-
1+
0/
0#
#100000
b11 !
b110 "
b10 !
b100 "
05
14
0=
1<
1$
0+
#150000
b11 !
b110 "
15
1=
0$
1+
#200000
b111 !
b1110 "
b101 !
b1010 "
b100 !
b1000 "
05
04
13
0=
0<
1;
1$
0,
0+
#250000
b101 !
b1010 "
15
1=
0$
1+
#300000
b111 !
b1110 "
b110 !
b1100 "
05
14
0=
1<
1$
0+
#350000
b111 !
b1110 "
15
1=
0$
1-
1+
#400000
b1111 !
b11110 "
b1011 !
b10110 "
b1001 !
b10010 "
b1000 !
b10000 "
05
04
03
12
0=
0<
0;
1:
1$
0+
#450000
b1001 !
b10010 "
15
1=
0$
0-
1+
#500000
b1011 !
b10110 "
b1010 !
b10100 "
05
14
0=
1<
1$
0+
#550000
b1011 !
b10110 "
15
1=
0$
1+
#600000
b1111 !
b11110 "
b1101 !
b11010 "
b1100 !
b11000 "
05
04
13
0=
0<
1;
1$
0+
#650000
b1101 !
b11010 "
15
1=
0$
1+
#700000
b1111 !
b11110 "
b1110 !
b11100 "
05
14
0=
1<
1$
0+
#750000
b1111 !
b11110 "
15
1=
0$
1-
1+
#800000
b11111 !
b111110 "
b10111 !
b101110 "
b10011 !
b100110 "
b10001 !
b100010 "
b10000 !
b100000 "
05
04
03
02
11
0=
0<
0;
0:
19
1$
0.
0+
#850000
b10001 !
b100010 "
15
1=
0$
0-
1+
#900000
b10011 !
b100110 "
b10010 !
b100100 "
05
14
0=
1<
1$
0+
#950000
b10011 !
b100110 "
15
1=
0$
1+
#1000000
b10111 !
b101110 "
b10101 !
b101010 "
b10100 !
b101000 "
05
04
13
0=
0<
1;
1$
0+
#1050000
b10101 !
b101010 "
15
1=
0$
1+
#1100000
b10111 !
b101110 "
b10110 !
b101100 "
05
14
0=
1<
1$
0+
#1150000
b10111 !
b101110 "
15
1=
0$
1-
1+
#1200000
b11111 !
b111110 "
b11011 !
b110110 "
b11001 !
b110010 "
b11000 !
b110000 "
05
04
03
12
0=
0<
0;
1:
1$
0+
#1250000
b11001 !
b110010 "
15
1=
0$
0-
1+
#1300000
b11011 !
b110110 "
b11010 !
b110100 "
05
14
0=
1<
1$
0+
#1350000
b11011 !
b110110 "
15
1=
0$
1+
#1400000
b11111 !
b111110 "
b11101 !
b111010 "
b11100 !
b111000 "
05
04
13
0=
0<
1;
1$
1,
0+
#1450000
b11101 !
b111010 "
15
1=
0$
1+
#1500000
b11111 !
b111110 "
b11110 !
b111100 "
05
14
0=
1<
1$
0+
#1550000
b11111 !
b111110 "
15
1=
0$
1-
1+
#1600000
b111111 !
b1111110 "
b101111 !
b1011110 "
b100111 !
b1001110 "
b100011 !
b1000110 "
b100001 !
b1000010 "
b100000 !
b1000000 "
05
04
03
02
01
10
0=
0<
0;
0:
09
18
1$
0+
#1650000
b100001 !
b1000010 "
15
1=
0$
0-
1+
#1700000
b100011 !
b1000110 "
b100010 !
b1000100 "
05
14
0=
1<
1$
0+
#1750000
b100011 !
b1000110 "
15
1=
0$
1+
#1800000
b100111 !
b1001110 "
b100101 !
b1001010 "
b100100 !
b1001000 "
05
04
13
0=
0<
1;
1$
0,
0+
#1850000
b100101 !
b1001010 "
15
1=
0$
1+
#1900000
b100111 !
b1001110 "
b100110 !
b1001100 "
05
14
0=
1<
1$
0+
#1950000
b100111 !
b1001110 "
15
1=
0$
1-
1+
#2000000
b101111 !
b1011110 "
b101011 !
b1010110 "
b101001 !
b1010010 "
b101000 !
b1010000 "
05
04
03
12
0=
0<
0;
1:
1$
0+
#2050000
b101001 !
b1010010 "
15
1=
0$
0-
1+
#2100000
b101011 !
b1010110 "
b101010 !
b1010100 "
05
14
0=
1<
1$
0+
#2150000
b101011 !
b1010110 "
15
1=
0$
1+
#2200000
b101111 !
b1011110 "
b101101 !
b1011010 "
b101100 !
b1011000 "
05
04
13
0=
0<
1;
1$
0+
#2250000
b101101 !
b1011010 "
15
1=
0$
1+
#2300000
b101111 !
b1011110 "
b101110 !
b1011100 "
05
14
0=
1<
1$
0+
#2350000
b101111 !
b1011110 "
15
1=
0$
1-
1+
#2400000
b111111 !
b1111110 "
b110111 !
b1101110 "
b110011 !
b1100110 "
b110001 !
b1100010 "
b110000 !
b1100000 "
05
04
03
02
11
0=
0<
0;
0:
19
1$
0+
#2450000
b110001 !
b1100010 "
15
1=
0$
0-
1+
#2500000
b110011 !
b1100110 "
b110010 !
b1100100 "
05
14
0=
1<
1$
0+
#2550000
b110011 !
b1100110 "
15
1=
0$
1+
#2600000
b110111 !
b1101110 "
b110101 !
b1101010 "
b110100 !
b1101000 "
05
04
13
0=
0<
1;
1$
0+
#2650000
b110101 !
b1101010 "
15
1=
0$
1+
#2700000
b110111 !
b1101110 "
b110110 !
b1101100 "
05
14
0=
1<
1$
0+
#2750000
b110111 !
b1101110 "
15
1=
0$
1-
1+
#2800000
b111111 !
b1111110 "
b111011 !
b1110110 "
b111001 !
b1110010 "
b111000 !
b1110000 "
05
04
03
12
0=
0<
0;
1:
1$
0+
#2850000
b111001 !
b1110010 "
15
1=
0$
0-
1+
#2900000
b111011 !
b1110110 "
b111010 !
b1110100 "
05
14
0=
1<
1$
0+
#2950000
b111011 !
b1110110 "
15
1=
0$
1+
#3000000
b111111 !
b1111110 "
b111101 !
b1111010 "
b111100 !
b1111000 "
05
04
13
0=
0<
1;
1$
1,
0+
#3050000
b111101 !
b1111010 "
15
1=
0$
1+
#3100000
b111111 !
b1111110 "
b111110 !
b1111100 "
05
14
0=
1<
1$
0+
#3150000
b111111 !
b1111110 "
15
1=
0$
1-
1+
#3200000
b1111111 !
b1011111 !
b111110 "
b1001111 !
b11110 "
b1000111 !
b1110 "
b1000011 !
b110 "
b1000001 !
b10 "
b1000000 !
b0 "
05
04
03
02
01
00
0=
0<
0;
0:
09
08
17
1$
0+
#3250000
b1000001 !
b10 "
15
1=
0$
0-
1+
#3300000
b1000011 !
b110 "
b1000010 !
b100 "
05
14
0=
1<
1$
0+
#3350000
b1000011 !
b110 "
15
1=
0$
1+
#3400000
b1000111 !
b1110 "
b1000101 !
b1010 "
b1000100 !
b1000 "
05
04
13
0=
0<
1;
1$
0,
0+
#3450000
b1000101 !
b1010 "
15
1=
0$
1+
#3500000
b1000111 !
b1110 "
b1000110 !
b1100 "
05
14
0=
1<
1$
0+
#3550000
b1000111 !
b1110 "
15
1=
0$
1-
1+
#3600000
b1001111 !
b11110 "
b1001011 !
b10110 "
b1001001 !
b10010 "
b1001000 !
b10000 "
05
04
03
12
0=
0<
0;
1:
1$
0+
#3650000
b1001001 !
b10010 "
15
1=
0$
0-
1+
#3700000
b1001011 !
b10110 "
b1001010 !
b10100 "
05
14
0=
1<
1$
0+
#3750000
b1001011 !
b10110 "
15
1=
0$
1+
#3800000
b1001111 !
b11110 "
b1001101 !
b11010 "
b1001100 !
b11000 "
05
04
13
0=
0<
1;
1$
0+
#3850000
b1001101 !
b11010 "
15
1=
0$
1+
#3900000
b1001111 !
b11110 "
b1001110 !
b11100 "
05
14
0=
1<
1$
0+
#3950000
b1001111 !
b11110 "
15
1=
0$
1-
1+
#4000000
b1011111 !
b111110 "
b1010111 !
b101110 "
b1010011 !
b100110 "
b1010001 !
b100010 "
b1010000 !
b100000 "
05
04
03
02
11
0=
0<
0;
0:
19
1$
0+
#4050000
b1010001 !
b100010 "
15
1=
0$
0-
1+
#4100000
b1010011 !
b100110 "
b1010010 !
b100100 "
05
14
0=
1<
1$
0+
#4150000
b1010011 !
b100110 "
15
1=
0$
1+
#4200000
b1010111 !
b101110 "
b1010101 !
b101010 "
b1010100 !
b101000 "
05
04
13
0=
0<
1;
1$
0+
#4250000
b1010101 !
b101010 "
15
1=
0$
1+
#4300000
b1010111 !
b101110 "
b1010110 !
b101100 "
05
14
0=
1<
1$
0+
#4350000
b1010111 !
b101110 "
15
1=
0$
1-
1+
#4400000
b1011111 !
b111110 "
b1011011 !
b110110 "
b1011001 !
b110010 "
b1011000 !
b110000 "
05
04
03
12
0=
0<
0;
1:
1$
0+
#4450000
b1011001 !
b110010 "
15
1=
0$
0-
1+
#4500000
b1011011 !
b110110 "
b1011010 !
b110100 "
05
14
0=
1<
1$
0+
#4550000
b1011011 !
b110110 "
15
1=
0$
1+
#4600000
b1011111 !
b111110 "
b1011101 !
b111010 "
b1011100 !
b111000 "
05
04
13
0=
0<
1;
1$
1,
0+
#4650000
b1011101 !
b111010 "
15
1=
0$
1+
#4700000
b1011111 !
b111110 "
b1011110 !
b111100 "
05
14
0=
1<
1$
0+
#4750000
b1011111 !
b111110 "
15
1=
0$
1-
1+
#4800000
b1111111 !
b1111110 "
b1101111 !
b1011110 "
b1100111 !
b1001110 "
b1100011 !
b1000110 "
b1100001 !
b1000010 "
b1100000 !
b1000000 "
05
04
03
02
01
10
0=
0<
0;
0:
09
18
1$
0+
#4850000
b1100001 !
b1000010 "
15
1=
0$
0-
1+
#4900000
b1100011 !
b1000110 "
b1100010 !
b1000100 "
05
14
0=
1<
1$
0+
#4950000
b1100011 !
b1000110 "
15
1=
0$
1+
#5000000
b1100111 !
b1001110 "
b1100101 !
b1001010 "
b1100100 !
b1001000 "
05
04
13
0=
0<
1;
1$
0,
0+
#5050000
b1100101 !
b1001010 "
15
1=
0$
1+
#5100000
b1100111 !
b1001110 "
b1100110 !
b1001100 "
05
14
0=
1<
1$
0+
#5150000
b1100111 !
b1001110 "
15
1=
0$
1-
1+
#5200000
b1101111 !
b1011110 "
b1101011 !
b1010110 "
b1101001 !
b1010010 "
b1101000 !
b1010000 "
05
04
03
12
0=
0<
0;
1:
1$
0+
#5250000
b1101001 !
b1010010 "
15
1=
0$
0-
1+
#5300000
b1101011 !
b1010110 "
b1101010 !
b1010100 "
05
14
0=
1<
1$
0+
#5350000
b1101011 !
b1010110 "
15
1=
0$
1+
#5400000
b1101111 !
b1011110 "
b1101101 !
b1011010 "
b1101100 !
b1011000 "
05
04
13
0=
0<
1;
1$
0+
#5450000
b1101101 !
b1011010 "
15
1=
0$
1+
#5500000
b1101111 !
b1011110 "
b1101110 !
b1011100 "
05
14
0=
1<
1$
0+
#5550000
b1101111 !
b1011110 "
15
1=
0$
1-
1+
#5600000
b1111111 !
b1111110 "
b1110111 !
b1101110 "
b1110011 !
b1100110 "
b1110001 !
b1100010 "
b1110000 !
b1100000 "
05
04
03
02
11
0=
0<
0;
0:
19
1$
1.
0+
#5650000
b1110001 !
b1100010 "
15
1=
0$
0-
1+
#5700000
b1110011 !
b1100110 "
b1110010 !
b1100100 "
05
14
0=
1<
1$
0+
#5750000
b1110011 !
b1100110 "
15
1=
0$
1+
#5800000
b1110111 !
b1101110 "
b1110101 !
b1101010 "
b1110100 !
b1101000 "
05
04
13
0=
0<
1;
1$
0+
#5850000
b1110101 !
b1101010 "
15
1=
0$
1+
#5900000
b1110111 !
b1101110 "
b1110110 !
b1101100 "
05
14
0=
1<
1$
0+
#5950000
b1110111 !
b1101110 "
15
1=
0$
1-
1+
#6000000
b1111111 !
b1111110 "
b1111011 !
b1110110 "
b1111001 !
b1110010 "
b1111000 !
b1110000 "
05
04
03
12
0=
0<
0;
1:
1$
0+
#6050000
b1111001 !
b1110010 "
15
1=
0$
0-
1+
#6100000
b1111011 !
b1110110 "
b1111010 !
b1110100 "
05
14
0=
1<
1$
0+
#6150000
b1111011 !
b1110110 "
15
1=
0$
1+
#6200000
b1111111 !
b1111110 "
b1111101 !
b1111010 "
b1111100 !
b1111000 "
05
04
13
0=
0<
1;
1$
1,
0+
#6250000
b1111101 !
b1111010 "
15
1=
0$
1+
#6300000
b1111111 !
b1111110 "
b1111110 !
b1111100 "
05
14
0=
1<
1$
0+
#6350000
b1111111 !
b1111110 "
15
1=
0$
1-
1+
#6400000
b111111 !
b11111 !
b111110 "
b1111 !
b11110 "
b111 !
b1110 "
b11 !
b110 "
b1 !
b10 "
b0 !
b0 "
05
04
03
02
01
00
0=
0<
0;
0:
09
08
07
1$
0+
1/
1#
#6450000
b1 !
b10 "
15
1=
0$
0-
1+
0/
0#
#6500000
b11 !
b110 "
b10 !
b100 "
05
14
0=
1<
1$
0+
#6550000
b11 !
b110 "
15
1=
0$
1+
#6600000
b111 !
b1110 "
b101 !
b1010 "
b100 !
b1000 "
05
04
13
0=
0<
1;
1$
0,
0+
#6650000
b101 !
b1010 "
15
1=
0$
1+
#6700000
b111 !
b1110 "
b110 !
b1100 "
05
14
0=
1<
1$
0+
#6750000
b111 !
b1110 "
15
1=
0$
1-
1+
#6800000
b1111 !
b11110 "
b1011 !
b10110 "
b1001 !
b10010 "
b1000 !
b10000 "
05
04
03
12
0=
0<
0;
1:
1$
0+
#6850000
b1001 !
b10010 "
15
1=
0$
0-
1+
#6900000
b1011 !
b10110 "
b1010 !
b10100 "
05
14
0=
1<
1$
0+
#6950000
b1011 !
b10110 "
15
1=
0$
1+
#7000000
b1111 !
b11110 "
b1101 !
b11010 "
b1100 !
b11000 "
05
04
13
0=
0<
1;
1$
0+
#7050000
b1101 !
b11010 "
15
1=
0$
1+
#7100000
b1111 !
b11110 "
b1110 !
b11100 "
05
14
0=
1<
1$
0+
#7150000
b1111 !
b11110 "
15
1=
0$
1-
1+
#7200000
b11111 !
b111110 "
b10111 !
b101110 "
b10011 !
b100110 "
b10001 !
b100010 "
b10000 !
b100000 "
05
04
03
02
11
0=
0<
0;
0:
19
1$
0.
0+
#7250000
b10001 !
b100010 "
15
1=
0$
0-
1+
#7300000
b10011 !
b100110 "
b10010 !
b100100 "
05
14
0=
1<
1$
0+
#7350000
b10011 !
b100110 "
15
1=
0$
1+
#7400000
b10111 !
b101110 "
b10101 !
b101010 "
b10100 !
b101000 "
05
04
13
0=
0<
1;
1$
0+
#7450000
b10101 !
b101010 "
15
1=
0$
1+
#7500000
b10111 !
b101110 "
b10110 !
b101100 "
05
14
0=
1<
1$
0+
#7550000
b10111 !
b101110 "
15
1=
0$
1-
1+
#7600000
b11111 !
b111110 "
b11011 !
b110110 "
b11001 !
b110010 "
b11000 !
b110000 "
05
04
03
12
0=
0<
0;
1:
1$
0+
#7650000
b11001 !
b110010 "
15
1=
0$
0-
1+
#7700000
b11011 !
b110110 "
b11010 !
b110100 "
05
14
0=
1<
1$
0+
#7750000
b11011 !
b110110 "
15
1=
0$
1+
#7800000
b11111 !
b111110 "
b11101 !
b111010 "
b11100 !
b111000 "
05
04
13
0=
0<
1;
1$
1,
0+
#7850000
b11101 !
b111010 "
15
1=
0$
1+
#7900000
b11111 !
b111110 "
b11110 !
b111100 "
05
14
0=
1<
1$
0+
#7950000
b11111 !
b111110 "
15
1=
0$
1-
1+
#8000000
b111111 !
b1111110 "
b101111 !
b1011110 "
b100111 !
b1001110 "
b100011 !
b1000110 "
b100001 !
b1000010 "
b100000 !
b1000000 "
05
04
03
02
01
10
0=
0<
0;
0:
09
18
1$
0+
#8050000
b100001 !
b1000010 "
15
1=
0$
0-
1+
#8100000
b100011 !
b1000110 "
b100010 !
b1000100 "
05
14
0=
1<
1$
0+
#8150000
b100011 !
b1000110 "
15
1=
0$
1+
#8200000
b100111 !
b1001110 "
b100101 !
b1001010 "
b100100 !
b1001000 "
05
04
13
0=
0<
1;
1$
0,
0+
#8250000
b100101 !
b1001010 "
15
1=
0$
1+
#8300000
b100111 !
b1001110 "
b100110 !
b1001100 "
05
14
0=
1<
1$
0+
#8350000
b100111 !
b1001110 "
15
1=
0$
1-
1+
#8400000
b101111 !
b1011110 "
b101011 !
b1010110 "
b101001 !
b1010010 "
b101000 !
b1010000 "
05
04
03
12
0=
0<
0;
1:
1$
0+
#8450000
b101001 !
b1010010 "
15
1=
0$
0-
1+
#8500000
b101011 !
b1010110 "
b101010 !
b1010100 "
05
14
0=
1<
1$
0+
#8550000
b101011 !
b1010110 "
15
1=
0$
1+
#8600000
b101111 !
b1011110 "
b101101 !
b1011010 "
b101100 !
b1011000 "
05
04
13
0=
0<
1;
1$
0+
#8650000
b101101 !
b1011010 "
15
1=
0$
1+
#8700000
b101111 !
b1011110 "
b101110 !
b1011100 "
05
14
0=
1<
1$
0+
#8750000
b101111 !
b1011110 "
15
1=
0$
1-
1+
#8800000
b111111 !
b1111110 "
b110111 !
b1101110 "
b110011 !
b1100110 "
b110001 !
b1100010 "
b110000 !
b1100000 "
05
04
03
02
11
0=
0<
0;
0:
19
1$
0+
#8850000
b110001 !
b1100010 "
15
1=
0$
0-
1+
#8900000
b110011 !
b1100110 "
b110010 !
b1100100 "
05
14
0=
1<
1$
0+
#8950000
b110011 !
b1100110 "
15
1=
0$
1+
#9000000
b110111 !
b1101110 "
b110101 !
b1101010 "
b110100 !
b1101000 "
05
04
13
0=
0<
1;
1$
0+
#9050000
b110101 !
b1101010 "
15
1=
0$
1+
#9100000
b110111 !
b1101110 "
b110110 !
b1101100 "
05
14
0=
1<
1$
0+
#9150000
b110111 !
b1101110 "
15
1=
0$
1-
1+
#9200000
b111111 !
b1111110 "
b111011 !
b1110110 "
b111001 !
b1110010 "
b111000 !
b1110000 "
05
04
03
12
0=
0<
0;
1:
1$
0+
#9250000
b111001 !
b1110010 "
15
1=
0$
0-
1+
#9300000
b111011 !
b1110110 "
b111010 !
b1110100 "
05
14
0=
1<
1$
0+
#9350000
b111011 !
b1110110 "
15
1=
0$
1+
#9400000
b111111 !
b1111110 "
b111101 !
b1111010 "
b111100 !
b1111000 "
05
04
13
0=
0<
1;
1$
1,
0+
#9450000
b111101 !
b1111010 "
15
1=
0$
1+
#9500000
b111111 !
b1111110 "
b111110 !
b1111100 "
05
14
0=
1<
1$
0+
#9550000
b111111 !
b1111110 "
15
1=
0$
1-
1+
#9600000
b1111111 !
b1011111 !
b111110 "
b1001111 !
b11110 "
b1000111 !
b1110 "
b1000011 !
b110 "
b1000001 !
b10 "
b1000000 !
b0 "
05
04
03
02
01
00
0=
0<
0;
0:
09
08
17
1$
0+
#9650000
b1000001 !
b10 "
15
1=
0$
0-
1+
#9700000
b1000011 !
b110 "
b1000010 !
b100 "
05
14
0=
1<
1$
0+
#9750000
b1000011 !
b110 "
15
1=
0$
1+
#9800000
b1000111 !
b1110 "
b1000101 !
b1010 "
b1000100 !
b1000 "
05
04
13
0=
0<
1;
1$
0,
0+
#9850000
b1000101 !
b1010 "
15
1=
0$
1+
#9900000
b1000111 !
b1110 "
b1000110 !
b1100 "
05
14
0=
1<
1$
0+
#9950000
b1000111 !
b1110 "
15
1=
0$
1-
1+
#10000000
b1001111 !
b11110 "
b1001011 !
b10110 "
b1001001 !
b10010 "
b1001000 !
b10000 "
05
04
03
12
0=
0<
0;
1:
1$
0+
#10050000
b1001001 !
b10010 "
15
1=
0$
0-
1+
#10100000
b1001011 !
b10110 "
b1001010 !
b10100 "
05
14
0=
1<
1$
0+
#10150000
b1001011 !
b10110 "
15
1=
0$
1+
#10200000
b1001111 !
b11110 "
b1001101 !
b11010 "
b1001100 !
b11000 "
05
04
13
0=
0<
1;
1$
0+
#10250000
b1001101 !
b11010 "
15
1=
0$
1+
#10300000
b1001111 !
b11110 "
b1001110 !
b11100 "
05
14
0=
1<
1$
0+
#10350000
b1001111 !
b11110 "
15
1=
0$
1-
1+
#10400000
b1011111 !
b111110 "
b1010111 !
b101110 "
b1010011 !
b100110 "
b1010001 !
b100010 "
b1010000 !
b100000 "
05
04
03
02
11
0=
0<
0;
0:
19
1$
0+
#10450000
b1010001 !
b100010 "
15
1=
0$
0-
1+
#10500000
b1010011 !
b100110 "
b1010010 !
b100100 "
05
14
0=
1<
1$
0+
#10550000
b1010011 !
b100110 "
15
1=
0$
1+
#10600000
b1010111 !
b101110 "
b1010101 !
b101010 "
b1010100 !
b101000 "
05
04
13
0=
0<
1;
1$
0+
#10650000
b1010101 !
b101010 "
15
1=
0$
1+
#10700000
b1010111 !
b101110 "
b1010110 !
b101100 "
05
14
0=
1<
1$
0+
#10750000
b1010111 !
b101110 "
15
1=
0$
1-
1+
#10800000
b1011111 !
b111110 "
b1011011 !
b110110 "
b1011001 !
b110010 "
b1011000 !
b110000 "
05
04
03
12
0=
0<
0;
1:
1$
0+
#10850000
b1011001 !
b110010 "
15
1=
0$
0-
1+
#10900000
b1011011 !
b110110 "
b1011010 !
b110100 "
05
14
0=
1<
1$
0+
#10950000
b1011011 !
b110110 "
15
1=
0$
1+
#11000000
b1011111 !
b111110 "
b1011101 !
b111010 "
b1011100 !
b111000 "
05
04
13
0=
0<
1;
1$
1,
0+
#11050000
b1011101 !
b111010 "
15
1=
0$
1+
#11100000
b1011111 !
b111110 "
b1011110 !
b111100 "
05
14
0=
1<
1$
0+
#11150000
b1011111 !
b111110 "
15
1=
0$
1-
1+
#11200000
b1111111 !
b1111110 "
b1101111 !
b1011110 "
b1100111 !
b1001110 "
b1100011 !
b1000110 "
b1100001 !
b1000010 "
b1100000 !
b1000000 "
05
04
03
02
01
10
0=
0<
0;
0:
09
18
1$
0+
#11250000
b1100001 !
b1000010 "
15
1=
0$
0-
1+
#11300000
b1100011 !
b1000110 "
b1100010 !
b1000100 "
05
14
0=
1<
1$
0+
#11350000
b1100011 !
b1000110 "
15
1=
0$
1+
#11400000
b1100111 !
b1001110 "
b1100101 !
b1001010 "
b1100100 !
b1001000 "
05
04
13
0=
0<
1;
1$
0,
0+
#11450000
b1100101 !
b1001010 "
15
1=
0$
1+
#11500000
b1100111 !
b1001110 "
b1100110 !
b1001100 "
05
14
0=
1<
1$
0+
#11550000
b1100111 !
b1001110 "
15
1=
0$
1-
1+
#11600000
b1101111 !
b1011110 "
b1101011 !
b1010110 "
b1101001 !
b1010010 "
b1101000 !
b1010000 "
05
04
03
12
0=
0<
0;
1:
1$
0+
#11650000
b1101001 !
b1010010 "
15
1=
0$
0-
1+
#11700000
b1101011 !
b1010110 "
b1101010 !
b1010100 "
05
14
0=
1<
1$
0+
#11750000
b1101011 !
b1010110 "
15
1=
0$
1+
#11800000
b1101111 !
b1011110 "
b1101101 !
b1011010 "
b1101100 !
b1011000 "
05
04
13
0=
0<
1;
1$
0+
#11850000
b1101101 !
b1011010 "
15
1=
0$
1+
#11900000
b1101111 !
b1011110 "
b1101110 !
b1011100 "
05
14
0=
1<
1$
0+
#11950000
b1101111 !
b1011110 "
15
1=
0$
1-
1+
#12000000
b1111111 !
b1111110 "
b1110111 !
b1101110 "
b1110011 !
b1100110 "
b1110001 !
b1100010 "
b1110000 !
b1100000 "
05
04
03
02
11
0=
0<
0;
0:
19
1$
1.
0+
#12050000
b1110001 !
b1100010 "
15
1=
0$
0-
1+
#12100000
b1110011 !
b1100110 "
b1110010 !
b1100100 "
05
14
0=
1<
1$
0+
#12150000
b1110011 !
b1100110 "
15
1=
0$
1+
#12200000
b1110111 !
b1101110 "
b1110101 !
b1101010 "
b1110100 !
b1101000 "
05
04
13
0=
0<
1;
1$
0+
#12250000
b1110101 !
b1101010 "
15
1=
0$
1+
#12300000
b1110111 !
b1101110 "
b1110110 !
b1101100 "
05
14
0=
1<
1$
0+
#12350000
b1110111 !
b1101110 "
15
1=
0$
1-
1+
#12400000
b1111111 !
b1111110 "
b1111011 !
b1110110 "
b1111001 !
b1110010 "
b1111000 !
b1110000 "
05
04
03
12
0=
0<
0;
1:
1$
0+
#12450000
b1111001 !
b1110010 "
15
1=
0$
0-
1+
#12500000
b1111011 !
b1110110 "
b1111010 !
b1110100 "
05
14
0=
1<
1$
0+
#12550000
b1111011 !
b1110110 "
15
1=
0$
1+
#12600000
b1111111 !
b1111110 "
b1111101 !
b1111010 "
b1111100 !
b1111000 "
05
04
13
0=
0<
1;
1$
1,
0+
#12650000
b1111101 !
b1111010 "
15
1=
0$
1+
#12700000
b1111111 !
b1111110 "
b1111110 !
b1111100 "
05
14
0=
1<
1$
0+
#12750000
b1111111 !
b1111110 "
15
1=
0$
1-
1+
#12800000
b111111 !
b11111 !
b111110 "
b1111 !
b11110 "
b111 !
b1110 "
b11 !
b110 "
b1 !
b10 "
b0 !
b0 "
05
04
03
02
01
00
0=
0<
0;
0:
09
08
07
1$
0+
1/
1#
#12850000
b1 !
b10 "
15
1=
0$
0-
1+
0/
0#
#12900000
b11 !
b110 "
b10 !
b100 "
05
14
0=
1<
1$
0+
#12950000
b11 !
b110 "
15
1=
0$
1+
#13000000
b111 !
b1110 "
b101 !
b1010 "
b100 !
b1000 "
05
04
13
0=
0<
1;
1$
0,
0+
#13050000
b101 !
b1010 "
15
1=
0$
1+
#13100000
b111 !
b1110 "
b110 !
b1100 "
05
14
0=
1<
1$
0+
#13150000
b111 !
b1110 "
15
1=
0$
1-
1+
#13200000
b1111 !
b11110 "
b1011 !
b10110 "
b1001 !
b10010 "
b1000 !
b10000 "
05
04
03
12
0=
0<
0;
1:
1$
0+
#13250000
b1001 !
b10010 "
15
1=
0$
0-
1+
#13300000
b1011 !
b10110 "
b1010 !
b10100 "
05
14
0=
1<
1$
0+
#13350000
b1011 !
b10110 "
15
1=
0$
1+
#13400000
b1111 !
b11110 "
b1101 !
b11010 "
b1100 !
b11000 "
05
04
13
0=
0<
1;
1$
0+
#13450000
b1101 !
b11010 "
15
1=
0$
1+
#13500000
b1111 !
b11110 "
b1110 !
b11100 "
05
14
0=
1<
1$
0+
#13550000
b1111 !
b11110 "
15
1=
0$
1-
1+
#13600000
b11111 !
b111110 "
b10111 !
b101110 "
b10011 !
b100110 "
b10001 !
b100010 "
b10000 !
b100000 "
05
04
03
02
11
0=
0<
0;
0:
19
1$
0.
0+
#13650000
b10001 !
b100010 "
15
1=
0$
0-
1+
#13700000
b10011 !
b100110 "
b10010 !
b100100 "
05
14
0=
1<
1$
0+
#13750000
b10011 !
b100110 "
15
1=
0$
1+
#13800000
b10111 !
b101110 "
b10101 !
b101010 "
b10100 !
b101000 "
05
04
13
0=
0<
1;
1$
0+
#13850000
b10101 !
b101010 "
15
1=
0$
1+
#13900000
b10111 !
b101110 "
b10110 !
b101100 "
05
14
0=
1<
1$
0+
#13950000
b10111 !
b101110 "
15
1=
0$
1-
1+
#14000000
b11111 !
b111110 "
b11011 !
b110110 "
b11001 !
b110010 "
b11000 !
b110000 "
05
04
03
12
0=
0<
0;
1:
1$
0+
#14050000
b11001 !
b110010 "
15
1=
0$
0-
1+
#14100000
b11011 !
b110110 "
b11010 !
b110100 "
05
14
0=
1<
1$
0+
#14150000
b11011 !
b110110 "
15
1=
0$
1+
#14200000
b11111 !
b111110 "
b11101 !
b111010 "
b11100 !
b111000 "
05
04
13
0=
0<
1;
1$
1,
0+
#14250000
b11101 !
b111010 "
15
1=
0$
1+
#14300000
b11111 !
b111110 "
b11110 !
b111100 "
05
14
0=
1<
1$
0+
#14350000
b11111 !
b111110 "
15
1=
0$
1-
1+
#14400000
b111111 !
b1111110 "
b101111 !
b1011110 "
b100111 !
b1001110 "
b100011 !
b1000110 "
b100001 !
b1000010 "
b100000 !
b1000000 "
05
04
03
02
01
10
0=
0<
0;
0:
09
18
1$
0+
#14450000
b100001 !
b1000010 "
15
1=
0$
0-
1+
#14500000
b100011 !
b1000110 "
b100010 !
b1000100 "
05
14
0=
1<
1$
0+
#14550000
b100011 !
b1000110 "
15
1=
0$
1+
#14600000
b100111 !
b1001110 "
b100101 !
b1001010 "
b100100 !
b1001000 "
05
04
13
0=
0<
1;
1$
0,
0+
#14650000
b100101 !
b1001010 "
15
1=
0$
1+
#14700000
b100111 !
b1001110 "
b100110 !
b1001100 "
05
14
0=
1<
1$
0+
#14750000
b100111 !
b1001110 "
15
1=
0$
1-
1+
#14800000
b101111 !
b1011110 "
b101011 !
b1010110 "
b101001 !
b1010010 "
b101000 !
b1010000 "
05
04
03
12
0=
0<
0;
1:
1$
0+
#14850000
b101001 !
b1010010 "
15
1=
0$
0-
1+
#14900000
b101011 !
b1010110 "
b101010 !
b1010100 "
05
14
0=
1<
1$
0+
#14950000
b101011 !
b1010110 "
15
1=
0$
1+
#15000000
b101111 !
b1011110 "
b101101 !
b1011010 "
b101100 !
b1011000 "
05
04
13
0=
0<
1;
1$
0+
#15050000
b101101 !
b1011010 "
15
1=
0$
1+
#15100000
b101111 !
b1011110 "
b101110 !
b1011100 "
05
14
0=
1<
1$
0+
#15150000
b101111 !
b1011110 "
15
1=
0$
1-
1+
