Lab 1/simulation/qsim/g21_lab1.msim.vcd
$comment
	File created using the following command:
		vcd file g21_lab1.msim.vcd -direction
$end
$date
	Sun Sep 24 10:54:01 2017
$end
$version
	ModelSim Version 10.1d
$end
$timescale
	1ps
$end
$scope module g21_lab1_vlg_vec_tst $end
$var reg 7 ! A [6:0] $end
$var reg 7 " B [6:0] $end
$var reg 8 # in_1 [7:0] $end
$var reg 8 $ in_2 [7:0] $end
$var wire 1 % AeqB $end
$var wire 1 & Cout $end
$var wire 1 ' out [7] $end
$var wire 1 ( out [6] $end
$var wire 1 ) out [5] $end
$var wire 1 * out [4] $end
$var wire 1 + out [3] $end
$var wire 1 , out [2] $end
$var wire 1 - out [1] $end
$var wire 1 . out [0] $end
$var wire 1 / sampler $end
$scope module i1 $end
$var wire 1 0 gnd $end
$var wire 1 1 vcc $end
$var wire 1 2 unknown $end
$var tri1 1 3 devclrn $end
$var tri1 1 4 devpor $end
$var tri1 1 5 devoe $end
$var wire 1 6 inst|inst6~combout $end
$var wire 1 7 inst|inst9~0_combout $end
$var wire 1 8 inst|inst9~1_combout $end
$var wire 1 9 inst|inst9~2_combout $end
$var wire 1 : inst|inst9~3_combout $end
$var wire 1 ; inst1|inst29|inst16~0_combout $end
$var wire 1 < inst1|inst27|inst16~0_combout $end
$var wire 1 = inst1|inst25|inst16~1_combout $end
$var wire 1 > inst1|inst27|inst16~1_combout $end
$var wire 1 ? inst1|inst27|inst16~2_combout $end
$var wire 1 @ inst1|inst28|inst16~0_combout $end
$var wire 1 A inst1|inst29|inst16~1_combout $end
$var wire 1 B inst1|inst30|inst16~0_combout $end
$var wire 1 C inst1|inst30|inst13~combout $end
$var wire 1 D inst1|inst29|inst13~0_combout $end
$var wire 1 E inst1|inst28|inst13~combout $end
$var wire 1 F inst1|inst26|inst16~0_combout $end
$var wire 1 G inst1|inst27|inst13~0_combout $end
$var wire 1 H inst1|inst25|inst16~0_combout $end
$var wire 1 I inst1|inst26|inst13~combout $end
$var wire 1 J inst1|inst24|inst16~0_combout $end
$var wire 1 K inst1|inst25|inst13~0_combout $end
$var wire 1 L inst1|inst24|inst13~0_combout $end
$var wire 1 M inst1|inst|inst23~combout $end
$var wire 1 N in_2~combout [7] $end
$var wire 1 O in_2~combout [6] $end
$var wire 1 P in_2~combout [5] $end
$var wire 1 Q in_2~combout [4] $end
$var wire 1 R in_2~combout [3] $end
$var wire 1 S in_2~combout [2] $end
$var wire 1 T in_2~combout [1] $end
$var wire 1 U in_2~combout [0] $end
$var wire 1 V in_1~combout [7] $end
$var wire 1 W in_1~combout [6] $end
$var wire 1 X in_1~combout [5] $end
$var wire 1 Y in_1~combout [4] $end
$var wire 1 Z in_1~combout [3] $end
$var wire 1 [ in_1~combout [2] $end
$var wire 1 \ in_1~combout [1] $end
$var wire 1 ] in_1~combout [0] $end
$var wire 1 ^ B~combout [6] $end
$var wire 1 _ B~combout [5] $end
$var wire 1 ` B~combout [4] $end
$var wire 1 a B~combout [3] $end
$var wire 1 b B~combout [2] $end
$var wire 1 c B~combout [1] $end
$var wire 1 d B~combout [0] $end
$var wire 1 e A~combout [6] $end
$var wire 1 f A~combout [5] $end
$var wire 1 g A~combout [4] $end
$var wire 1 h A~combout [3] $end
$var wire 1 i A~combout [2] $end
$var wire 1 j A~combout [1] $end
$var wire 1 k A~combout [0] $end
$upscope $end
$upscope $end
$enddefinitions $end
#0
$dumpvars
bx !
bx "
b0 #
b0 $
x%
0&
0.
0-
0,
0+
0*
0)
0(
0'
x/
00
11
x2
13
14
15
x6
x7
x8
x9
x:
0;
0<
0=
0>
0?
0@
0A
0B
0C
0D
0E
0F
0G
0H
0I
0J
0K
0L
0M
0U
0T
0S
0R
0Q
0P
0O
0N
0]
0\
0[
0Z
0Y
0X
0W
0V
xd
xc
xb
xa
x`
x_
x^
xk
xj
xi
xh
xg
xf
xe
$end
#10000
b1 #
1]
0/
1M
1.
#20000
b11 #
b10 #
0]
1\
1/
0M
1L
0.
1-
#30000
b11 #
1]
0/
1M
1.
#40000
b111 #
b101 #
b100 #
0]
0\
1[
1/
0M
0L
1K
0.
0-
1,
#50000
b101 #
1]
0/
1M
1.
#60000
b111 #
b110 #
0]
1\
1/
0M
1L
0.
1-
#70000
b111 #
1]
0/
1M
1.
#80000
b1111 #
b1011 #
b1001 #
b1000 #
0]
0\
0[
1Z
1/
0M
0L
0K
1I
0.
0-
0,
1+
#90000
b1001 #
1]
0/
1M
1.
#100000
b1011 #
b1010 #
0]
1\
1/
0M
1L
0.
1-
#110000
b1011 #
1]
0/
1M
1.
#120000
b1111 #
b1101 #
b1100 #
0]
0\
1[
1/
0M
0L
1K
0.
0-
1,
#130000
b1101 #
1]
0/
1M
1.
#140000
b1111 #
b1110 #
0]
1\
1/
0M
1L
0.
1-
#150000
b1111 #
1]
0/
1M
1.
#160000
b11111 #
b10111 #
b10011 #
b10001 #
b10000 #
0]
0\
0[
0Z
1Y
1/
0M
0L
0K
0I
1G
0.
0-
0,
0+
1*
#170000
b10001 #
1]
0/
1M
1.
#180000
b10011 #
b10010 #
0]
1\
1/
0M
1L
0.
1-
#190000
b10011 #
1]
0/
1M
1.
#200000
b10111 #
b10101 #
b10100 #
0]
0\
1[
1/
0M
0L
1K
0.
0-
1,
#210000
b10101 #
1]
0/
1M
1.
#220000
b10111 #
b10110 #
0]
1\
1/
0M
1L
0.
1-
#230000
b10111 #
1]
0/
1M
1.
#240000
b11111 #
b11011 #
b11001 #
b11000 #
0]
0\
0[
1Z
1/
0M
0L
0K
1I
0.
0-
0,
1+
#250000
b11001 #
1]
0/
1M
1.
#260000
b11011 #
b11010 #
0]
1\
1/
0M
1L
0.
1-
#270000
b11011 #
1]
0/
1M
1.
#280000
b11111 #
b11101 #
b11100 #
0]
0\
1[
1/
0M
0L
1K
0.
0-
1,
#290000
b11101 #
1]
0/
1M
1.
#300000
b11111 #
b11110 #
0]
1\
1/
0M
1L
0.
1-
#310000
b11111 #
1]
0/
1M
1.
#320000
b111111 #
b101111 #
b100111 #
b100011 #
b100001 #
b100000 #
0]
0\
0[
0Z
0Y
1X
1/
0M
0L
0K
0I
0G
1E
0.
0-
0,
0+
0*
1)
#330000
b100001 #
1]
0/
1M
1.
#340000
b100011 #
b100010 #
0]
1\
1/
0M
1L
0.
1-
#350000
b100011 #
1]
0/
1M
1.
#360000
b100111 #
b100101 #
b100100 #
0]
0\
1[
1/
0M
0L
1K
0.
0-
1,
#370000
b100101 #
1]
0/
1M
1.
#380000
b100111 #
b100110 #
0]
1\
1/
0M
1L
0.
1-
#390000
b100111 #
1]
0/
1M
1.
#400000
b101111 #
b101011 #
b101001 #
b101000 #
0]
0\
0[
1Z
1/
0M
0L
0K
1I
0.
0-
0,
1+
#410000
b101001 #
1]
0/
1M
1.
#420000
b101011 #
b101010 #
0]
1\
1/
0M
1L
0.
1-
#430000
b101011 #
1]
0/
1M
1.
#440000
b101111 #
b101101 #
b101100 #
0]
0\
1[
1/
0M
0L
1K
0.
0-
1,
#450000
b101101 #
1]
0/
1M
1.
#460000
b101111 #
b101110 #
0]
1\
1/
0M
1L
0.
1-
#470000
b101111 #
1]
0/
1M
1.
#480000
b111111 #
b110111 #
b110011 #
b110001 #
b110000 #
0]
0\
0[
0Z
1Y
1/
0M
0L
0K
0I
1G
0.
0-
0,
0+
1*
#490000
b110001 #
1]
0/
1M
1.
#500000
b110011 #
b110010 #
0]
1\
1/
0M
1L
0.
1-
#510000
b110011 #
1]
0/
1M
1.
#520000
b110111 #
b110101 #
b110100 #
0]
0\
1[
1/
0M
0L
1K
0.
0-
1,
#530000
b110101 #
1]
0/
1M
1.
#540000
b110111 #
b110110 #
0]
1\
1/
0M
1L
0.
1-
#550000
b110111 #
1]
0/
1M
1.
#560000
b111111 #
b111011 #
b111001 #
b111000 #
0]
0\
0[
1Z
1/
0M
0L
0K
1I
0.
0-
0,
1+
#570000
b111001 #
1]
0/
1M
1.
#580000
b111011 #
b111010 #
0]
1\
1/
0M
1L
0.
1-
#590000
b111011 #
1]
0/
1M
1.
#600000
b111111 #
b111101 #
b111100 #
0]
0\
1[
1/
0M
0L
1K
0.
0-
1,
#610000
b111101 #
1]
0/
1M
1.
#620000
b111111 #
b111110 #
0]
1\
1/
0M
1L
0.
1-
#630000
b111111 #
1]
0/
1M
1.
#640000
b1111111 #
b1011111 #
b1001111 #
b1000111 #
b1000011 #
b1000001 #
b1000000 #
0]
0\
0[
0Z
0Y
0X
1W
1/
0M
0L
0K
0I
0G
0E
1D
0.
0-
0,
0+
0*
0)
1(
#650000
b1000001 #
1]
0/
1M
1.
#660000
b1000011 #
b1000010 #
0]
1\
1/
0M
1L
0.
1-
#670000
b1000011 #
1]
0/
1M
1.
#680000
b1000111 #
b1000101 #
b1000100 #
0]
0\
1[
1/
0M
0L
1K
0.
0-
1,
#690000
b1000101 #
1]
0/
1M
1.
#700000
b1000111 #
b1000110 #
0]
1\
1/
0M
1L
0.
1-
#710000
b1000111 #
1]
0/
1M
1.
#720000
b1001111 #
b1001011 #
b1001001 #
b1001000 #
0]
0\
0[
1Z
1/
0M
0L
0K
1I
0.
0-
0,
1+
#730000
b1001001 #
1]
0/
1M
1.
#740000
b1001011 #
b1001010 #
0]
1\
1/
0M
1L
0.
1-
#750000
b1001011 #
1]
0/
1M
1.
#760000
b1001111 #
b1001101 #
b1001100 #
0]
0\
1[
1/
0M
0L
1K
0.
0-
1,
#770000
b1001101 #
1]
0/
1M
1.
#780000
b1001111 #
b1001110 #
0]
1\
1/
0M
1L
0.
1-
#790000
b1001111 #
1]
0/
1M
1.
#800000
b1011111 #
b1010111 #
b1010011 #
b1010001 #
b1010000 #
0]
0\
0[
0Z
1Y
1/
0M
0L
0K
0I
1G
0.
0-
0,
0+
1*
#810000
b1010001 #
1]
0/
1M
1.
#820000
b1010011 #
b1010010 #
0]
1\
1/
0M
1L
0.
1-
#830000
b1010011 #
1]
0/
1M
1.
#840000
b1010111 #
b1010101 #
b1010100 #
0]
0\
1[
1/
0M
0L
1K
0.
0-
1,
#850000
b1010101 #
1]
0/
1M
1.
#860000
b1010111 #
b1010110 #
0]
1\
1/
0M
1L
0.
1-
#870000
b1010111 #
1]
0/
1M
1.
#880000
b1011111 #
b1011011 #
b1011001 #
b1011000 #
0]
0\
0[
1Z
1/
0M
0L
0K
1I
0.
0-
0,
1+
#890000
b1011001 #
1]
0/
1M
1.
#900000
b1011011 #
b1011010 #
0]
1\
1/
0M
1L
0.
1-
#910000
b1011011 #
1]
0/
1M
1.
#920000
b1011111 #
b1011101 #
b1011100 #
0]
0\
1[
1/
0M
0L
1K
0.
0-
1,
#930000
b1011101 #
1]
0/
1M
1.
#940000
b1011111 #
b1011110 #
0]
1\
1/
0M
1L
0.
1-
#950000
b1011111 #
1]
0/
1M
1.
#960000
b1111111 #
b1101111 #
b1100111 #
b1100011 #
b1100001 #
b1100000 #
0]
0\
0[
0Z
0Y
1X
1/
0M
0L
0K
0I
0G
1E
0.
0-
0,
0+
0*
1)
#970000
b1100001 #
1]
0/
1M
1.
#980000
b1100011 #
b1100010 #
0]
1\
1/
0M
1L
0.
1-
#990000
b1100011 #
1]
0/
1M
1.
#1000000
b1100111 #
b1100101 #
b1100100 #
0]
0\
1[
1/
0M
0L
1K
0.
0-
1,
#1010000
b1100101 #
1]
0/
1M
1.
#1020000
b1100111 #
b1100110 #
0]
1\
1/
0M
1L
0.
1-
#1030000
b1100111 #
1]
0/
1M
1.
#1040000
b1101111 #
b1101011 #
b1101001 #
b1101000 #
0]
0\
0[
1Z
1/
0M
0L
0K
1I
0.
0-
0,
1+
#1050000
b1101001 #
1]
0/
1M
1.
#1060000
b1101011 #
b1101010 #
0]
1\
1/
0M
1L
0.
1-
#1070000
b1101011 #
1]
0/
1M
1.
#1080000
b1101111 #
b1101101 #
b1101100 #
0]
0\
1[
1/
0M
0L
1K
0.
0-
1,
#1090000
b1101101 #
1]
0/
1M
1.
#1100000
b1101111 #
b1101110 #
0]
1\
1/
0M
1L
0.
1-
#1110000
b1101111 #
1]
0/
1M
1.
#1120000
b1111111 #
b1110111 #
b1110011 #
b1110001 #
b1110000 #
0]
0\
0[
0Z
1Y
1/
0M
0L
0K
0I
1G
0.
0-
0,
0+
1*
#1130000
b1110001 #
1]
0/
1M
1.
#1140000
b1110011 #
b1110010 #
0]
1\
1/
0M
1L
0.
1-
#1150000
b1110011 #
1]
0/
1M
1.
#1160000
b1110111 #
b1110101 #
b1110100 #
0]
0\
1[
1/
0M
0L
1K
0.
0-
1,
#1170000
b1110101 #
1]
0/
1M
1.
#1180000
b1110111 #
b1110110 #
0]
1\
1/
0M
1L
0.
1-
#1190000
b1110111 #
1]
0/
1M
1.
#1200000
b1111111 #
b1111011 #
b1111001 #
b1111000 #
0]
0\
0[
1Z
1/
0M
0L
0K
1I
0.
0-
0,
1+
#1210000
b1111001 #
1]
0/
1M
1.
#1220000
b1111011 #
b1111010 #
0]
1\
1/
0M
1L
0.
1-
#1230000
b1111011 #
1]
0/
1M
1.
#1240000
b1111111 #
b1111101 #
b1111100 #
0]
0\
1[
1/
0M
0L
1K
0.
0-
1,
#1250000
b1111101 #
1]
0/
1M
1.
#1260000
b1111111 #
b1111110 #
0]
1\
1/
0M
1L
0.
1-
#1270000
b1111111 #
1]
0/
1M
1.
#1280000
b11111111 #
b10111111 #
b10011111 #
b10001111 #
b10000111 #
b10000011 #
b10000001 #
b10000000 #
0]
0\
0[
0Z
0Y
0X
0W
1V
1/
0M
0L
0K
0I
0G
0E
0D
1C
0.
0-
0,
0+
0*
0)
0(
1'
#1290000
b10000001 #
1]
0/
1M
1.
#1300000
b10000011 #
b10000010 #
0]
1\
1/
0M
1L
0.
1-
#1310000
b10000011 #
1]
0/
1M
1.
#1320000
b10000111 #
b10000101 #
b10000100 #
0]
0\
1[
1/
0M
0L
1K
0.
0-
1,
#1330000
b10000101 #
1]
0/
1M
1.
#1340000
b10000111 #
b10000110 #
0]
1\
1/
0M
1L
0.
1-
#1350000
b10000111 #
1]
0/
1M
1.
#1360000
b10001111 #
b10001011 #
b10001001 #
b10001000 #
0]
0\
0[
1Z
1/
0M
0L
0K
1I
0.
0-
0,
1+
#1370000
b10001001 #
1]
0/
1M
1.
#1380000
b10001011 #
b10001010 #
0]
1\
1/
0M
1L
0.
1-
#1390000
b10001011 #
1]
0/
1M
1.
#1400000
b10001111 #
b10001101 #
b10001100 #
0]
0\
1[
1/
0M
0L
1K
0.
0-
1,
#1410000
b10001101 #
1]
0/
1M
1.
#1420000
b10001111 #
b10001110 #
0]
1\
1/
0M
1L
0.
1-
#1430000
b10001111 #
1]
0/
1M
1.
#1440000
b10011111 #
b10010111 #
b10010011 #
b10010001 #
b10010000 #
0]
0\
0[
0Z
1Y
1/
0M
0L
0K
0I
1G
0.
0-
0,
0+
1*
#1450000
b10010001 #
1]
0/
1M
1.
#1460000
b10010011 #
b10010010 #
0]
1\
1/
0M
1L
0.
1-
#1470000
b10010011 #
1]
0/
1M
1.
#1480000
b10010111 #
b10010101 #
b10010100 #
0]
0\
1[
1/
0M
0L
1K
0.
0-
1,
#1490000
b10010101 #
1]
0/
1M
1.
#1500000
b10010111 #
b10010110 #
0]
1\
1/
0M
1L
0.
1-
#1510000
b10010111 #
1]
0/
1M
1.
#1520000
b10011111 #
b10011011 #
b10011001 #
b10011000 #
0]
0\
0[
1Z
1/
0M
0L
0K
1I
0.
0-
0,
1+
#1530000
b10011001 #
1]
0/
1M
1.
#1540000
b10011011 #
b10011010 #
0]
1\
1/
0M
1L
0.
1-
#1550000
b10011011 #
1]
0/
1M
1.
#1560000
b10011111 #
b10011101 #
b10011100 #
0]
0\
1[
1/
0M
0L
1K
0.
0-
1,
#1570000
b10011101 #
1]
0/
1M
1.
#1580000
b10011111 #
b10011110 #
0]
1\
1/
0M
1L
0.
1-
#1590000
b10011111 #
1]
0/
1M
1.
#1600000
b10111111 #
b10101111 #
b10100111 #
b10100011 #
b10100001 #
b10100000 #
0]
0\
0[
0Z
0Y
1X
1/
0M
0L
0K
0I
0G
1E
0.
0-
0,
0+
0*
1)
#1610000
b10100001 #
1]
0/
1M
1.
#1620000
b10100011 #
b10100010 #
0]
1\
1/
0M
1L
0.
1-
#1630000
b10100011 #
1]
0/
1M
1.
#1640000
b10100111 #
b10100101 #
b10100100 #
0]
0\
1[
1/
0M
0L
1K
0.
0-
1,
#1650000
b10100101 #
1]
0/
1M
1.
#1660000
b10100111 #
b10100110 #
0]
1\
1/
0M
1L
0.
1-
#1670000
b10100111 #
1]
0/
1M
1.
#1680000
b10101111 #
b10101011 #
b10101001 #
b10101000 #
0]
0\
0[
1Z
1/
0M
0L
0K
1I
0.
0-
0,
1+
#1690000
b10101001 #
1]
0/
1M
1.
#1700000
b10101011 #
b10101010 #
0]
1\
1/
0M
1L
0.
1-
#1710000
b10101011 #
1]
0/
1M
1.
#1720000
b10101111 #
b10101101 #
b10101100 #
0]
0\
1[
1/
0M
0L
1K
0.
0-
1,
#1730000
b10101101 #
1]
0/
1M
1.
#1740000
b10101111 #
b10101110 #
0]
1\
1/
0M
1L
0.
1-
#1750000
b10101111 #
1]
0/
1M
1.
#1760000
b10111111 #
b10110111 #
b10110011 #
b10110001 #
b10110000 #
0]
0\
0[
0Z
1Y
1/
0M
0L
0K
0I
1G
0.
0-
0,
0+
1*
#1770000
b10110001 #
1]
0/
1M
1.
#1780000
b10110011 #
b10110010 #
0]
1\
1/
0M
1L
0.
1-
#1790000
b10110011 #
1]
0/
1M
1.
#1800000
b10110111 #
b10110101 #
b10110100 #
0]
0\
1[
1/
0M
0L
1K
0.
0-
1,
#1810000
b10110101 #
1]
0/
1M
1.
#1820000
b10110111 #
b10110110 #
0]
1\
1/
0M
1L
0.
1-
#1830000
b10110111 #
1]
0/
1M
1.
#1840000
b10111111 #
b10111011 #
b10111001 #
b10111000 #
0]
0\
0[
1Z
1/
0M
0L
0K
1I
0.
0-
0,
1+
#1850000
b10111001 #
1]
0/
1M
1.
#1860000
b10111011 #
b10111010 #
0]
1\
1/
0M
1L
0.
1-
#1870000
b10111011 #
1]
0/
1M
1.
#1880000
b10111111 #
b10111101 #
b10111100 #
0]
0\
1[
1/
0M
0L
1K
0.
0-
1,
#1890000
b10111101 #
1]
0/
1M
1.
#1900000
b10111111 #
b10111110 #
0]
1\
1/
0M
1L
0.
1-
#1910000
b10111111 #
1]
0/
1M
1.
#1920000
b11111111 #
b11011111 #
b11001111 #
b11000111 #
b11000011 #
b11000001 #
b11000000 #
0]
0\
0[
0Z
0Y
0X
1W
1/
0M
0L
0K
0I
0G
0E
1D
0.
0-
0,
0+
0*
0)
1(
#1930000
b11000001 #
1]
0/
1M
1.
#1940000
b11000011 #
b11000010 #
0]
1\
1/
0M
1L
0.
1-
#1950000
b11000011 #
1]
0/
1M
1.
#1960000
b11000111 #
b11000101 #
b11000100 #
0]
0\
1[
1/
0M
0L
1K
0.
0-
1,
#1970000
b11000101 #
1]
0/
1M
1.
#1980000
b11000111 #
b11000110 #
0]
1\
1/
0M
1L
0.
1-
#1990000
b11000111 #
1]
0/
1M
1.
#2000000
b11001111 #
b11001011 #
b11001001 #
b11001000 #
0]
0\
0[
1Z
1/
0M
0L
0K
1I
0.
0-
0,
1+
#2010000
b11001001 #
1]
0/
1M
1.
#2020000
b11001011 #
b11001010 #
0]
1\
1/
0M
1L
0.
1-
#2030000
b11001011 #
1]
0/
1M
1.
#2040000
b11001111 #
b11001101 #
b11001100 #
0]
0\
1[
1/
0M
0L
1K
0.
0-
1,
#2050000
b11001101 #
1]
0/
1M
1.
#2060000
b11001111 #
b11001110 #
0]
1\
1/
0M
1L
0.
1-
#2070000
b11001111 #
1]
0/
1M
1.
#2080000
b11011111 #
b11010111 #
b11010011 #
b11010001 #
b11010000 #
0]
0\
0[
0Z
1Y
1/
0M
0L
0K
0I
1G
0.
0-
0,
0+
1*
#2090000
b11010001 #
1]
0/
1M
1.
#2100000
b11010011 #
b11010010 #
0]
1\
1/
0M
1L
0.
1-
#2110000
b11010011 #
1]
0/
1M
1.
#2120000
b11010111 #
b11010101 #
b11010100 #
0]
0\
1[
1/
0M
0L
1K
0.
0-
1,
#2130000
b11010101 #
1]
0/
1M
1.
#2140000
b11010111 #
b11010110 #
0]
1\
1/
0M
1L
0.
1-
#2150000
b11010111 #
1]
0/
1M
1.
#2160000
b11011111 #
b11011011 #
b11011001 #
b11011000 #
0]
0\
0[
1Z
1/
0M
0L
0K
1I
0.
0-
0,
1+
#2170000
b11011001 #
1]
0/
1M
1.
#2180000
b11011011 #
b11011010 #
0]
1\
1/
0M
1L
0.
1-
#2190000
b11011011 #
1]
0/
1M
1.
#2200000
b11011111 #
b11011101 #
b11011100 #
0]
0\
1[
1/
0M
0L
1K
0.
0-
1,
#2210000
b11011101 #
1]
0/
1M
1.
#2220000
b11011111 #
b11011110 #
0]
1\
1/
0M
1L
0.
1-
#2230000
b11011111 #
1]
0/
1M
1.
#2240000
b11111111 #
b11101111 #
b11100111 #
b11100011 #
b11100001 #
b11100000 #
0]
0\
0[
0Z
0Y
1X
1/
0M
0L
0K
0I
0G
1E
0.
0-
0,
0+
0*
1)
#2250000
b11100001 #
1]
0/
1M
1.
#2260000
b11100011 #
b11100010 #
0]
1\
1/
0M
1L
0.
1-
#2270000
b11100011 #
1]
0/
1M
1.
#2280000
b11100111 #
b11100101 #
b11100100 #
0]
0\
1[
1/
0M
0L
1K
0.
0-
1,
#2290000
b11100101 #
1]
0/
1M
1.
#2300000
b11100111 #
b11100110 #
0]
1\
1/
0M
1L
0.
1-
#2310000
b11100111 #
1]
0/
1M
1.
#2320000
b11101111 #
b11101011 #
b11101001 #
b11101000 #
0]
0\
0[
1Z
1/
0M
0L
0K
1I
0.
0-
0,
1+
#2330000
b11101001 #
1]
0/
1M
1.
#2340000
b11101011 #
b11101010 #
0]
1\
1/
0M
1L
0.
1-
#2350000
b11101011 #
1]
0/
1M
1.
#2360000
b11101111 #
b11101101 #
b11101100 #
0]
0\
1[
1/
0M
0L
1K
0.
0-
1,
#2370000
b11101101 #
1]
0/
1M
1.
#2380000
b11101111 #
b11101110 #
0]
1\
1/
0M
1L
0.
1-
#2390000
b11101111 #
1]
0/
1M
1.
#2400000
b11111111 #
b11110111 #
b11110011 #
b11110001 #
b11110000 #
0]
0\
0[
0Z
1Y
1/
0M
0L
0K
0I
1G
0.
0-
0,
0+
1*
#2410000
b11110001 #
1]
0/
1M
1.
#2420000
b11110011 #
b11110010 #
0]
1\
1/
0M
1L
0.
1-
#2430000
b11110011 #
1]
0/
1M
1.
#2440000
b11110111 #
b11110101 #
b11110100 #
0]
0\
1[
1/
0M
0L
1K
0.
0-
1,
#2450000
b11110101 #
1]
0/
1M
1.
#2460000
b11110111 #
b11110110 #
0]
1\
1/
0M
1L
0.
1-
#2470000
b11110111 #
1]
0/
1M
1.
#2480000
b11111111 #
b11111011 #
b11111001 #
b11111000 #
0]
0\
0[
1Z
1/
0M
0L
0K
1I
0.
0-
0,
1+
#2490000
b11111001 #
1]
0/
1M
1.
#2500000
b11111011 #
b11111010 #
0]
1\
1/
0M
1L
0.
1-
#2510000
b11111011 #
1]
0/
1M
1.
#2520000
b11111111 #
b11111101 #
b11111100 #
0]
0\
1[
1/
0M
0L
1K
0.
0-
1,
#2530000
b11111101 #
1]
0/
1M
1.
#2540000
b11111111 #
b11111110 #
0]
1\
1/
0M
1L
0.
1-
#2550000
b11111111 #
1]
0/
1M
1.
#2560000
b1 $
b1111111 #
b111111 #
b11111 #
b1111 #
b111 #
b11 #
b1 #
b0 #
0]
0\
0[
0Z
0Y
0X
0W
0V
1U
1/
0L
0K
0I
0G
0E
0D
0C
0-
0,
0+
0*
0)
0(
0'
#2570000
b1 #
1]
0/
0M
1L
0.
1-
#2580000
b11 #
b10 #
0]
1\
1/
1M
1.
#2590000
b11 #
1]
0/
0M
0L
1J
1K
0.
0-
1,
#2600000
b111 #
b101 #
b100 #
0]
0\
1[
1/
1M
0J
0K
1=
1K
0=
1I
1.
0,
0I
1,
1+
0+
#2610000
b101 #
1]
0/
0M
1L
0.
1-
#2620000
b111 #
b110 #
0]
1\
1/
1M
1.
#2630000
b111 #
1]
0/
0M
0L
1J
0K
1=
0.
0-
1I
0,
1+
#2640000
b1111 #
b1011 #
b1001 #
b1000 #
0]
0\
0[
1Z
1/
1M
0J
1K
0=
0I
1F
1>
0K
1I
0F
0>
1G
1.
1,
0+
0G
0,
1+
1*
0*
#2650000
b1001 #
1]
0/
0M
1L
0.
1-
#2660000
b1011 #
b1010 #
0]
1\
1/
1M
1.
#2670000
b1011 #
1]
0/
0M
0L
1J
1K
0.
0-
1,
#2680000
b1111 #
b1101 #
b1100 #
0]
0\
1[
1/
1M
0J
0K
1=
1K
0=
0I
1F
1>
1.
0,
1I
0F
0>
1G
1,
0+
0G
1+
1*
0*
#2690000
b1101 #
1]
0/
0M
1L
0.
1-
#2700000
b1111 #
b1110 #
0]
1\
1/
1M
1.
#2710000
b1111 #
1]
0/
0M
0L
1J
0K
1=
0.
0-
0I
1F
1>
0,
1G
0+
1*
#2720000
b11111 #
b10111 #
b10011 #
b10001 #
b10000 #
0]
0\
0[
0Z
1Y
1/
1M
0J
1K
0=
1I
0F
0>
0G
1?
0K
0I
1G
0?
1E
1.
1,
1+
0*
0E
0,
0+
1*
1)
0)
#2730000
b10001 #
1]
0/
0M
1L
0.
1-
#2740000
b10011 #
b10010 #
0]
1\
1/
1M
1.
#2750000
b10011 #
1]
0/
0M
0L
1J
1K
0.
0-
1,
#2760000
b10111 #
b10101 #
b10100 #
0]
0\
1[
1/
1M
0J
0K
1=
1K
0=
1I
1.
0,
0I
1,
1+
0+
#2770000
b10101 #
1]
0/
0M
1L
0.
1-
#2780000
b10111 #
b10110 #
0]
1\
1/
1M
1.
#2790000
b10111 #
1]
0/
0M
0L
1J
0K
1=
0.
0-
1I
0,
1+
#2800000
b11111 #
b11011 #
b11001 #
b11000 #
0]
0\
0[
1Z
1/
1M
0J
1K
0=
0I
1F
1>
0K
1I
0F
0>
0G
1?
1.
1,
0+
1G
0?
1E
0,
1+
0*
0E
1*
1)
0)
#2810000
b11001 #
1]
0/
0M
1L
0.
1-
#2820000
b11011 #
b11010 #
0]
1\
1/
1M
1.
#2830000
b11011 #
1]
0/
0M
0L
1J
1K
0.
0-
1,
#2840000
b11111 #
b11101 #
b11100 #
0]
0\
1[
1/
1M
0J
0K
1=
1K
0=
0I
1F
1>
1.
0,
1I
0F
0>
0G
1?
1,
0+
1G
0?
1E
1+
0*
0E
1*
1)
0)
#2850000
b11101 #
1]
0/
0M
1L
0.
1-
#2860000
b11111 #
b11110 #
0]
1\
1/
1M
1.
#2870000
b11111 #
1]
0/
0M
0L
1J
0K
1=
0.
0-
0I
1F
1>
0,
0G
1?
0+
1E
0*
1)
#2880000
b111111 #
b101111 #
b100111 #
b100011 #
b100001 #
b100000 #
0]
0\
0[
0Z
0Y
1X
1/
1M
0J
1K
0=
1I
0F
0>
1G
0?
0E
1@
0K
0I
0G
1E
0@
1D
1.
1,
1+
1*
0)
0D
0,
0+
0*
1)
1(
0(
#2890000
b100001 #
1]
0/
0M
1L
0.
1-
#2900000
b100011 #
b100010 #
0]
1\
1/
1M
1.
#2910000
b100011 #
1]
0/
0M
0L
1J
1K
0.
0-
1,
#2920000
b100111 #
b100101 #
b100100 #
0]
0\
1[
1/
1M
0J
0K
1=
1K
0=
1I
1.
0,
0I
1,
1+
0+
#2930000
b100101 #
1]
0/
0M
1L
0.
1-
#2940000
b100111 #
b100110 #
0]
1\
1/
1M
1.
#2950000
b100111 #
1]
0/
0M
0L
1J
0K
1=
0.
0-
1I
0,
1+
#2960000
b101111 #
b101011 #
b101001 #
b101000 #
0]
0\
0[
1Z
1/
1M
0J
1K
0=
0I
1F
1>
0K
1I
0F
0>
1G
1.
1,
0+
0G
0,
1+
1*
0*
#2970000
b101001 #
1]
0/
0M
1L
0.
1-
#2980000
b101011 #
b101010 #
0]
1\
1/
1M
1.
#2990000
b101011 #
1]
0/
0M
0L
1J
1K
0.
0-
1,
#3000000
b101111 #
b101101 #
b101100 #
0]
0\
1[
1/
1M
0J
0K
1=
1K
0=
0I
1F
1>
1.
0,
1I
0F
0>
1G
1,
0+
0G
1+
1*
0*
#3010000
b101101 #
1]
0/
0M
1L
0.
1-
#3020000
b101111 #
b101110 #
0]
1\
1/
1M
1.
#3030000
b101111 #
1]
0/
0M
0L
1J
0K
1=
0.
0-
0I
1F
1>
0,
1G
0+
1*
#3040000
b111111 #
b110111 #
b110011 #
b110001 #
b110000 #
0]
0\
0[
0Z
1Y
1/
1M
0J
1K
0=
1I
0F
0>
0G
1?
0K
0I
1G
0?
0E
1@
1.
1,
1+
0*
1E
0@
1D
0,
0+
1*
0)
0D
1)
1(
0(
#3050000
b110001 #
1]
0/
0M
1L
0.
1-
#3060000
b110011 #
b110010 #
0]
1\
1/
1M
1.
#3070000
b110011 #
1]
0/
0M
0L
1J
1K
0.
0-
1,
#3080000
b110111 #
b110101 #
b110100 #
0]
0\
1[
1/
1M
0J
0K
1=
1K
0=
1I
1.
0,
0I
1,
1+
0+
#3090000
b110101 #
1]
0/
0M
1L
0.
1-
#3100000
b110111 #
b110110 #
0]
1\
1/
1M
1.
#3110000
b110111 #
1]
0/
0M
0L
1J
0K
1=
0.
0-
1I
0,
1+
#3120000
b111111 #
b111011 #
b111001 #
b111000 #
0]
0\
0[
1Z
1/
1M
0J
1K
0=
0I
1F
1>
0K
1I
0F
0>
0G
1?
1.
1,
0+
1G
0?
0E
1@
0,
1+
0*
1E
0@
1D
1*
0)
0D
1)
1(
0(
#3130000
b111001 #
1]
0/
0M
1L
0.
1-
