Lab 1/simulation/qsim/g21_lab1.msim.vcd
$comment
	File created using the following command:
		vcd file g21_lab1.msim.vcd -direction
$end
$date
	Fri Sep 22 09:58:03 2017
$end
$version
	ModelSim Version 10.1d
$end
$timescale
	1ps
$end
$scope module g21_lab1_vlg_vec_tst $end
$var reg 7 ! A [6:0] $end
$var reg 7 " B [6:0] $end
$var wire 1 # AeqB $end
$var wire 1 $ sampler $end
$scope module i1 $end
$var wire 1 % gnd $end
$var wire 1 & vcc $end
$var wire 1 ' unknown $end
$var tri1 1 ( devclrn $end
$var tri1 1 ) devpor $end
$var tri1 1 * devoe $end
$var wire 1 + inst|inst6~combout $end
$var wire 1 , inst|inst9~1_combout $end
$var wire 1 - inst|inst9~2_combout $end
$var wire 1 . inst|inst9~0_combout $end
$var wire 1 / inst|inst9~3_combout $end
$var wire 1 0 B~combout [6] $end
$var wire 1 1 B~combout [5] $end
$var wire 1 2 B~combout [4] $end
$var wire 1 3 B~combout [3] $end
$var wire 1 4 B~combout [2] $end
$var wire 1 5 B~combout [1] $end
$var wire 1 6 B~combout [0] $end
$var wire 1 7 A~combout [6] $end
$var wire 1 8 A~combout [5] $end
$var wire 1 9 A~combout [4] $end
$var wire 1 : A~combout [3] $end
$var wire 1 ; A~combout [2] $end
$var wire 1 < A~combout [1] $end
$var wire 1 = A~combout [0] $end
$upscope $end
$upscope $end
$enddefinitions $end
#0
$dumpvars
b0 !
b0 "
1#
x$
0%
1&
x'
1(
1)
1*
0+
1,
1-
1.
1/
06
05
04
03
02
01
00
0=
0<
0;
0:
09
08
07
$end
#20000
b1 !
1=
0$
1+
0/
0#
#40000
b11 !
b10 !
0=
1<
1$
0+
0-
#60000
b11 !
1=
0$
1+
#80000
b111 !
b101 !
b100 !
0=
0<
1;
1$
0+
#100000
b101 !
1=
0$
1+
#120000
b111 !
b110 !
0=
1<
1$
0+
#140000
b111 !
1=
0$
1+
#160000
b1111 !
b1011 !
b1001 !
b1000 !
0=
0<
0;
1:
1$
0+
1-
0,
#180000
b1001 !
1=
0$
1+
#200000
b1011 !
b1010 !
0=
1<
1$
0+
0-
#220000
b1011 !
1=
0$
1+
#240000
b1111 !
b1101 !
b1100 !
0=
0<
1;
1$
0+
#260000
b1101 !
1=
0$
1+
#280000
b1111 !
b1110 !
0=
1<
1$
0+
#300000
b1111 !
1=
0$
1+
#320000
b11111 !
b10111 !
b10011 !
b10001 !
b10000 !
0=
0<
0;
0:
19
1$
0+
1-
#340000
b10001 !
1=
0$
1+
#360000
b10011 !
b10010 !
0=
1<
1$
0+
0-
#380000
b10011 !
1=
0$
1+
#400000
b10111 !
b10101 !
b10100 !
0=
0<
1;
1$
0+
#420000
b10101 !
1=
0$
1+
#440000
b10111 !
b10110 !
0=
1<
1$
0+
#460000
b10111 !
1=
0$
1+
#480000
b11111 !
b11011 !
b11001 !
b11000 !
0=
0<
0;
1:
1$
0+
1-
#500000
b11001 !
1=
0$
1+
#520000
b11011 !
b11010 !
0=
1<
1$
0+
0-
#540000
b11011 !
1=
0$
1+
#560000
b11111 !
b11101 !
b11100 !
0=
0<
1;
1$
0+
#580000
b11101 !
1=
0$
1+
#600000
b11111 !
b11110 !
0=
1<
1$
0+
#620000
b11111 !
1=
0$
1+
#640000
b111111 !
b101111 !
b100111 !
b100011 !
b100001 !
b100000 !
0=
0<
0;
0:
09
18
1$
0+
1-
1,
0.
#660000
b100001 !
1=
0$
1+
#680000
b100011 !
b100010 !
0=
1<
1$
0+
0-
#700000
b100011 !
1=
0$
1+
#720000
b100111 !
b100101 !
b100100 !
0=
0<
1;
1$
0+
#740000
b100101 !
1=
0$
1+
#760000
b100111 !
b100110 !
0=
1<
1$
0+
#780000
b100111 !
1=
0$
1+
#800000
b101111 !
b101011 !
b101001 !
b101000 !
0=
0<
0;
1:
1$
0+
1-
0,
#820000
b101001 !
1=
0$
1+
#840000
b101011 !
b101010 !
0=
1<
1$
0+
0-
#860000
b101011 !
1=
0$
1+
#880000
b101111 !
b101101 !
b101100 !
0=
0<
1;
1$
0+
#900000
b101101 !
1=
0$
1+
#920000
b101111 !
b101110 !
0=
1<
1$
0+
#940000
b101111 !
1=
0$
1+
#960000
b111111 !
b110111 !
b110011 !
b110001 !
b110000 !
0=
0<
0;
0:
19
1$
0+
1-
#980000
b110001 !
1=
0$
1+
#1000000
b110011 !
b110010 !
0=
1<
1$
0+
0-
#1020000
b110011 !
1=
0$
1+
#1040000
b110111 !
b110101 !
b110100 !
0=
0<
1;
1$
0+
#1060000
b110101 !
1=
0$
1+
#1080000
b110111 !
b110110 !
0=
1<
1$
0+
#1100000
b110111 !
1=
0$
1+
#1120000
b111111 !
b111011 !
b111001 !
b111000 !
0=
0<
0;
1:
1$
0+
1-
#1140000
b111001 !
1=
0$
1+
#1160000
b111011 !
b111010 !
0=
1<
1$
0+
0-
#1180000
b111011 !
1=
0$
1+
#1200000
b111111 !
b111101 !
b111100 !
0=
0<
1;
1$
0+
#1220000
b111101 !
1=
0$
1+
#1240000
b111111 !
b111110 !
0=
1<
1$
0+
#1260000
b111111 !
1=
0$
1+
#1280000
b1111111 !
b1011111 !
b1001111 !
b1000111 !
b1000011 !
b1000001 !
b1000000 !
0=
0<
0;
0:
09
08
17
1$
0+
1-
1,
#1300000
b1000001 !
1=
0$
1+
#1320000
b1000011 !
b1000010 !
0=
1<
1$
0+
0-
#1340000
b1000011 !
1=
0$
1+
#1360000
b1000111 !
b1000101 !
b1000100 !
0=
0<
1;
1$
0+
#1380000
b1000101 !
1=
0$
1+
#1400000
b1000111 !
b1000110 !
0=
1<
1$
0+
#1420000
b1000111 !
1=
0$
1+
#1440000
b1001111 !
b1001011 !
b1001001 !
b1001000 !
0=
0<
0;
1:
1$
0+
1-
0,
#1460000
b1001001 !
1=
0$
1+
#1480000
b1001011 !
b1001010 !
0=
1<
1$
0+
0-
#1500000
b1001011 !
1=
0$
1+
#1520000
b1001111 !
b1001101 !
b1001100 !
0=
0<
1;
1$
0+
#1540000
b1001101 !
1=
0$
1+
#1560000
b1001111 !
b1001110 !
0=
1<
1$
0+
#1580000
b1001111 !
1=
0$
1+
#1600000
b1011111 !
b1010111 !
b1010011 !
b1010001 !
b1010000 !
0=
0<
0;
0:
19
1$
0+
1-
#1620000
b1010001 !
1=
0$
1+
#1640000
b1010011 !
b1010010 !
0=
1<
1$
0+
0-
#1660000
b1010011 !
1=
0$
1+
#1680000
b1010111 !
b1010101 !
b1010100 !
0=
0<
1;
1$
0+
#1700000
b1010101 !
1=
0$
1+
#1720000
b1010111 !
b1010110 !
0=
1<
1$
0+
#1740000
b1010111 !
1=
0$
1+
#1760000
b1011111 !
b1011011 !
b1011001 !
b1011000 !
0=
0<
0;
1:
1$
0+
1-
#1780000
b1011001 !
1=
0$
1+
#1800000
b1011011 !
b1011010 !
0=
1<
1$
0+
0-
#1820000
b1011011 !
1=
0$
1+
#1840000
b1011111 !
b1011101 !
b1011100 !
0=
0<
1;
1$
0+
#1860000
b1011101 !
1=
0$
1+
#1880000
b1011111 !
b1011110 !
0=
1<
1$
0+
#1900000
b1011111 !
1=
0$
1+
#1920000
b1111111 !
b1101111 !
b1100111 !
b1100011 !
b1100001 !
b1100000 !
0=
0<
0;
0:
09
18
1$
0+
1-
1,
#1940000
b1100001 !
1=
0$
1+
#1960000
b1100011 !
b1100010 !
0=
1<
1$
0+
0-
#1980000
b1100011 !
1=
0$
1+
#2000000
b1100111 !
b1100101 !
b1100100 !
0=
0<
1;
1$
0+
#2020000
b1100101 !
1=
0$
1+
#2040000
b1100111 !
b1100110 !
0=
1<
1$
0+
#2060000
b1100111 !
1=
0$
1+
#2080000
b1101111 !
b1101011 !
b1101001 !
b1101000 !
0=
0<
0;
1:
1$
0+
1-
0,
#2100000
b1101001 !
1=
0$
1+
#2120000
b1101011 !
b1101010 !
0=
1<
1$
0+
0-
#2140000
b1101011 !
1=
0$
1+
#2160000
b1101111 !
b1101101 !
b1101100 !
0=
0<
1;
1$
0+
#2180000
b1101101 !
1=
0$
1+
#2200000
b1101111 !
b1101110 !
0=
1<
1$
0+
#2220000
b1101111 !
1=
0$
1+
#2240000
b1111111 !
b1110111 !
b1110011 !
b1110001 !
b1110000 !
0=
0<
0;
0:
19
1$
0+
1-
#2260000
b1110001 !
1=
0$
1+
#2280000
b1110011 !
b1110010 !
0=
1<
1$
0+
0-
#2300000
b1110011 !
1=
0$
1+
#2320000
b1110111 !
b1110101 !
b1110100 !
0=
0<
1;
1$
0+
#2340000
b1110101 !
1=
0$
1+
#2360000
b1110111 !
b1110110 !
0=
1<
1$
0+
#2380000
b1110111 !
1=
0$
1+
#2400000
b1111111 !
b1111011 !
b1111001 !
b1111000 !
0=
0<
0;
1:
1$
0+
1-
#2420000
b1111001 !
1=
0$
1+
#2440000
b1111011 !
b1111010 !
0=
1<
1$
0+
0-
#2460000
b1111011 !
1=
0$
1+
#2480000
b1111111 !
b1111101 !
b1111100 !
0=
0<
1;
1$
0+
#2500000
b1111101 !
1=
0$
1+
#2520000
b1111111 !
b1111110 !
0=
1<
1$
0+
#2540000
b1111111 !
1=
0$
1+
#2560000
b1 "
b111111 !
b11111 !
b1111 !
b111 !
b11 !
b1 !
b0 !
0=
0<
0;
0:
09
08
07
16
1$
1-
1,
1.
#2580000
b1 !
1=
0$
0+
1/
1#
#2600000
b11 !
b10 !
0=
1<
1$
1+
0-
0/
0#
#2620000
b11 !
1=
0$
0+
#2640000
b111 !
b101 !
b100 !
0=
0<
1;
1$
1+
#2660000
b101 !
1=
0$
0+
#2680000
b111 !
b110 !
0=
1<
1$
1+
#2700000
b111 !
1=
0$
0+
#2720000
b1111 !
b1011 !
b1001 !
b1000 !
0=
0<
0;
1:
1$
1+
1-
0,
#2740000
b1001 !
1=
0$
0+
#2760000
b1011 !
b1010 !
0=
1<
1$
1+
0-
#2780000
b1011 !
1=
0$
0+
#2800000
b1111 !
b1101 !
b1100 !
0=
0<
1;
1$
1+
#2820000
b1101 !
1=
0$
0+
#2840000
b1111 !
b1110 !
0=
1<
1$
1+
#2860000
b1111 !
1=
0$
0+
#2880000
b11111 !
b10111 !
b10011 !
b10001 !
b10000 !
0=
0<
0;
0:
19
1$
1+
1-
#2900000
b10001 !
1=
0$
0+
#2920000
b10011 !
b10010 !
0=
1<
1$
1+
0-
#2940000
b10011 !
1=
0$
0+
#2960000
b10111 !
b10101 !
b10100 !
0=
0<
1;
1$
1+
#2980000
b10101 !
1=
0$
0+
#3000000
b10111 !
b10110 !
0=
1<
1$
1+
#3020000
b10111 !
1=
0$
0+
#3040000
b11111 !
b11011 !
b11001 !
b11000 !
0=
0<
0;
1:
1$
1+
1-
#3060000
b11001 !
1=
0$
0+
#3080000
b11011 !
b11010 !
0=
1<
1$
1+
0-
#3100000
b11011 !
1=
0$
0+
#3120000
b11111 !
b11101 !
b11100 !
0=
0<
1;
1$
1+
#3140000
b11101 !
1=
0$
0+
#3160000
b11111 !
b11110 !
0=
1<
1$
1+
#3180000
b11111 !
1=
0$
0+
#3200000
b111111 !
b101111 !
b100111 !
b100011 !
b100001 !
b100000 !
0=
0<
0;
0:
09
18
1$
1+
1-
1,
0.
#3220000
b100001 !
1=
0$
0+
#3240000
b100011 !
b100010 !
0=
1<
1$
1+
0-
#3260000
b100011 !
1=
0$
0+
#3280000
b100111 !
b100101 !
b100100 !
0=
0<
1;
1$
1+
#3300000
b100101 !
1=
0$
0+
#3320000
b100111 !
b100110 !
0=
1<
1$
1+
#3340000
b100111 !
1=
0$
0+
#3360000
b101111 !
b101011 !
b101001 !
b101000 !
0=
0<
0;
1:
1$
1+
1-
0,
#3380000
b101001 !
1=
0$
0+
#3400000
b101011 !
b101010 !
0=
1<
1$
1+
0-
#3420000
b101011 !
1=
0$
0+
#3440000
b101111 !
b101101 !
b101100 !
0=
0<
1;
1$
1+
#3460000
b101101 !
1=
0$
0+
#3480000
b101111 !
b101110 !
0=
1<
1$
1+
#3500000
b101111 !
1=
0$
0+
#3520000
b111111 !
b110111 !
b110011 !
b110001 !
b110000 !
0=
0<
0;
0:
19
1$
1+
1-
#3540000
b110001 !
1=
0$
0+
#3560000
b110011 !
b110010 !
0=
1<
1$
1+
0-
#3580000
b110011 !
1=
0$
0+
#3600000
b110111 !
b110101 !
b110100 !
0=
0<
1;
1$
1+
#3620000
b110101 !
1=
0$
0+
#3640000
b110111 !
b110110 !
0=
1<
1$
1+
#3660000
b110111 !
1=
0$
0+
#3680000
b111111 !
b111011 !
b111001 !
b111000 !
0=
0<
0;
1:
1$
1+
1-
#3700000
b111001 !
1=
0$
0+
#3720000
b111011 !
b111010 !
0=
1<
1$
1+
0-
#3740000
b111011 !
1=
0$
0+
#3760000
b111111 !
b111101 !
b111100 !
0=
0<
1;
1$
1+
#3780000
b111101 !
1=
0$
0+
#3800000
b111111 !
b111110 !
0=
1<
1$
1+
#3820000
b111111 !
1=
0$
0+
#3840000
b1111111 !
b1011111 !
b1001111 !
b1000111 !
b1000011 !
b1000001 !
b1000000 !
0=
0<
0;
0:
09
08
17
1$
1+
1-
1,
#3860000
b1000001 !
1=
0$
0+
#3880000
b1000011 !
b1000010 !
0=
1<
1$
1+
0-
#3900000
b1000011 !
1=
0$
0+
#3920000
b1000111 !
b1000101 !
b1000100 !
0=
0<
1;
1$
1+
#3940000
b1000101 !
1=
0$
0+
#3960000
b1000111 !
b1000110 !
0=
1<
1$
1+
#3980000
b1000111 !
1=
0$
0+
#4000000
b1001111 !
b1001011 !
b1001001 !
b1001000 !
0=
0<
0;
1:
1$
1+
1-
0,
#4020000
b1001001 !
1=
0$
0+
#4040000
b1001011 !
b1001010 !
0=
1<
1$
1+
0-
#4060000
b1001011 !
1=
0$
0+
#4080000
b1001111 !
b1001101 !
b1001100 !
0=
0<
1;
1$
1+
#4100000
b1001101 !
1=
0$
0+
#4120000
b1001111 !
b1001110 !
0=
1<
1$
1+
#4140000
b1001111 !
1=
0$
0+
#4160000
b1011111 !
b1010111 !
b1010011 !
b1010001 !
b1010000 !
0=
0<
0;
0:
19
1$
1+
1-
#4180000
b1010001 !
1=
0$
0+
#4200000
b1010011 !
b1010010 !
0=
1<
1$
1+
0-
#4220000
b1010011 !
1=
0$
0+
#4240000
b1010111 !
b1010101 !
b1010100 !
0=
0<
1;
1$
1+
#4260000
b1010101 !
1=
0$
0+
#4280000
b1010111 !
b1010110 !
0=
1<
1$
1+
#4300000
b1010111 !
1=
0$
0+
#4320000
b1011111 !
b1011011 !
b1011001 !
b1011000 !
0=
0<
0;
1:
1$
1+
1-
#4340000
b1011001 !
1=
0$
0+
#4360000
b1011011 !
b1011010 !
0=
1<
1$
1+
0-
#4380000
b1011011 !
1=
0$
0+
#4400000
b1011111 !
b1011101 !
b1011100 !
0=
0<
1;
1$
1+
#4420000
b1011101 !
1=
0$
0+
#4440000
b1011111 !
b1011110 !
0=
1<
1$
1+
#4460000
b1011111 !
1=
0$
0+
#4480000
b1111111 !
b1101111 !
b1100111 !
b1100011 !
b1100001 !
b1100000 !
0=
0<
0;
0:
09
18
1$
1+
1-
1,
#4500000
b1100001 !
1=
0$
0+
#4520000
b1100011 !
b1100010 !
0=
1<
1$
1+
0-
#4540000
b1100011 !
1=
0$
0+
#4560000
b1100111 !
b1100101 !
b1100100 !
0=
0<
1;
1$
1+
#4580000
b1100101 !
1=
0$
0+
#4600000
b1100111 !
b1100110 !
0=
1<
1$
1+
#4620000
b1100111 !
1=
0$
0+
#4640000
b1101111 !
b1101011 !
b1101001 !
b1101000 !
0=
0<
0;
1:
1$
1+
1-
0,
#4660000
b1101001 !
1=
0$
0+
#4680000
b1101011 !
b1101010 !
0=
1<
1$
1+
0-
#4700000
b1101011 !
1=
0$
0+
#4720000
b1101111 !
b1101101 !
b1101100 !
0=
0<
1;
1$
1+
#4740000
b1101101 !
1=
0$
0+
#4760000
b1101111 !
b1101110 !
0=
1<
1$
1+
#4780000
b1101111 !
1=
0$
0+
#4800000
b1111111 !
b1110111 !
b1110011 !
b1110001 !
b1110000 !
0=
0<
0;
0:
19
1$
1+
1-
#4820000
b1110001 !
1=
0$
0+
#4840000
b1110011 !
b1110010 !
0=
1<
1$
1+
0-
#4860000
b1110011 !
1=
0$
0+
#4880000
b1110111 !
b1110101 !
b1110100 !
0=
0<
1;
1$
1+
#4900000
b1110101 !
1=
0$
0+
#4920000
b1110111 !
b1110110 !
0=
1<
1$
1+
#4940000
b1110111 !
1=
0$
0+
#4960000
b1111111 !
b1111011 !
b1111001 !
b1111000 !
0=
0<
0;
1:
1$
1+
1-
#4980000
b1111001 !
1=
0$
0+
#5000000
b1111011 !
b1111010 !
0=
1<
1$
1+
0-
#5020000
b1111011 !
1=
0$
0+
#5040000
b1111111 !
b1111101 !
b1111100 !
0=
0<
1;
1$
1+
#5060000
b1111101 !
1=
0$
0+
#5080000
b1111111 !
b1111110 !
0=
1<
1$
1+
#5100000
b1111111 !
1=
0$
0+
#5120000
b11 "
b10 "
b111111 !
b11111 !
b1111 !
b111 !
b11 !
b1 !
b0 !
0=
0<
0;
0:
09
08
07
06
15
1$
1,
1.
#5140000
b1 !
1=
0$
1+
#5160000
b11 !
b10 !
0=
1<
1$
0+
1-
1/
1#
#5180000
b11 !
1=
0$
1+
0/
0#
#5200000
b111 !
b101 !
b100 !
0=
0<
1;
1$
0+
0-
#5220000
b101 !
1=
0$
1+
#5240000
b111 !
b110 !
0=
1<
1$
0+
#5260000
b111 !
1=
0$
1+
#5280000
b1111 !
b1011 !
b1001 !
b1000 !
0=
0<
0;
1:
1$
0+
0,
#5300000
b1001 !
1=
0$
1+
#5320000
b1011 !
b1010 !
0=
1<
1$
0+
1-
#5340000
b1011 !
1=
0$
1+
#5360000
b1111 !
b1101 !
b1100 !
0=
0<
1;
1$
0+
0-
#5380000
b1101 !
1=
0$
1+
#5400000
b1111 !
b1110 !
0=
1<
1$
0+
#5420000
b1111 !
1=
0$
1+
#5440000
b11111 !
b10111 !
b10011 !
b10001 !
b10000 !
0=
0<
0;
0:
19
1$
0+
#5460000
b10001 !
1=
0$
1+
#5480000
b10011 !
b10010 !
0=
1<
1$
0+
1-
#5500000
b10011 !
1=
0$
1+
#5520000
b10111 !
b10101 !
b10100 !
0=
0<
1;
1$
0+
0-
#5540000
b10101 !
1=
0$
1+
#5560000
b10111 !
b10110 !
0=
1<
1$
0+
#5580000
b10111 !
1=
0$
1+
#5600000
b11111 !
b11011 !
b11001 !
b11000 !
0=
0<
0;
1:
1$
0+
#5620000
b11001 !
1=
0$
1+
#5640000
b11011 !
b11010 !
0=
1<
1$
0+
1-
#5660000
b11011 !
1=
0$
1+
#5680000
b11111 !
b11101 !
b11100 !
0=
0<
1;
1$
0+
0-
#5700000
b11101 !
1=
0$
1+
#5720000
b11111 !
b11110 !
0=
1<
1$
0+
#5740000
b11111 !
1=
0$
1+
#5760000
b111111 !
b101111 !
b100111 !
b100011 !
b100001 !
b100000 !
0=
0<
0;
0:
09
18
1$
0+
1,
0.
#5780000
b100001 !
1=
0$
1+
#5800000
b100011 !
b100010 !
0=
1<
1$
0+
1-
#5820000
b100011 !
1=
0$
1+
#5840000
b100111 !
b100101 !
b100100 !
0=
0<
1;
1$
0+
0-
#5860000
b100101 !
1=
0$
1+
#5880000
b100111 !
b100110 !
0=
1<
1$
0+
#5900000
b100111 !
1=
0$
1+
#5920000
b101111 !
b101011 !
b101001 !
b101000 !
0=
0<
0;
1:
1$
0+
0,
#5940000
b101001 !
1=
0$
1+
#5960000
b101011 !
b101010 !
0=
1<
1$
0+
1-
#5980000
b101011 !
1=
0$
1+
#6000000
b101111 !
b101101 !
b101100 !
0=
0<
1;
1$
0+
0-
#6020000
b101101 !
1=
0$
1+
#6040000
b101111 !
b101110 !
0=
1<
1$
0+
#6060000
b101111 !
1=
0$
1+
#6080000
b111111 !
b110111 !
b110011 !
b110001 !
b110000 !
0=
0<
0;
0:
19
1$
0+
#6100000
b110001 !
1=
0$
1+
#6120000
b110011 !
b110010 !
0=
1<
1$
0+
1-
#6140000
b110011 !
1=
0$
1+
#6160000
b110111 !
b110101 !
b110100 !
0=
0<
1;
1$
0+
0-
#6180000
b110101 !
1=
0$
1+
#6200000
b110111 !
b110110 !
0=
1<
1$
0+
#6220000
b110111 !
1=
0$
1+
#6240000
b111111 !
b111011 !
b111001 !
b111000 !
0=
0<
0;
1:
1$
0+
#6260000
b111001 !
1=
0$
1+
#6280000
b111011 !
b111010 !
0=
1<
1$
0+
1-
#6300000
b111011 !
1=
0$
1+
#6320000
b111111 !
b111101 !
b111100 !
0=
0<
1;
1$
0+
0-
#6340000
b111101 !
1=
0$
1+
#6360000
b111111 !
b111110 !
0=
1<
1$
0+
#6380000
b111111 !
1=
0$
1+
#6400000
b1111111 !
b1011111 !
b1001111 !
b1000111 !
b1000011 !
b1000001 !
b1000000 !
0=
0<
0;
0:
09
08
17
1$
0+
1,
#6420000
b1000001 !
1=
0$
1+
#6440000
b1000011 !
b1000010 !
0=
1<
1$
0+
1-
#6460000
b1000011 !
1=
0$
1+
#6480000
b1000111 !
b1000101 !
b1000100 !
0=
0<
1;
1$
0+
0-
#6500000
b1000101 !
1=
0$
1+
#6520000
b1000111 !
b1000110 !
0=
1<
1$
0+
#6540000
b1000111 !
1=
0$
1+
#6560000
b1001111 !
b1001011 !
b1001001 !
b1001000 !
0=
0<
0;
1:
1$
0+
0,
#6580000
b1001001 !
1=
0$
1+
#6600000
b1001011 !
b1001010 !
0=
1<
1$
0+
1-
#6620000
b1001011 !
1=
0$
1+
#6640000
b1001111 !
b1001101 !
b1001100 !
0=
0<
1;
1$
0+
0-
#6660000
b1001101 !
1=
0$
1+
#6680000
b1001111 !
b1001110 !
0=
1<
1$
0+
#6700000
b1001111 !
1=
0$
1+
#6720000
b1011111 !
b1010111 !
b1010011 !
b1010001 !
b1010000 !
0=
0<
0;
0:
19
1$
0+
#6740000
b1010001 !
1=
0$
1+
#6760000
b1010011 !
b1010010 !
0=
1<
1$
0+
1-
#6780000
b1010011 !
1=
0$
1+
#6800000
b1010111 !
b1010101 !
b1010100 !
0=
0<
1;
1$
0+
0-
#6820000
b1010101 !
1=
0$
1+
#6840000
b1010111 !
b1010110 !
0=
1<
1$
0+
#6860000
b1010111 !
1=
0$
1+
#6880000
b1011111 !
b1011011 !
b1011001 !
b1011000 !
0=
0<
0;
1:
1$
0+
#6900000
b1011001 !
1=
0$
1+
#6920000
b1011011 !
b1011010 !
0=
1<
1$
0+
1-
#6940000
b1011011 !
1=
0$
1+
#6960000
b1011111 !
b1011101 !
b1011100 !
0=
0<
1;
1$
0+
0-
#6980000
b1011101 !
1=
0$
1+
#7000000
b1011111 !
b1011110 !
0=
1<
1$
0+
#7020000
b1011111 !
1=
0$
1+
#7040000
b1111111 !
b1101111 !
b1100111 !
b1100011 !
b1100001 !
b1100000 !
0=
0<
0;
0:
09
18
1$
0+
1,
#7060000
b1100001 !
1=
0$
1+
#7080000
b1100011 !
b1100010 !
0=
1<
1$
0+
1-
#7100000
b1100011 !
1=
0$
1+
#7120000
b1100111 !
b1100101 !
b1100100 !
0=
0<
1;
1$
0+
0-
#7140000
b1100101 !
1=
0$
1+
#7160000
b1100111 !
b1100110 !
0=
1<
1$
0+
#7180000
b1100111 !
1=
0$
1+
#7200000
b1101111 !
b1101011 !
b1101001 !
b1101000 !
0=
0<
0;
1:
1$
0+
0,
#7220000
b1101001 !
1=
0$
1+
#7240000
b1101011 !
b1101010 !
0=
1<
1$
0+
1-
#7260000
b1101011 !
1=
0$
1+
#7280000
b1101111 !
b1101101 !
b1101100 !
0=
0<
1;
1$
0+
0-
#7300000
b1101101 !
1=
0$
1+
#7320000
b1101111 !
b1101110 !
0=
1<
1$
0+
#7340000
b1101111 !
1=
0$
1+
#7360000
b1111111 !
b1110111 !
b1110011 !
b1110001 !
b1110000 !
0=
0<
0;
0:
19
1$
0+
#7380000
b1110001 !
1=
0$
1+
#7400000
b1110011 !
b1110010 !
0=
1<
1$
0+
1-
#7420000
b1110011 !
1=
0$
1+
#7440000
b1110111 !
b1110101 !
b1110100 !
0=
0<
1;
1$
0+
0-
#7460000
b1110101 !
1=
0$
1+
#7480000
b1110111 !
b1110110 !
0=
1<
1$
0+
#7500000
b1110111 !
1=
0$
1+
#7520000
b1111111 !
b1111011 !
b1111001 !
b1111000 !
0=
0<
0;
1:
1$
0+
#7540000
b1111001 !
1=
0$
1+
#7560000
b1111011 !
b1111010 !
0=
1<
1$
0+
1-
#7580000
b1111011 !
1=
0$
1+
#7600000
b1111111 !
b1111101 !
b1111100 !
0=
0<
1;
1$
0+
0-
#7620000
b1111101 !
1=
0$
1+
#7640000
b1111111 !
b1111110 !
0=
1<
1$
0+
#7660000
b1111111 !
1=
0$
1+
#7680000
b11 "
b111111 !
b11111 !
b1111 !
b111 !
b11 !
b1 !
b0 !
0=
0<
0;
0:
09
08
07
16
1$
1,
1.
#7700000
b1 !
1=
0$
0+
#7720000
b11 !
b10 !
0=
1<
1$
1+
1-
#7740000
b11 !
1=
0$
0+
1/
1#
#7760000
b111 !
b101 !
b100 !
0=
0<
1;
1$
1+
0-
0/
0#
#7780000
b101 !
1=
0$
0+
#7800000
b111 !
b110 !
0=
1<
1$
1+
#7820000
b111 !
1=
0$
0+
#7840000
b1111 !
b1011 !
b1001 !
b1000 !
0=
0<
0;
1:
1$
1+
0,
#7860000
b1001 !
1=
0$
0+
#7880000
b1011 !
b1010 !
0=
1<
1$
1+
1-
#7900000
b1011 !
1=
0$
0+
#7920000
b1111 !
b1101 !
b1100 !
0=
0<
1;
1$
1+
0-
#7940000
b1101 !
1=
0$
0+
#7960000
b1111 !
b1110 !
0=
1<
1$
1+
#7980000
b1111 !
1=
0$
0+
#8000000
b11111 !
b10111 !
b10011 !
b10001 !
b10000 !
0=
0<
0;
0:
19
1$
1+
#8020000
b10001 !
1=
0$
0+
#8040000
b10011 !
b10010 !
0=
1<
1$
1+
1-
#8060000
b10011 !
1=
0$
0+
#8080000
b10111 !
b10101 !
b10100 !
0=
0<
1;
1$
1+
0-
#8100000
b10101 !
1=
0$
0+
#8120000
b10111 !
b10110 !
0=
1<
1$
1+
#8140000
b10111 !
1=
0$
0+
#8160000
b11111 !
b11011 !
b11001 !
b11000 !
0=
0<
0;
1:
1$
1+
#8180000
b11001 !
1=
0$
0+
#8200000
b11011 !
b11010 !
0=
1<
1$
1+
1-
#8220000
b11011 !
1=
0$
0+
#8240000
b11111 !
b11101 !
b11100 !
0=
0<
1;
1$
1+
0-
#8260000
b11101 !
1=
0$
0+
#8280000
b11111 !
b11110 !
0=
1<
1$
1+
#8300000
b11111 !
1=
0$
0+
#8320000
b111111 !
b101111 !
b100111 !
b100011 !
b100001 !
b100000 !
0=
0<
0;
0:
09
18
1$
1+
1,
0.
#8340000
b100001 !
1=
0$
0+
#8360000
b100011 !
b100010 !
0=
1<
1$
1+
1-
#8380000
b100011 !
1=
0$
0+
#8400000
b100111 !
b100101 !
b100100 !
0=
0<
1;
1$
1+
0-
#8420000
b100101 !
1=
0$
0+
#8440000
b100111 !
b100110 !
0=
1<
1$
1+
#8460000
b100111 !
1=
0$
0+
#8480000
b101111 !
b101011 !
b101001 !
b101000 !
0=
0<
0;
1:
1$
1+
0,
#8500000
b101001 !
1=
0$
0+
#8520000
b101011 !
b101010 !
0=
1<
1$
1+
1-
#8540000
b101011 !
1=
0$
0+
#8560000
b101111 !
b101101 !
b101100 !
0=
0<
1;
1$
1+
0-
#8580000
b101101 !
1=
0$
0+
#8600000
b101111 !
b101110 !
0=
1<
1$
1+
#8620000
b101111 !
1=
0$
0+
#8640000
b111111 !
b110111 !
b110011 !
b110001 !
b110000 !
0=
0<
0;
0:
19
1$
1+
#8660000
b110001 !
1=
0$
0+
#8680000
b110011 !
b110010 !
0=
1<
1$
1+
1-
#8700000
b110011 !
1=
0$
0+
#8720000
b110111 !
b110101 !
b110100 !
0=
0<
1;
1$
1+
0-
#8740000
b110101 !
1=
0$
0+
#8760000
b110111 !
b110110 !
0=
1<
1$
1+
#8780000
b110111 !
1=
0$
0+
#8800000
b111111 !
b111011 !
b111001 !
b111000 !
0=
0<
0;
1:
1$
1+
#8820000
b111001 !
1=
0$
0+
#8840000
b111011 !
b111010 !
0=
1<
1$
1+
1-
#8860000
b111011 !
1=
0$
0+
#8880000
b111111 !
b111101 !
b111100 !
0=
0<
1;
1$
1+
0-
#8900000
b111101 !
1=
0$
0+
#8920000
b111111 !
b111110 !
0=
1<
1$
1+
#8940000
b111111 !
1=
0$
0+
#8960000
b1111111 !
b1011111 !
b1001111 !
b1000111 !
b1000011 !
b1000001 !
b1000000 !
0=
0<
0;
0:
09
08
17
1$
1+
1,
#8980000
b1000001 !
1=
0$
0+
#9000000
b1000011 !
b1000010 !
0=
1<
1$
1+
1-
#9020000
b1000011 !
1=
0$
0+
#9040000
b1000111 !
b1000101 !
b1000100 !
0=
0<
1;
1$
1+
0-
#9060000
b1000101 !
1=
0$
0+
#9080000
b1000111 !
b1000110 !
0=
1<
1$
1+
#9100000
b1000111 !
1=
0$
0+
#9120000
b1001111 !
b1001011 !
b1001001 !
b1001000 !
0=
0<
0;
1:
1$
1+
0,
#9140000
b1001001 !
1=
0$
0+
#9160000
b1001011 !
b1001010 !
0=
1<
1$
1+
1-
#9180000
b1001011 !
1=
0$
0+
#9200000
b1001111 !
b1001101 !
b1001100 !
0=
0<
1;
1$
1+
0-
#9220000
b1001101 !
1=
0$
0+
#9240000
b1001111 !
b1001110 !
0=
1<
1$
1+
#9260000
b1001111 !
1=
0$
0+
#9280000
b1011111 !
b1010111 !
b1010011 !
b1010001 !
b1010000 !
0=
0<
0;
0:
19
1$
1+
#9300000
b1010001 !
1=
0$
0+
