Lab 1/simulation/qsim/g21_lab1.msim.vcd
$comment
	File created using the following command:
		vcd file g21_lab1.msim.vcd -direction
$end
$date
	Fri Sep 22 14:09:12 2017
$end
$version
	ModelSim Version 10.1d
$end
$timescale
	1ps
$end
$scope module g21_lab1_vlg_vec_tst $end
$var reg 7 ! A [6:0] $end
$var reg 7 " B [6:0] $end
$var wire 1 # AeqB $end
$var wire 1 $ sampler $end
$scope module i1 $end
$var wire 1 % gnd $end
$var wire 1 & vcc $end
$var wire 1 ' unknown $end
$var tri1 1 ( devclrn $end
$var tri1 1 ) devpor $end
$var tri1 1 * devoe $end
$var wire 1 + inst|inst6~combout $end
$var wire 1 , inst|inst9~1_combout $end
$var wire 1 - inst|inst9~2_combout $end
$var wire 1 . inst|inst9~0_combout $end
$var wire 1 / inst|inst9~3_combout $end
$var wire 1 0 B~combout [6] $end
$var wire 1 1 B~combout [5] $end
$var wire 1 2 B~combout [4] $end
$var wire 1 3 B~combout [3] $end
$var wire 1 4 B~combout [2] $end
$var wire 1 5 B~combout [1] $end
$var wire 1 6 B~combout [0] $end
$var wire 1 7 A~combout [6] $end
$var wire 1 8 A~combout [5] $end
$var wire 1 9 A~combout [4] $end
$var wire 1 : A~combout [3] $end
$var wire 1 ; A~combout [2] $end
$var wire 1 < A~combout [1] $end
$var wire 1 = A~combout [0] $end
$upscope $end
$upscope $end
$enddefinitions $end
#0
$dumpvars
b0 !
b0 "
1#
x$
0%
1&
x'
1(
1)
1*
0+
1,
1-
1.
1/
06
05
04
03
02
01
00
0=
0<
0;
0:
09
08
07
$end
#10000
b1 !
1=
0$
1+
0/
0#
#20000
b11 !
b10 !
0=
1<
1$
0+
0-
#30000
b11 !
1=
0$
1+
#40000
b111 !
b101 !
b100 !
0=
0<
1;
1$
0+
#50000
b101 !
1=
0$
1+
#60000
b111 !
b110 !
0=
1<
1$
0+
#70000
b111 !
1=
0$
1+
#80000
b1111 !
b1011 !
b1001 !
b1000 !
0=
0<
0;
1:
1$
0+
1-
0,
#90000
b1001 !
1=
0$
1+
#100000
b1011 !
b1010 !
0=
1<
1$
0+
0-
#110000
b1011 !
1=
0$
1+
#120000
b1111 !
b1101 !
b1100 !
0=
0<
1;
1$
0+
#130000
b1101 !
1=
0$
1+
#140000
b1111 !
b1110 !
0=
1<
1$
0+
#150000
b1111 !
1=
0$
1+
#160000
b11111 !
b10111 !
b10011 !
b10001 !
b10000 !
0=
0<
0;
0:
19
1$
0+
1-
#170000
b10001 !
1=
0$
1+
#180000
b10011 !
b10010 !
0=
1<
1$
0+
0-
#190000
b10011 !
1=
0$
1+
#200000
b10111 !
b10101 !
b10100 !
0=
0<
1;
1$
0+
#210000
b10101 !
1=
0$
1+
#220000
b10111 !
b10110 !
0=
1<
1$
0+
#230000
b10111 !
1=
0$
1+
#240000
b11111 !
b11011 !
b11001 !
b11000 !
0=
0<
0;
1:
1$
0+
1-
#250000
b11001 !
1=
0$
1+
#260000
b11011 !
b11010 !
0=
1<
1$
0+
0-
#270000
b11011 !
1=
0$
1+
#280000
b11111 !
b11101 !
b11100 !
0=
0<
1;
1$
0+
#290000
b11101 !
1=
0$
1+
#300000
b11111 !
b11110 !
0=
1<
1$
0+
#310000
b11111 !
1=
0$
1+
#320000
b111111 !
b101111 !
b100111 !
b100011 !
b100001 !
b100000 !
0=
0<
0;
0:
09
18
1$
0+
1-
1,
0.
#330000
b100001 !
1=
0$
1+
#340000
b100011 !
b100010 !
0=
1<
1$
0+
0-
#350000
b100011 !
1=
0$
1+
#360000
b100111 !
b100101 !
b100100 !
0=
0<
1;
1$
0+
#370000
b100101 !
1=
0$
1+
#380000
b100111 !
b100110 !
0=
1<
1$
0+
#390000
b100111 !
1=
0$
1+
#400000
b101111 !
b101011 !
b101001 !
b101000 !
0=
0<
0;
1:
1$
0+
1-
0,
#410000
b101001 !
1=
0$
1+
#420000
b101011 !
b101010 !
0=
1<
1$
0+
0-
#430000
b101011 !
1=
0$
1+
#440000
b101111 !
b101101 !
b101100 !
0=
0<
1;
1$
0+
#450000
b101101 !
1=
0$
1+
#460000
b101111 !
b101110 !
0=
1<
1$
0+
#470000
b101111 !
1=
0$
1+
#480000
b111111 !
b110111 !
b110011 !
b110001 !
b110000 !
0=
0<
0;
0:
19
1$
0+
1-
#490000
b110001 !
1=
0$
1+
#500000
b110011 !
b110010 !
0=
1<
1$
0+
0-
#510000
b110011 !
1=
0$
1+
#520000
b110111 !
b110101 !
b110100 !
0=
0<
1;
1$
0+
#530000
b110101 !
1=
0$
1+
#540000
b110111 !
b110110 !
0=
1<
1$
0+
#550000
b110111 !
1=
0$
1+
#560000
b111111 !
b111011 !
b111001 !
b111000 !
0=
0<
0;
1:
1$
0+
1-
#570000
b111001 !
1=
0$
1+
#580000
b111011 !
b111010 !
0=
1<
1$
0+
0-
#590000
b111011 !
1=
0$
1+
#600000
b111111 !
b111101 !
b111100 !
0=
0<
1;
1$
0+
#610000
b111101 !
1=
0$
1+
#620000
b111111 !
b111110 !
0=
1<
1$
0+
#630000
b111111 !
1=
0$
1+
#640000
b1111111 !
b1011111 !
b1001111 !
b1000111 !
b1000011 !
b1000001 !
b1000000 !
0=
0<
0;
0:
09
08
17
1$
0+
1-
1,
#650000
b1000001 !
1=
0$
1+
#660000
b1000011 !
b1000010 !
0=
1<
1$
0+
0-
#670000
b1000011 !
1=
0$
1+
#680000
b1000111 !
b1000101 !
b1000100 !
0=
0<
1;
1$
0+
#690000
b1000101 !
1=
0$
1+
#700000
b1000111 !
b1000110 !
0=
1<
1$
0+
#710000
b1000111 !
1=
0$
1+
#720000
b1001111 !
b1001011 !
b1001001 !
b1001000 !
0=
0<
0;
1:
1$
0+
1-
0,
#730000
b1001001 !
1=
0$
1+
#740000
b1001011 !
b1001010 !
0=
1<
1$
0+
0-
#750000
b1001011 !
1=
0$
1+
#760000
b1001111 !
b1001101 !
b1001100 !
0=
0<
1;
1$
0+
#770000
b1001101 !
1=
0$
1+
#780000
b1001111 !
b1001110 !
0=
1<
1$
0+
#790000
b1001111 !
1=
0$
1+
#800000
b1011111 !
b1010111 !
b1010011 !
b1010001 !
b1010000 !
0=
0<
0;
0:
19
1$
0+
1-
#810000
b1010001 !
1=
0$
1+
#820000
b1010011 !
b1010010 !
0=
1<
1$
0+
0-
#830000
b1010011 !
1=
0$
1+
#840000
b1010111 !
b1010101 !
b1010100 !
0=
0<
1;
1$
0+
#850000
b1010101 !
1=
0$
1+
#860000
b1010111 !
b1010110 !
0=
1<
1$
0+
#870000
b1010111 !
1=
0$
1+
#880000
b1011111 !
b1011011 !
b1011001 !
b1011000 !
0=
0<
0;
1:
1$
0+
1-
#890000
b1011001 !
1=
0$
1+
#900000
b1011011 !
b1011010 !
0=
1<
1$
0+
0-
#910000
b1011011 !
1=
0$
1+
#920000
b1011111 !
b1011101 !
b1011100 !
0=
0<
1;
1$
0+
#930000
b1011101 !
1=
0$
1+
#940000
b1011111 !
b1011110 !
0=
1<
1$
0+
#950000
b1011111 !
1=
0$
1+
#960000
b1111111 !
b1101111 !
b1100111 !
b1100011 !
b1100001 !
b1100000 !
0=
0<
0;
0:
09
18
1$
0+
1-
1,
#970000
b1100001 !
1=
0$
1+
#980000
b1100011 !
b1100010 !
0=
1<
1$
0+
0-
#990000
b1100011 !
1=
0$
1+
#1000000
b1100111 !
b1100101 !
b1100100 !
0=
0<
1;
1$
0+
#1010000
b1100101 !
1=
0$
1+
#1020000
b1100111 !
b1100110 !
0=
1<
1$
0+
#1030000
b1100111 !
1=
0$
1+
#1040000
b1101111 !
b1101011 !
b1101001 !
b1101000 !
0=
0<
0;
1:
1$
0+
1-
0,
#1050000
b1101001 !
1=
0$
1+
#1060000
b1101011 !
b1101010 !
0=
1<
1$
0+
0-
#1070000
b1101011 !
1=
0$
1+
#1080000
b1101111 !
b1101101 !
b1101100 !
0=
0<
1;
1$
0+
#1090000
b1101101 !
1=
0$
1+
#1100000
b1101111 !
b1101110 !
0=
1<
1$
0+
#1110000
b1101111 !
1=
0$
1+
#1120000
b1111111 !
b1110111 !
b1110011 !
b1110001 !
b1110000 !
0=
0<
0;
0:
19
1$
0+
1-
#1130000
b1110001 !
1=
0$
1+
#1140000
b1110011 !
b1110010 !
0=
1<
1$
0+
0-
#1150000
b1110011 !
1=
0$
1+
#1160000
b1110111 !
b1110101 !
b1110100 !
0=
0<
1;
1$
0+
#1170000
b1110101 !
1=
0$
1+
#1180000
b1110111 !
b1110110 !
0=
1<
1$
0+
#1190000
b1110111 !
1=
0$
1+
#1200000
b1111111 !
b1111011 !
b1111001 !
b1111000 !
0=
0<
0;
1:
1$
0+
1-
#1210000
b1111001 !
1=
0$
1+
#1220000
b1111011 !
b1111010 !
0=
1<
1$
0+
0-
#1230000
b1111011 !
1=
0$
1+
#1240000
b1111111 !
b1111101 !
b1111100 !
0=
0<
1;
1$
0+
#1250000
b1111101 !
1=
0$
1+
#1260000
b1111111 !
b1111110 !
0=
1<
1$
0+
#1270000
b1111111 !
1=
0$
1+
#1280000
b1 "
b111111 !
b11111 !
b1111 !
b111 !
b11 !
b1 !
b0 !
0=
0<
0;
0:
09
08
07
16
1$
1-
1,
1.
#1290000
b1 !
1=
0$
0+
1/
1#
#1300000
b11 !
b10 !
0=
1<
1$
1+
0-
0/
0#
#1310000
b11 !
1=
0$
0+
#1320000
b111 !
b101 !
b100 !
0=
0<
1;
1$
1+
#1330000
b101 !
1=
0$
0+
#1340000
b111 !
b110 !
0=
1<
1$
1+
#1350000
b111 !
1=
0$
0+
#1360000
b1111 !
b1011 !
b1001 !
b1000 !
0=
0<
0;
1:
1$
1+
1-
0,
#1370000
b1001 !
1=
0$
0+
#1380000
b1011 !
b1010 !
0=
1<
1$
1+
0-
#1390000
b1011 !
1=
0$
0+
#1400000
b1111 !
b1101 !
b1100 !
0=
0<
1;
1$
1+
#1410000
b1101 !
1=
0$
0+
#1420000
b1111 !
b1110 !
0=
1<
1$
1+
#1430000
b1111 !
1=
0$
0+
#1440000
b11111 !
b10111 !
b10011 !
b10001 !
b10000 !
0=
0<
0;
0:
19
1$
1+
1-
#1450000
b10001 !
1=
0$
0+
#1460000
b10011 !
b10010 !
0=
1<
1$
1+
0-
#1470000
b10011 !
1=
0$
0+
#1480000
b10111 !
b10101 !
b10100 !
0=
0<
1;
1$
1+
#1490000
b10101 !
1=
0$
0+
#1500000
b10111 !
b10110 !
0=
1<
1$
1+
#1510000
b10111 !
1=
0$
0+
#1520000
b11111 !
b11011 !
b11001 !
b11000 !
0=
0<
0;
1:
1$
1+
1-
#1530000
b11001 !
1=
0$
0+
#1540000
b11011 !
b11010 !
0=
1<
1$
1+
0-
#1550000
b11011 !
1=
0$
0+
#1560000
b11111 !
b11101 !
b11100 !
0=
0<
1;
1$
1+
#1570000
b11101 !
1=
0$
0+
#1580000
b11111 !
b11110 !
0=
1<
1$
1+
#1590000
b11111 !
1=
0$
0+
#1600000
b111111 !
b101111 !
b100111 !
b100011 !
b100001 !
b100000 !
0=
0<
0;
0:
09
18
1$
1+
1-
1,
0.
#1610000
b100001 !
1=
0$
0+
#1620000
b100011 !
b100010 !
0=
1<
1$
1+
0-
#1630000
b100011 !
1=
0$
0+
#1640000
b100111 !
b100101 !
b100100 !
0=
0<
1;
1$
1+
#1650000
b100101 !
1=
0$
0+
#1660000
b100111 !
b100110 !
0=
1<
1$
1+
#1670000
b100111 !
1=
0$
0+
#1680000
b101111 !
b101011 !
b101001 !
b101000 !
0=
0<
0;
1:
1$
1+
1-
0,
#1690000
b101001 !
1=
0$
0+
#1700000
b101011 !
b101010 !
0=
1<
1$
1+
0-
#1710000
b101011 !
1=
0$
0+
#1720000
b101111 !
b101101 !
b101100 !
0=
0<
1;
1$
1+
#1730000
b101101 !
1=
0$
0+
#1740000
b101111 !
b101110 !
0=
1<
1$
1+
#1750000
b101111 !
1=
0$
0+
#1760000
b111111 !
b110111 !
b110011 !
b110001 !
b110000 !
0=
0<
0;
0:
19
1$
1+
1-
#1770000
b110001 !
1=
0$
0+
#1780000
b110011 !
b110010 !
0=
1<
1$
1+
0-
#1790000
b110011 !
1=
0$
0+
#1800000
b110111 !
b110101 !
b110100 !
0=
0<
1;
1$
1+
#1810000
b110101 !
1=
0$
0+
#1820000
b110111 !
b110110 !
0=
1<
1$
1+
#1830000
b110111 !
1=
0$
0+
#1840000
b111111 !
b111011 !
b111001 !
b111000 !
0=
0<
0;
1:
1$
1+
1-
#1850000
b111001 !
1=
0$
0+
#1860000
b111011 !
b111010 !
0=
1<
1$
1+
0-
#1870000
b111011 !
1=
0$
0+
#1880000
b111111 !
b111101 !
b111100 !
0=
0<
1;
1$
1+
#1890000
b111101 !
1=
0$
0+
#1900000
b111111 !
b111110 !
0=
1<
1$
1+
#1910000
b111111 !
1=
0$
0+
#1920000
b1111111 !
b1011111 !
b1001111 !
b1000111 !
b1000011 !
b1000001 !
b1000000 !
0=
0<
0;
0:
09
08
17
1$
1+
1-
1,
#1930000
b1000001 !
1=
0$
0+
#1940000
b1000011 !
b1000010 !
0=
1<
1$
1+
0-
#1950000
b1000011 !
1=
0$
0+
#1960000
b1000111 !
b1000101 !
b1000100 !
0=
0<
1;
1$
1+
#1970000
b1000101 !
1=
0$
0+
#1980000
b1000111 !
b1000110 !
0=
1<
1$
1+
#1990000
b1000111 !
1=
0$
0+
#2000000
b1001111 !
b1001011 !
b1001001 !
b1001000 !
0=
0<
0;
1:
1$
1+
1-
0,
#2010000
b1001001 !
1=
0$
0+
#2020000
b1001011 !
b1001010 !
0=
1<
1$
1+
0-
#2030000
b1001011 !
1=
0$
0+
#2040000
b1001111 !
b1001101 !
b1001100 !
0=
0<
1;
1$
1+
#2050000
b1001101 !
1=
0$
0+
#2060000
b1001111 !
b1001110 !
0=
1<
1$
1+
#2070000
b1001111 !
1=
0$
0+
#2080000
b1011111 !
b1010111 !
b1010011 !
b1010001 !
b1010000 !
0=
0<
0;
0:
19
1$
1+
1-
#2090000
b1010001 !
1=
0$
0+
#2100000
b1010011 !
b1010010 !
0=
1<
1$
1+
0-
#2110000
b1010011 !
1=
0$
0+
#2120000
b1010111 !
b1010101 !
b1010100 !
0=
0<
1;
1$
1+
#2130000
b1010101 !
1=
0$
0+
#2140000
b1010111 !
b1010110 !
0=
1<
1$
1+
#2150000
b1010111 !
1=
0$
0+
#2160000
b1011111 !
b1011011 !
b1011001 !
b1011000 !
0=
0<
0;
1:
1$
1+
1-
#2170000
b1011001 !
1=
0$
0+
#2180000
b1011011 !
b1011010 !
0=
1<
1$
1+
0-
#2190000
b1011011 !
1=
0$
0+
#2200000
b1011111 !
b1011101 !
b1011100 !
0=
0<
1;
1$
1+
#2210000
b1011101 !
1=
0$
0+
#2220000
b1011111 !
b1011110 !
0=
1<
1$
1+
#2230000
b1011111 !
1=
0$
0+
#2240000
b1111111 !
b1101111 !
b1100111 !
b1100011 !
b1100001 !
b1100000 !
0=
0<
0;
0:
09
18
1$
1+
1-
1,
#2250000
b1100001 !
1=
0$
0+
#2260000
b1100011 !
b1100010 !
0=
1<
1$
1+
0-
#2270000
b1100011 !
1=
0$
0+
#2280000
b1100111 !
b1100101 !
b1100100 !
0=
0<
1;
1$
1+
#2290000
b1100101 !
1=
0$
0+
#2300000
b1100111 !
b1100110 !
0=
1<
1$
1+
#2310000
b1100111 !
1=
0$
0+
#2320000
b1101111 !
b1101011 !
b1101001 !
b1101000 !
0=
0<
0;
1:
1$
1+
1-
0,
#2330000
b1101001 !
1=
0$
0+
#2340000
b1101011 !
b1101010 !
0=
1<
1$
1+
0-
#2350000
b1101011 !
1=
0$
0+
#2360000
b1101111 !
b1101101 !
b1101100 !
0=
0<
1;
1$
1+
#2370000
b1101101 !
1=
0$
0+
#2380000
b1101111 !
b1101110 !
0=
1<
1$
1+
#2390000
b1101111 !
1=
0$
0+
#2400000
b1111111 !
b1110111 !
b1110011 !
b1110001 !
b1110000 !
0=
0<
0;
0:
19
1$
1+
1-
#2410000
b1110001 !
1=
0$
0+
#2420000
b1110011 !
b1110010 !
0=
1<
1$
1+
0-
#2430000
b1110011 !
1=
0$
0+
#2440000
b1110111 !
b1110101 !
b1110100 !
0=
0<
1;
1$
1+
#2450000
b1110101 !
1=
0$
0+
#2460000
b1110111 !
b1110110 !
0=
1<
1$
1+
#2470000
b1110111 !
1=
0$
0+
#2480000
b1111111 !
b1111011 !
b1111001 !
b1111000 !
0=
0<
0;
1:
1$
1+
1-
#2490000
b1111001 !
1=
0$
0+
#2500000
b1111011 !
b1111010 !
0=
1<
1$
1+
0-
#2510000
b1111011 !
1=
0$
0+
#2520000
b1111111 !
b1111101 !
b1111100 !
0=
0<
1;
1$
1+
#2530000
b1111101 !
1=
0$
0+
#2540000
b1111111 !
b1111110 !
0=
1<
1$
1+
#2550000
b1111111 !
1=
0$
0+
#2560000
b11 "
b10 "
b111111 !
b11111 !
b1111 !
b111 !
b11 !
b1 !
b0 !
0=
0<
0;
0:
09
08
07
06
15
1$
1,
1.
#2570000
b1 !
1=
0$
1+
#2580000
b11 !
b10 !
0=
1<
1$
0+
1-
1/
1#
#2590000
b11 !
1=
0$
1+
0/
0#
#2600000
b111 !
b101 !
b100 !
0=
0<
1;
1$
0+
0-
#2610000
b101 !
1=
0$
1+
#2620000
b111 !
b110 !
0=
1<
1$
0+
#2630000
b111 !
1=
0$
1+
#2640000
b1111 !
b1011 !
b1001 !
b1000 !
0=
0<
0;
1:
1$
0+
0,
#2650000
b1001 !
1=
0$
1+
#2660000
b1011 !
b1010 !
0=
1<
1$
0+
1-
#2670000
b1011 !
1=
0$
1+
#2680000
b1111 !
b1101 !
b1100 !
0=
0<
1;
1$
0+
0-
#2690000
b1101 !
1=
0$
1+
#2700000
b1111 !
b1110 !
0=
1<
1$
0+
#2710000
b1111 !
1=
0$
1+
#2720000
b11111 !
b10111 !
b10011 !
b10001 !
b10000 !
0=
0<
0;
0:
19
1$
0+
#2730000
b10001 !
1=
0$
1+
#2740000
b10011 !
b10010 !
0=
1<
1$
0+
1-
#2750000
b10011 !
1=
0$
1+
#2760000
b10111 !
b10101 !
b10100 !
0=
0<
1;
1$
0+
0-
#2770000
b10101 !
1=
0$
1+
#2780000
b10111 !
b10110 !
0=
1<
1$
0+
#2790000
b10111 !
1=
0$
1+
#2800000
b11111 !
b11011 !
b11001 !
b11000 !
0=
0<
0;
1:
1$
0+
#2810000
b11001 !
1=
0$
1+
#2820000
b11011 !
b11010 !
0=
1<
1$
0+
1-
#2830000
b11011 !
1=
0$
1+
#2840000
b11111 !
b11101 !
b11100 !
0=
0<
1;
1$
0+
0-
#2850000
b11101 !
1=
0$
1+
#2860000
b11111 !
b11110 !
0=
1<
1$
0+
#2870000
b11111 !
1=
0$
1+
#2880000
b111111 !
b101111 !
b100111 !
b100011 !
b100001 !
b100000 !
0=
0<
0;
0:
09
18
1$
0+
1,
0.
#2890000
b100001 !
1=
0$
1+
#2900000
b100011 !
b100010 !
0=
1<
1$
0+
1-
#2910000
b100011 !
1=
0$
1+
#2920000
b100111 !
b100101 !
b100100 !
0=
0<
1;
1$
0+
0-
#2930000
b100101 !
1=
0$
1+
#2940000
b100111 !
b100110 !
0=
1<
1$
0+
#2950000
b100111 !
1=
0$
1+
#2960000
b101111 !
b101011 !
b101001 !
b101000 !
0=
0<
0;
1:
1$
0+
0,
#2970000
b101001 !
1=
0$
1+
#2980000
b101011 !
b101010 !
0=
1<
1$
0+
1-
#2990000
b101011 !
1=
0$
1+
#3000000
b101111 !
b101101 !
b101100 !
0=
0<
1;
1$
0+
0-
#3010000
b101101 !
1=
0$
1+
#3020000
b101111 !
b101110 !
0=
1<
1$
0+
#3030000
b101111 !
1=
0$
1+
#3040000
b111111 !
b110111 !
b110011 !
b110001 !
b110000 !
0=
0<
0;
0:
19
1$
0+
#3050000
b110001 !
1=
0$
1+
#3060000
b110011 !
b110010 !
0=
1<
1$
0+
1-
#3070000
b110011 !
1=
0$
1+
#3080000
b110111 !
b110101 !
b110100 !
0=
0<
1;
1$
0+
0-
#3090000
b110101 !
1=
0$
1+
#3100000
b110111 !
b110110 !
0=
1<
1$
0+
#3110000
b110111 !
1=
0$
1+
#3120000
b111111 !
b111011 !
b111001 !
b111000 !
0=
0<
0;
1:
1$
0+
#3130000
b111001 !
1=
0$
1+
#3140000
b111011 !
b111010 !
0=
1<
1$
0+
1-
#3150000
b111011 !
1=
0$
1+
#3160000
b111111 !
b111101 !
b111100 !
0=
0<
1;
1$
0+
0-
#3170000
b111101 !
1=
0$
1+
#3180000
b111111 !
b111110 !
0=
1<
1$
0+
#3190000
b111111 !
1=
0$
1+
#3200000
b1111111 !
b1011111 !
b1001111 !
b1000111 !
b1000011 !
b1000001 !
b1000000 !
0=
0<
0;
0:
09
08
17
1$
0+
1,
#3210000
b1000001 !
1=
0$
1+
#3220000
b1000011 !
b1000010 !
0=
1<
1$
0+
1-
#3230000
b1000011 !
1=
0$
1+
#3240000
b1000111 !
b1000101 !
b1000100 !
0=
0<
1;
1$
0+
0-
#3250000
b1000101 !
1=
0$
1+
#3260000
b1000111 !
b1000110 !
0=
1<
1$
0+
#3270000
b1000111 !
1=
0$
1+
#3280000
b1001111 !
b1001011 !
b1001001 !
b1001000 !
0=
0<
0;
1:
1$
0+
0,
#3290000
b1001001 !
1=
0$
1+
#3300000
b1001011 !
b1001010 !
0=
1<
1$
0+
1-
#3310000
b1001011 !
1=
0$
1+
#3320000
b1001111 !
b1001101 !
b1001100 !
0=
0<
1;
1$
0+
0-
#3330000
b1001101 !
1=
0$
1+
#3340000
b1001111 !
b1001110 !
0=
1<
1$
0+
#3350000
b1001111 !
1=
0$
1+
#3360000
b1011111 !
b1010111 !
b1010011 !
b1010001 !
b1010000 !
0=
0<
0;
0:
19
1$
0+
#3370000
b1010001 !
1=
0$
1+
#3380000
b1010011 !
b1010010 !
0=
1<
1$
0+
1-
#3390000
b1010011 !
1=
0$
1+
#3400000
b1010111 !
b1010101 !
b1010100 !
0=
0<
1;
1$
0+
0-
#3410000
b1010101 !
1=
0$
1+
#3420000
b1010111 !
b1010110 !
0=
1<
1$
0+
#3430000
b1010111 !
1=
0$
1+
#3440000
b1011111 !
b1011011 !
b1011001 !
b1011000 !
0=
0<
0;
1:
1$
0+
#3450000
b1011001 !
1=
0$
1+
#3460000
b1011011 !
b1011010 !
0=
1<
1$
0+
1-
#3470000
b1011011 !
1=
0$
1+
#3480000
b1011111 !
b1011101 !
b1011100 !
0=
0<
1;
1$
0+
0-
#3490000
b1011101 !
1=
0$
1+
#3500000
b1011111 !
b1011110 !
0=
1<
1$
0+
#3510000
b1011111 !
1=
0$
1+
#3520000
b1111111 !
b1101111 !
b1100111 !
b1100011 !
b1100001 !
b1100000 !
0=
0<
0;
0:
09
18
1$
0+
1,
#3530000
b1100001 !
1=
0$
1+
#3540000
b1100011 !
b1100010 !
0=
1<
1$
0+
1-
#3550000
b1100011 !
1=
0$
1+
#3560000
b1100111 !
b1100101 !
b1100100 !
0=
0<
1;
1$
0+
0-
#3570000
b1100101 !
1=
0$
1+
#3580000
b1100111 !
b1100110 !
0=
1<
1$
0+
#3590000
b1100111 !
1=
0$
1+
#3600000
b1101111 !
b1101011 !
b1101001 !
b1101000 !
0=
0<
0;
1:
1$
0+
0,
#3610000
b1101001 !
1=
0$
1+
#3620000
b1101011 !
b1101010 !
0=
1<
1$
0+
1-
#3630000
b1101011 !
1=
0$
1+
#3640000
b1101111 !
b1101101 !
b1101100 !
0=
0<
1;
1$
0+
0-
#3650000
b1101101 !
1=
0$
1+
#3660000
b1101111 !
b1101110 !
0=
1<
1$
0+
#3670000
b1101111 !
1=
0$
1+
#3680000
b1111111 !
b1110111 !
b1110011 !
b1110001 !
b1110000 !
0=
0<
0;
0:
19
1$
0+
#3690000
b1110001 !
1=
0$
1+
#3700000
b1110011 !
b1110010 !
0=
1<
1$
0+
1-
#3710000
b1110011 !
1=
0$
1+
#3720000
b1110111 !
b1110101 !
b1110100 !
0=
0<
1;
1$
0+
0-
#3730000
b1110101 !
1=
0$
1+
#3740000
b1110111 !
b1110110 !
0=
1<
1$
0+
#3750000
b1110111 !
1=
0$
1+
#3760000
b1111111 !
b1111011 !
b1111001 !
b1111000 !
0=
0<
0;
1:
1$
0+
#3770000
b1111001 !
1=
0$
1+
#3780000
b1111011 !
b1111010 !
0=
1<
1$
0+
1-
#3790000
b1111011 !
1=
0$
1+
#3800000
b1111111 !
b1111101 !
b1111100 !
0=
0<
1;
1$
0+
0-
#3810000
b1111101 !
1=
0$
1+
#3820000
b1111111 !
b1111110 !
0=
1<
1$
0+
#3830000
b1111111 !
1=
0$
1+
#3840000
b11 "
b111111 !
b11111 !
b1111 !
b111 !
b11 !
b1 !
b0 !
0=
0<
0;
0:
09
08
07
16
1$
1,
1.
#3850000
b1 !
1=
0$
0+
#3860000
b11 !
b10 !
0=
1<
1$
1+
1-
#3870000
b11 !
1=
0$
0+
1/
1#
#3880000
b111 !
b101 !
b100 !
0=
0<
1;
1$
1+
0-
0/
0#
#3890000
b101 !
1=
0$
0+
#3900000
b111 !
b110 !
0=
1<
1$
1+
#3910000
b111 !
1=
0$
0+
#3920000
b1111 !
b1011 !
b1001 !
b1000 !
0=
0<
0;
1:
1$
1+
0,
#3930000
b1001 !
1=
0$
0+
#3940000
b1011 !
b1010 !
0=
1<
1$
1+
1-
#3950000
b1011 !
1=
0$
0+
#3960000
b1111 !
b1101 !
b1100 !
0=
0<
1;
1$
1+
0-
#3970000
b1101 !
1=
0$
0+
#3980000
b1111 !
b1110 !
0=
1<
1$
1+
#3990000
b1111 !
1=
0$
0+
#4000000
b11111 !
b10111 !
b10011 !
b10001 !
b10000 !
0=
0<
0;
0:
19
1$
1+
#4010000
b10001 !
1=
0$
0+
#4020000
b10011 !
b10010 !
0=
1<
1$
1+
1-
#4030000
b10011 !
1=
0$
0+
#4040000
b10111 !
b10101 !
b10100 !
0=
0<
1;
1$
1+
0-
#4050000
b10101 !
1=
0$
0+
#4060000
b10111 !
b10110 !
0=
1<
1$
1+
#4070000
b10111 !
1=
0$
0+
#4080000
b11111 !
b11011 !
b11001 !
b11000 !
0=
0<
0;
1:
1$
1+
#4090000
b11001 !
1=
0$
0+
#4100000
b11011 !
b11010 !
0=
1<
1$
1+
1-
#4110000
b11011 !
1=
0$
0+
#4120000
b11111 !
b11101 !
b11100 !
0=
0<
1;
1$
1+
0-
#4130000
b11101 !
1=
0$
0+
#4140000
b11111 !
b11110 !
0=
1<
1$
1+
#4150000
b11111 !
1=
0$
0+
#4160000
b111111 !
b101111 !
b100111 !
b100011 !
b100001 !
b100000 !
0=
0<
0;
0:
09
18
1$
1+
1,
0.
#4170000
b100001 !
1=
0$
0+
#4180000
b100011 !
b100010 !
0=
1<
1$
1+
1-
#4190000
b100011 !
1=
0$
0+
#4200000
b100111 !
b100101 !
b100100 !
0=
0<
1;
1$
1+
0-
#4210000
b100101 !
1=
0$
0+
#4220000
b100111 !
b100110 !
0=
1<
1$
1+
#4230000
b100111 !
1=
0$
0+
#4240000
b101111 !
b101011 !
b101001 !
b101000 !
0=
0<
0;
1:
1$
1+
0,
#4250000
b101001 !
1=
0$
0+
#4260000
b101011 !
b101010 !
0=
1<
1$
1+
1-
#4270000
b101011 !
1=
0$
0+
#4280000
b101111 !
b101101 !
b101100 !
0=
0<
1;
1$
1+
0-
#4290000
b101101 !
1=
0$
0+
#4300000
b101111 !
b101110 !
0=
1<
1$
1+
#4310000
b101111 !
1=
0$
0+
#4320000
b111111 !
b110111 !
b110011 !
b110001 !
b110000 !
0=
0<
0;
0:
19
1$
1+
#4330000
b110001 !
1=
0$
0+
#4340000
b110011 !
b110010 !
0=
1<
1$
1+
1-
#4350000
b110011 !
1=
0$
0+
#4360000
b110111 !
b110101 !
b110100 !
0=
0<
1;
1$
1+
0-
#4370000
b110101 !
1=
0$
0+
#4380000
b110111 !
b110110 !
0=
1<
1$
1+
#4390000
b110111 !
1=
0$
0+
#4400000
b111111 !
b111011 !
b111001 !
b111000 !
0=
0<
0;
1:
1$
1+
#4410000
b111001 !
1=
0$
0+
#4420000
b111011 !
b111010 !
0=
1<
1$
1+
1-
#4430000
b111011 !
1=
0$
0+
#4440000
b111111 !
b111101 !
b111100 !
0=
0<
1;
1$
1+
0-
#4450000
b111101 !
1=
0$
0+
#4460000
b111111 !
b111110 !
0=
1<
1$
1+
#4470000
b111111 !
1=
0$
0+
#4480000
b1111111 !
b1011111 !
b1001111 !
b1000111 !
b1000011 !
b1000001 !
b1000000 !
0=
0<
0;
0:
09
08
17
1$
1+
1,
#4490000
b1000001 !
1=
0$
0+
#4500000
b1000011 !
b1000010 !
0=
1<
1$
1+
1-
#4510000
b1000011 !
1=
0$
0+
#4520000
b1000111 !
b1000101 !
b1000100 !
0=
0<
1;
1$
1+
0-
#4530000
b1000101 !
1=
0$
0+
#4540000
b1000111 !
b1000110 !
0=
1<
1$
1+
#4550000
b1000111 !
1=
0$
0+
#4560000
b1001111 !
b1001011 !
b1001001 !
b1001000 !
0=
0<
0;
1:
1$
1+
0,
#4570000
b1001001 !
1=
0$
0+
#4580000
b1001011 !
b1001010 !
0=
1<
1$
1+
1-
#4590000
b1001011 !
1=
0$
0+
#4600000
b1001111 !
b1001101 !
b1001100 !
0=
0<
1;
1$
1+
0-
#4610000
b1001101 !
1=
0$
0+
#4620000
b1001111 !
b1001110 !
0=
1<
1$
1+
#4630000
b1001111 !
1=
0$
0+
#4640000
b1011111 !
b1010111 !
b1010011 !
b1010001 !
b1010000 !
0=
0<
0;
0:
19
1$
1+
#4650000
b1010001 !
1=
0$
0+
#4660000
b1010011 !
b1010010 !
0=
1<
1$
1+
1-
#4670000
b1010011 !
1=
0$
0+
