Lab 3/simulation/qsim/g21_lab3.msim.vcd
$comment
	File created using the following command:
		vcd file g21_lab3.msim.vcd -direction
$end
$date
	Sat Oct 28 15:47:19 2017
$end
$version
	ModelSim Version 10.1d
$end
$timescale
	1ps
$end
$scope module g21_SPG_vlg_vec_tst $end
$var reg 1 ! CLK $end
$var reg 1 " SwitchEnable $end
$var wire 1 # SPG_ENABLE $end
$var wire 1 $ sampler $end
$scope module i1 $end
$var wire 1 % gnd $end
$var wire 1 & vcc $end
$var wire 1 ' unknown $end
$var tri1 1 ( devclrn $end
$var tri1 1 ) devpor $end
$var tri1 1 * devoe $end
$var wire 1 + inst2|LPM_COUNTER_component|auto_generated|counter_comb_bita0~combout $end
$var wire 1 , inst2|LPM_COUNTER_component|auto_generated|counter_comb_bita2~combout $end
$var wire 1 - inst2|LPM_COUNTER_component|auto_generated|counter_comb_bita4~combout $end
$var wire 1 . inst2|LPM_COUNTER_component|auto_generated|counter_comb_bita6~combout $end
$var wire 1 / inst2|LPM_COUNTER_component|auto_generated|counter_comb_bita11~combout $end
$var wire 1 0 inst2|LPM_COUNTER_component|auto_generated|safe_q[11]~feeder_combout $end
$var wire 1 1 CLK~combout $end
$var wire 1 2 CLK~clkctrl_outclk $end
$var wire 1 3 SwitchEnable~combout $end
$var wire 1 4 inst~0_combout $end
$var wire 1 5 inst2|LPM_COUNTER_component|auto_generated|counter_comb_bita0~COUT $end
$var wire 1 6 inst2|LPM_COUNTER_component|auto_generated|counter_comb_bita1~combout $end
$var wire 1 7 ~GND~combout $end
$var wire 1 8 inst3|LPM_COMPARE_component|auto_generated|ageb~1_combout $end
$var wire 1 9 inst2|LPM_COUNTER_component|auto_generated|counter_comb_bita13~combout $end
$var wire 1 : inst3|LPM_COMPARE_component|auto_generated|ageb~2_combout $end
$var wire 1 ; inst2|LPM_COUNTER_component|auto_generated|counter_comb_bita18~COUT $end
$var wire 1 < inst2|LPM_COUNTER_component|auto_generated|counter_comb_bita19~combout $end
$var wire 1 = inst2|LPM_COUNTER_component|auto_generated|counter_comb_bita19~COUT $end
$var wire 1 > inst2|LPM_COUNTER_component|auto_generated|counter_comb_bita20~combout $end
$var wire 1 ? inst2|LPM_COUNTER_component|auto_generated|counter_comb_bita15~combout $end
$var wire 1 @ inst3|LPM_COMPARE_component|auto_generated|ageb~0_combout $end
$var wire 1 A inst3|LPM_COMPARE_component|auto_generated|ageb~3_combout $end
$var wire 1 B inst2|LPM_COUNTER_component|auto_generated|_~0_combout $end
$var wire 1 C inst2|LPM_COUNTER_component|auto_generated|counter_comb_bita1~COUT $end
$var wire 1 D inst2|LPM_COUNTER_component|auto_generated|counter_comb_bita2~COUT $end
$var wire 1 E inst2|LPM_COUNTER_component|auto_generated|counter_comb_bita3~combout $end
$var wire 1 F inst2|LPM_COUNTER_component|auto_generated|counter_comb_bita3~COUT $end
$var wire 1 G inst2|LPM_COUNTER_component|auto_generated|counter_comb_bita4~COUT $end
$var wire 1 H inst2|LPM_COUNTER_component|auto_generated|counter_comb_bita5~combout $end
$var wire 1 I inst2|LPM_COUNTER_component|auto_generated|counter_comb_bita5~COUT $end
$var wire 1 J inst2|LPM_COUNTER_component|auto_generated|counter_comb_bita6~COUT $end
$var wire 1 K inst2|LPM_COUNTER_component|auto_generated|counter_comb_bita7~combout $end
$var wire 1 L inst2|LPM_COUNTER_component|auto_generated|counter_comb_bita7~COUT $end
$var wire 1 M inst2|LPM_COUNTER_component|auto_generated|counter_comb_bita8~combout $end
$var wire 1 N inst2|LPM_COUNTER_component|auto_generated|counter_comb_bita8~COUT $end
$var wire 1 O inst2|LPM_COUNTER_component|auto_generated|counter_comb_bita9~combout $end
$var wire 1 P inst2|LPM_COUNTER_component|auto_generated|counter_comb_bita9~COUT $end
$var wire 1 Q inst2|LPM_COUNTER_component|auto_generated|counter_comb_bita10~combout $end
$var wire 1 R inst2|LPM_COUNTER_component|auto_generated|safe_q[10]~feeder_combout $end
$var wire 1 S inst2|LPM_COUNTER_component|auto_generated|counter_comb_bita10~COUT $end
$var wire 1 T inst2|LPM_COUNTER_component|auto_generated|counter_comb_bita11~COUT $end
$var wire 1 U inst2|LPM_COUNTER_component|auto_generated|counter_comb_bita12~combout $end
$var wire 1 V inst2|LPM_COUNTER_component|auto_generated|counter_comb_bita12~COUT $end
$var wire 1 W inst2|LPM_COUNTER_component|auto_generated|counter_comb_bita13~COUT $end
$var wire 1 X inst2|LPM_COUNTER_component|auto_generated|counter_comb_bita14~combout $end
$var wire 1 Y inst2|LPM_COUNTER_component|auto_generated|counter_comb_bita14~COUT $end
$var wire 1 Z inst2|LPM_COUNTER_component|auto_generated|counter_comb_bita15~COUT $end
$var wire 1 [ inst2|LPM_COUNTER_component|auto_generated|counter_comb_bita16~combout $end
$var wire 1 \ inst2|LPM_COUNTER_component|auto_generated|counter_comb_bita16~COUT $end
$var wire 1 ] inst2|LPM_COUNTER_component|auto_generated|counter_comb_bita17~combout $end
$var wire 1 ^ inst2|LPM_COUNTER_component|auto_generated|counter_comb_bita17~COUT $end
$var wire 1 _ inst2|LPM_COUNTER_component|auto_generated|counter_comb_bita18~combout $end
$var wire 1 ` inst3|LPM_COMPARE_component|auto_generated|ageb~4_combout $end
$var wire 1 a inst~regout $end
$var wire 1 b inst2|LPM_COUNTER_component|auto_generated|safe_q [20] $end
$var wire 1 c inst2|LPM_COUNTER_component|auto_generated|safe_q [19] $end
$var wire 1 d inst2|LPM_COUNTER_component|auto_generated|safe_q [18] $end
$var wire 1 e inst2|LPM_COUNTER_component|auto_generated|safe_q [17] $end
$var wire 1 f inst2|LPM_COUNTER_component|auto_generated|safe_q [16] $end
$var wire 1 g inst2|LPM_COUNTER_component|auto_generated|safe_q [15] $end
$var wire 1 h inst2|LPM_COUNTER_component|auto_generated|safe_q [14] $end
$var wire 1 i inst2|LPM_COUNTER_component|auto_generated|safe_q [13] $end
$var wire 1 j inst2|LPM_COUNTER_component|auto_generated|safe_q [12] $end
$var wire 1 k inst2|LPM_COUNTER_component|auto_generated|safe_q [11] $end
$var wire 1 l inst2|LPM_COUNTER_component|auto_generated|safe_q [10] $end
$var wire 1 m inst2|LPM_COUNTER_component|auto_generated|safe_q [9] $end
$var wire 1 n inst2|LPM_COUNTER_component|auto_generated|safe_q [8] $end
$var wire 1 o inst2|LPM_COUNTER_component|auto_generated|safe_q [7] $end
$var wire 1 p inst2|LPM_COUNTER_component|auto_generated|safe_q [6] $end
$var wire 1 q inst2|LPM_COUNTER_component|auto_generated|safe_q [5] $end
$var wire 1 r inst2|LPM_COUNTER_component|auto_generated|safe_q [4] $end
$var wire 1 s inst2|LPM_COUNTER_component|auto_generated|safe_q [3] $end
$var wire 1 t inst2|LPM_COUNTER_component|auto_generated|safe_q [2] $end
$var wire 1 u inst2|LPM_COUNTER_component|auto_generated|safe_q [1] $end
$var wire 1 v inst2|LPM_COUNTER_component|auto_generated|safe_q [0] $end
$upscope $end
$upscope $end
$enddefinitions $end
#0
$dumpvars
0!
0"
x#
x$
0%
1&
x'
1(
1)
1*
x+
x,
x-
x.
x/
x0
01
x2
03
x4
x5
x6
07
x8
x9
x:
x;
x<
x=
x>
x?
x@
xA
xB
xC
xD
xE
xF
xG
xH
xI
xJ
xK
xL
xM
xN
xO
xP
xQ
xR
xS
xT
xU
xV
xW
xX
xY
xZ
x[
x\
x]
x^
x_
x`
xa
0v
0u
0t
0s
0r
0q
0p
0o
0n
0m
0l
0k
0j
0i
0h
0g
0f
0e
0d
0c
0b
$end
#238
02
#243
0a
#695
18
#854
1=
#855
1F
#856
1I
#859
1:
#867
0Y
0V
0N
1L
#883
1@
#895
0D
#896
0G
0J
#900
05
#903
0;
#910
1W
#911
1Z
#928
1+
#957
1C
#972
1P
#973
1^
#1082
0\
#1272
1B
1`
#1312
0>
#1313
0-
#1314
0.
#1325
0M
0O
09
0?
#1353
0E
#1354
0K
0H
#1357
1T
#1358
06
#1361
0<
#1368
0X
#1369
0[
#1415
0S
0,
#1430
0Q
#1431
0_
#1540
0]
#1815
0U
#1873
0/
#2039
1A
#2125
0R
#3162
00
#3691
0#
#5019
14
#10000
1!
0$
#11026
11
#11264
12
#13127
1v
#14027
15
#14055
0+
#14485
16
#20000
0!
1$
#21026
01
#21264
02
#30000
1!
0$
#31026
11
#31264
12
#33127
0v
1u
#34009
06
#34027
05
#34055
1+
#34485
16
#40000
1"
0!
1$
#40844
13
#41026
01
#41264
02
#45863
04
#50000
1!
0$
#51026
11
#51264
12
#53127
1v
#54027
15
#54055
0+
#54201
0C
#54485
06
#54659
1,
#60000
0!
1$
#61026
01
#61264
02
#70000
1!
0$
#71026
11
#71264
12
#73127
1t
0v
0u
#74009
16
#74022
1D
#74027
05
#74047
0,
#74055
1+
#74084
1C
#74164
0D
#74485
06
#74542
1,
#80000
0"
0!
1$
#80844
03
#81026
01
#81264
02
#85863
14
#90000
1!
0$
#91026
11
#91264
12
#93127
1v
#94027
15
#94055
0+
#94485
16
#100000
0!
1$
#101026
01
#101264
02
#110000
1!
0$
#111026
11
#111264
12
#113127
0v
1u
#114009
06
#114027
05
#114055
1+
#114485
16
#120000
1"
0!
1$
#120844
13
#121026
01
#121264
02
#125863
04
#130000
1!
0$
#131026
11
#131264
12
#133127
1v
#134027
15
#134055
0+
#134201
0C
#134281
1D
#134485
06
#134659
0,
#134739
1E
#140000
0!
1$
#141026
01
#141264
02
#150000
1!
0$
#151026
11
#151264
12
#153127
0t
0v
0u
1s
#153982
0F
#154008
0E
#154009
16
#154022
0D
#154027
05
#154047
1,
#154055
1+
#154084
1C
#154102
1F
#154480
1E
#154485
06
#154542
0,
#160000
0"
0!
1$
#160844
03
#161026
01
#161264
02
#165863
14
#170000
1!
0$
#171026
11
#171264
12
#173127
1v
#174027
15
#174055
0+
#174485
16
#180000
0!
1$
#181026
01
#181264
02
#190000
1!
0$
#191026
11
#191264
12
#193127
0v
1u
#194009
06
#194027
05
#194055
1+
#194485
16
#200000
1"
0!
1$
#200844
13
#201026
01
#201264
02
#205863
04
#210000
1!
0$
#211026
11
#211264
12
#213127
1v
#214027
15
#214055
0+
#214201
0C
#214485
06
#214659
1,
#220000
0!
1$
#221026
01
#221264
02
#230000
1!
0$
#231026
11
#231264
12
#233127
1t
0v
0u
#234009
16
#234022
1D
#234027
05
#234047
0,
#234055
1+
#234084
1C
#234102
0F
#234164
0D
#234244
1F
#234485
06
#234542
1,
#240000
0"
0!
1$
#240844
03
#241026
01
#241264
02
#245863
14
#250000
1!
0$
#251026
11
#251264
12
#253127
1v
#254027
15
#254055
0+
#254485
16
#260000
0!
1$
#261026
01
#261264
02
#270000
1!
0$
#271026
11
#271264
12
#273127
0v
1u
#274009
06
#274027
05
#274055
1+
#274485
16
#280000
1"
0!
1$
#280844
13
#281026
01
#281264
02
#285863
04
#290000
1!
0$
#291026
11
#291264
12
#293127
1v
#294027
15
#294055
0+
#294201
0C
#294281
1D
#294361
0F
#294485
06
#294659
0,
#294739
0E
#294819
1-
#300000
0!
1$
#301026
01
#301264
02
#310000
1!
0$
#311026
11
#311264
12
#313127
1r
0t
0v
0u
0s
#313982
1F
#314008
1E
#314009
16
#314022
0D
#314027
05
#314047
1,
#314055
1+
#314084
1C
#314480
0E
#314485
06
#314542
0,
#320000
0"
0!
1$
#320844
03
#321026
01
#321264
02
#325863
14
#330000
1!
0$
#331026
11
#331264
12
#333127
1v
#334027
15
#334055
0+
#334485
16
#340000
0!
1$
#341026
01
#341264
02
#350000
1!
0$
#351026
11
#351264
12
#353127
0v
1u
#354009
06
#354027
05
#354055
1+
#354485
16
#360000
1"
0!
1$
#360844
13
#361026
01
#361264
02
#365863
04
#370000
1!
0$
#371026
11
#371264
12
#373127
1v
#374027
15
#374055
0+
#374201
0C
#374485
06
#374659
1,
#380000
0!
1$
#381026
01
#381264
02
#390000
1!
0$
#391026
11
#391264
12
#393127
1t
0v
0u
#394009
16
#394022
1D
#394027
05
#394047
0,
#394055
1+
#394084
1C
#394164
0D
#394485
06
#394542
1,
#400000
0"
0!
1$
#400844
03
#401026
01
#401264
02
#405863
14
#410000
1!
0$
#411026
11
#411264
12
#413127
1v
#414027
15
#414055
0+
#414485
16
#420000
0!
1$
#421026
01
#421264
02
#430000
1!
0$
#431026
11
#431264
12
#433127
0v
1u
#434009
06
#434027
05
#434055
1+
#434485
16
#440000
1"
0!
1$
#440844
13
#441026
01
#441264
02
#445863
04
#450000
1!
0$
#451026
11
#451264
12
#453127
1v
#454027
15
#454055
0+
#454201
0C
#454281
1D
#454485
06
#454659
0,
#454739
1E
#460000
0!
1$
#461026
01
#461264
02
#470000
1!
0$
#471026
11
#471264
12
#473127
0t
0v
0u
1s
#473982
0F
#474008
0E
#474009
16
#474022
0D
#474027
05
#474047
1,
#474055
1+
#474062
1G
#474084
1C
#474102
1F
#474182
0G
#474480
1E
#474485
06
#474542
0,
#480000
0"
0!
1$
#480844
03
#481026
01
#481264
02
#485863
14
#490000
1!
0$
#491026
11
#491264
12
#493127
1v
#494027
15
#494055
0+
#494485
16
#500000
0!
1$
#501026
01
#501264
02
#510000
1!
0$
#511026
11
#511264
12
#513127
0v
1u
#514009
06
#514027
05
#514055
1+
#514485
16
#520000
1"
0!
1$
#520844
13
#521026
01
#521264
02
#525863
04
#530000
1!
0$
#531026
11
#531264
12
#533127
1v
#534027
15
#534055
0+
#534201
0C
#534485
06
#534659
1,
#540000
0!
1$
#541026
01
#541264
02
#550000
1!
0$
#551026
11
#551264
12
#553127
1t
0v
0u
#554009
16
#554022
1D
#554027
05
#554047
0,
#554055
1+
#554084
1C
#554102
0F
#554164
0D
#554182
1G
#554244
1F
#554324
0G
#554485
06
#554542
1,
#560000
0"
0!
1$
#560844
03
#561026
01
#561264
02
#565863
14
#570000
1!
0$
#571026
11
#571264
12
#573127
1v
#574027
15
#574055
0+
#574485
16
#580000
0!
1$
#581026
01
#581264
02
#590000
1!
0$
#591026
11
#591264
12
#593127
0v
1u
#594009
06
#594027
05
#594055
1+
#594485
16
#600000
1"
0!
1$
#600844
13
#601026
01
#601264
02
#605863
04
#610000
1!
0$
#611026
11
#611264
12
#613127
1v
#614027
15
#614055
0+
#614201
0C
#614281
1D
#614361
0F
#614441
1G
#614485
06
#614659
0,
#614739
0E
#614819
0-
#614899
1H
#620000
0!
1$
#621026
01
#621264
02
#630000
1!
0$
#631026
11
#631264
12
#633127
0r
0t
0v
0u
0s
1q
#633982
1F
#633983
0I
#634008
1E
#634009
0H
16
#634022
0D
#634023
0G
#634027
05
#634047
1,
#634055
1+
#634084
1C
#634103
1I
#634480
0E
#634481
1H
#634485
06
#634542
0,
#640000
0"
0!
1$
#640844
03
#641026
01
#641264
02
#645863
14
#650000
1!
0$
#651026
11
#651264
12
#653127
1v
#654027
15
#654055
0+
#654485
16
#660000
0!
1$
#661026
01
#661264
02
#670000
1!
0$
#671026
11
#671264
12
#673127
0v
1u
#674009
06
#674027
05
#674055
1+
#674485
16
#680000
1"
0!
1$
#680844
13
#681026
01
#681264
02
#685863
04
#690000
1!
0$
#691026
11
#691264
12
#693127
1v
#694027
15
#694055
0+
#694201
0C
#694485
06
#694659
1,
#700000
0!
1$
#701026
01
#701264
02
#710000
1!
0$
#711026
11
#711264
12
#713127
1t
0v
0u
#714009
16
#714022
1D
#714027
05
#714047
0,
#714055
1+
#714084
1C
#714164
0D
#714485
06
#714542
1,
#720000
0"
0!
1$
#720844
03
#721026
01
#721264
02
#725863
14
#730000
1!
0$
#731026
11
#731264
12
#733127
1v
#734027
15
#734055
0+
#734485
16
#740000
0!
1$
#741026
01
#741264
02
#750000
1!
0$
#751026
11
#751264
12
#753127
0v
1u
#754009
06
#754027
05
#754055
1+
#754485
16
#760000
1"
0!
1$
#760844
13
#761026
01
#761264
02
#765863
04
#770000
1!
0$
#771026
11
#771264
12
#773127
1v
#774027
15
#774055
0+
#774201
0C
#774281
1D
#774485
06
#774659
0,
#774739
1E
#780000
0!
1$
#781026
01
#781264
02
#790000
1!
0$
#791026
11
#791264
12
#793127
0t
0v
0u
1s
#793982
0F
#794008
0E
#794009
16
#794022
0D
#794027
05
#794047
1,
#794055
1+
#794084
1C
#794102
1F
#794480
1E
#794485
06
#794542
0,
#800000
0"
0!
1$
#800844
03
#801026
01
#801264
02
#805863
14
#810000
1!
0$
#811026
11
#811264
12
#813127
1v
#814027
15
#814055
0+
#814485
16
#820000
0!
1$
#821026
01
#821264
02
#830000
1!
0$
#831026
11
#831264
12
#833127
0v
1u
#834009
06
#834027
05
#834055
1+
#834485
16
#840000
1"
0!
1$
#840844
13
#841026
01
#841264
02
#845863
04
#850000
1!
0$
#851026
11
#851264
12
#853127
1v
#854027
15
#854055
0+
#854201
0C
#854485
06
#854659
1,
#860000
0!
1$
#861026
01
#861264
02
#870000
1!
0$
#871026
11
#871264
12
#873127
1t
0v
0u
#874009
16
#874022
1D
#874027
05
#874047
0,
#874055
1+
#874084
1C
#874102
0F
#874164
0D
#874244
1F
#874485
06
#874542
1,
#880000
0"
0!
1$
#880844
03
#881026
01
#881264
02
#885863
14
#890000
1!
0$
#891026
11
#891264
12
#893127
1v
#894027
15
#894055
0+
#894485
16
#900000
0!
1$
#901026
01
#901264
02
#910000
1!
0$
#911026
11
#911264
12
#913127
0v
1u
#914009
06
#914027
05
#914055
1+
#914485
16
#920000
1"
0!
1$
#920844
13
#921026
01
#921264
02
#925863
04
#930000
1!
0$
#931026
11
#931264
12
#933127
1v
#934027
15
#934055
0+
#934201
0C
#934281
1D
#934361
0F
#934485
06
#934659
0,
#934739
0E
#934819
1-
#940000
0!
1$
#941026
01
#941264
02
#950000
1!
0$
#951026
11
#951264
12
#953127
1r
0t
0v
0u
0s
#953982
1F
#954008
1E
#954009
16
#954022
0D
#954027
05
#954047
1,
#954055
1+
#954084
1C
#954480
0E
#954485
06
#954542
0,
#960000
0"
0!
1$
#960844
03
#961026
01
#961264
02
#965863
14
#970000
1!
0$
#971026
11
#971264
12
#973127
1v
#974027
15
#974055
0+
#974485
16
#980000
0!
1$
#981026
01
#981264
02
#990000
1!
0$
#991026
11
#991264
12
#993127
0v
1u
#994009
06
#994027
05
#994055
1+
#994485
16
