Lab 3/simulation/qsim/g21_lab3.msim.vcd
$comment
	File created using the following command:
		vcd file g21_lab3.msim.vcd -direction
$end
$date
	Sat Oct 28 16:31:17 2017
$end
$version
	ModelSim Version 10.1d
$end
$timescale
	1ps
$end
$scope module g21_SPG_vlg_vec_tst $end
$var reg 1 ! CLK $end
$var reg 1 " SwitchEnable $end
$var wire 1 # counter [20] $end
$var wire 1 $ counter [19] $end
$var wire 1 % counter [18] $end
$var wire 1 & counter [17] $end
$var wire 1 ' counter [16] $end
$var wire 1 ( counter [15] $end
$var wire 1 ) counter [14] $end
$var wire 1 * counter [13] $end
$var wire 1 + counter [12] $end
$var wire 1 , counter [11] $end
$var wire 1 - counter [10] $end
$var wire 1 . counter [9] $end
$var wire 1 / counter [8] $end
$var wire 1 0 counter [7] $end
$var wire 1 1 counter [6] $end
$var wire 1 2 counter [5] $end
$var wire 1 3 counter [4] $end
$var wire 1 4 counter [3] $end
$var wire 1 5 counter [2] $end
$var wire 1 6 counter [1] $end
$var wire 1 7 counter [0] $end
$var wire 1 8 SPG_ENABLE $end
$var wire 1 9 sampler $end
$scope module i1 $end
$var wire 1 : gnd $end
$var wire 1 ; vcc $end
$var wire 1 < unknown $end
$var tri1 1 = devclrn $end
$var tri1 1 > devpor $end
$var tri1 1 ? devoe $end
$var wire 1 @ inst6~1_combout $end
$var wire 1 A CLK~combout $end
$var wire 1 B SwitchEnable~combout $end
$var wire 1 C inst2|LPM_COUNTER_component|auto_generated|counter_comb_bita0~COUT $end
$var wire 1 D inst2|LPM_COUNTER_component|auto_generated|counter_comb_bita1~COUT $end
$var wire 1 E inst2|LPM_COUNTER_component|auto_generated|counter_comb_bita2~combout $end
$var wire 1 F ~GND~combout $end
$var wire 1 G inst2|LPM_COUNTER_component|auto_generated|_~0_combout $end
$var wire 1 H inst2|LPM_COUNTER_component|auto_generated|counter_comb_bita1~combout $end
$var wire 1 I inst2|LPM_COUNTER_component|auto_generated|counter_comb_bita0~combout $end
$var wire 1 J inst5|LPM_COMPARE_component|auto_generated|ageb~4_combout $end
$var wire 1 K inst2|LPM_COUNTER_component|auto_generated|counter_comb_bita2~COUT $end
$var wire 1 L inst2|LPM_COUNTER_component|auto_generated|counter_comb_bita3~COUT $end
$var wire 1 M inst2|LPM_COUNTER_component|auto_generated|counter_comb_bita4~COUT $end
$var wire 1 N inst2|LPM_COUNTER_component|auto_generated|counter_comb_bita5~COUT $end
$var wire 1 O inst2|LPM_COUNTER_component|auto_generated|counter_comb_bita6~combout $end
$var wire 1 P inst2|LPM_COUNTER_component|auto_generated|counter_comb_bita5~combout $end
$var wire 1 Q inst2|LPM_COUNTER_component|auto_generated|counter_comb_bita4~combout $end
$var wire 1 R inst5|LPM_COMPARE_component|auto_generated|ageb~3_combout $end
$var wire 1 S inst2|LPM_COUNTER_component|auto_generated|counter_comb_bita6~COUT $end
$var wire 1 T inst2|LPM_COUNTER_component|auto_generated|counter_comb_bita7~COUT $end
$var wire 1 U inst2|LPM_COUNTER_component|auto_generated|counter_comb_bita8~COUT $end
$var wire 1 V inst2|LPM_COUNTER_component|auto_generated|counter_comb_bita9~combout $end
$var wire 1 W inst2|LPM_COUNTER_component|auto_generated|counter_comb_bita8~combout $end
$var wire 1 X inst2|LPM_COUNTER_component|auto_generated|counter_comb_bita7~combout $end
$var wire 1 Y inst5|LPM_COMPARE_component|auto_generated|ageb~0_combout $end
$var wire 1 Z inst2|LPM_COUNTER_component|auto_generated|counter_comb_bita9~COUT $end
$var wire 1 [ inst2|LPM_COUNTER_component|auto_generated|counter_comb_bita10~COUT $end
$var wire 1 \ inst2|LPM_COUNTER_component|auto_generated|counter_comb_bita11~COUT $end
$var wire 1 ] inst2|LPM_COUNTER_component|auto_generated|counter_comb_bita12~COUT $end
$var wire 1 ^ inst2|LPM_COUNTER_component|auto_generated|counter_comb_bita13~COUT $end
$var wire 1 _ inst2|LPM_COUNTER_component|auto_generated|counter_comb_bita14~COUT $end
$var wire 1 ` inst2|LPM_COUNTER_component|auto_generated|counter_comb_bita15~COUT $end
$var wire 1 a inst2|LPM_COUNTER_component|auto_generated|counter_comb_bita16~COUT $end
$var wire 1 b inst2|LPM_COUNTER_component|auto_generated|counter_comb_bita17~COUT $end
$var wire 1 c inst2|LPM_COUNTER_component|auto_generated|counter_comb_bita18~combout $end
$var wire 1 d inst2|LPM_COUNTER_component|auto_generated|counter_comb_bita17~combout $end
$var wire 1 e inst2|LPM_COUNTER_component|auto_generated|counter_comb_bita15~combout $end
$var wire 1 f inst5|LPM_COMPARE_component|auto_generated|ageb~1_combout $end
$var wire 1 g inst2|LPM_COUNTER_component|auto_generated|counter_comb_bita14~combout $end
$var wire 1 h inst2|LPM_COUNTER_component|auto_generated|counter_comb_bita13~combout $end
$var wire 1 i inst2|LPM_COUNTER_component|auto_generated|counter_comb_bita12~combout $end
$var wire 1 j inst6~0_combout $end
$var wire 1 k inst5|LPM_COMPARE_component|auto_generated|ageb~2_combout $end
$var wire 1 l inst6~4_combout $end
$var wire 1 m inst2|LPM_COUNTER_component|auto_generated|counter_comb_bita10~combout $end
$var wire 1 n inst6~2_combout $end
$var wire 1 o inst2|LPM_COUNTER_component|auto_generated|counter_comb_bita11~combout $end
$var wire 1 p inst6~3_combout $end
$var wire 1 q inst6~5_combout $end
$var wire 1 r inst~regout $end
$var wire 1 s inst2|LPM_COUNTER_component|auto_generated|counter_comb_bita18~COUT $end
$var wire 1 t inst2|LPM_COUNTER_component|auto_generated|counter_comb_bita19~COUT $end
$var wire 1 u inst2|LPM_COUNTER_component|auto_generated|counter_comb_bita20~combout $end
$var wire 1 v inst2|LPM_COUNTER_component|auto_generated|counter_comb_bita19~combout $end
$var wire 1 w inst2|LPM_COUNTER_component|auto_generated|counter_comb_bita16~combout $end
$var wire 1 x inst2|LPM_COUNTER_component|auto_generated|counter_comb_bita3~combout $end
$var wire 1 y inst2|LPM_COUNTER_component|auto_generated|safe_q [20] $end
$var wire 1 z inst2|LPM_COUNTER_component|auto_generated|safe_q [19] $end
$var wire 1 { inst2|LPM_COUNTER_component|auto_generated|safe_q [18] $end
$var wire 1 | inst2|LPM_COUNTER_component|auto_generated|safe_q [17] $end
$var wire 1 } inst2|LPM_COUNTER_component|auto_generated|safe_q [16] $end
$var wire 1 ~ inst2|LPM_COUNTER_component|auto_generated|safe_q [15] $end
$var wire 1 !! inst2|LPM_COUNTER_component|auto_generated|safe_q [14] $end
$var wire 1 "! inst2|LPM_COUNTER_component|auto_generated|safe_q [13] $end
$var wire 1 #! inst2|LPM_COUNTER_component|auto_generated|safe_q [12] $end
$var wire 1 $! inst2|LPM_COUNTER_component|auto_generated|safe_q [11] $end
$var wire 1 %! inst2|LPM_COUNTER_component|auto_generated|safe_q [10] $end
$var wire 1 &! inst2|LPM_COUNTER_component|auto_generated|safe_q [9] $end
$var wire 1 '! inst2|LPM_COUNTER_component|auto_generated|safe_q [8] $end
$var wire 1 (! inst2|LPM_COUNTER_component|auto_generated|safe_q [7] $end
$var wire 1 )! inst2|LPM_COUNTER_component|auto_generated|safe_q [6] $end
$var wire 1 *! inst2|LPM_COUNTER_component|auto_generated|safe_q [5] $end
$var wire 1 +! inst2|LPM_COUNTER_component|auto_generated|safe_q [4] $end
$var wire 1 ,! inst2|LPM_COUNTER_component|auto_generated|safe_q [3] $end
$var wire 1 -! inst2|LPM_COUNTER_component|auto_generated|safe_q [2] $end
$var wire 1 .! inst2|LPM_COUNTER_component|auto_generated|safe_q [1] $end
$var wire 1 /! inst2|LPM_COUNTER_component|auto_generated|safe_q [0] $end
$upscope $end
$upscope $end
$enddefinitions $end
#0
$dumpvars
0!
0"
07
06
05
04
03
02
01
00
0/
0.
0-
0,
0+
0*
0)
0(
0'
0&
0%
0$
0#
08
x9
0:
1;
x<
1=
1>
1?
1@
0A
0B
0C
1D
0E
0F
0G
0H
1I
0J
0K
1L
0M
1N
0O
0P
0Q
0R
0S
1T
0U
0V
0W
0X
0Y
1Z
0[
1\
0]
1^
0_
1`
0a
1b
0c
0d
0e
0f
0g
0h
0i
1j
0k
0l
0m
1n
0o
1p
0q
0r
0s
1t
0u
0v
0w
0x
0/!
0.!
0-!
0,!
0+!
0*!
0)!
0(!
0'!
0&!
0%!
0$!
0#!
0"!
0!!
0~
0}
0|
0{
0z
0y
$end
#10000
1!
1A
09
#20000
0!
0A
19
#30000
1"
1!
1B
1A
09
1r
1G
18
#40000
0!
0A
19
#50000
1!
1A
09
1/!
1J
1C
0I
17
1l
1H
1q
0r
08
#60000
0"
0!
0B
0A
19
#70000
1!
1A
09
0/!
1.!
0C
1I
0D
0H
07
16
1D
1H
1E
0E
#80000
0!
0A
19
#90000
1"
1!
1B
1A
09
1/!
1C
0I
17
0D
0H
1E
#100000
0!
0A
19
#110000
1!
1A
09
0/!
0.!
1-!
0C
1I
1D
1H
1K
0E
07
06
15
0H
0K
1E
1x
0x
#120000
0"
0!
0B
0A
19
#130000
1!
1A
09
1/!
1C
0I
17
1H
#140000
0!
0A
19
#150000
1"
1!
1B
1A
09
0/!
1.!
0C
1I
0D
0H
07
16
1D
1H
1K
0E
0K
1E
1x
0x
#160000
0!
0A
19
#170000
1!
1A
09
1/!
1C
0I
17
0D
0H
1K
0E
1x
#180000
0"
0!
0B
0A
19
#190000
1!
1A
09
1,!
0/!
0.!
0-!
0L
0x
0C
1I
1D
1H
0K
1E
14
07
06
05
1Q
0H
0E
1L
1x
0Q
#200000
0!
0A
19
#210000
1"
1!
1B
1A
09
1/!
1C
0I
17
1H
#220000
0!
0A
19
#230000
1!
1A
09
0/!
1.!
0C
1I
0D
0H
07
16
1D
1H
1E
0E
#240000
0"
0!
0B
0A
19
#250000
1!
1A
09
1/!
1C
0I
17
0D
0H
1E
#260000
0!
0A
19
#270000
1"
1!
1B
1A
09
0/!
0.!
1-!
0C
1I
1D
1H
1K
0E
07
06
15
0H
0K
1E
0L
0x
1L
1x
1Q
0Q
#280000
0!
0A
19
#290000
1!
1A
09
1/!
1C
0I
17
1H
#300000
0"
0!
0B
0A
19
#310000
1!
1A
09
0/!
1.!
0C
1I
0D
0H
07
16
1D
1H
1K
0E
0K
1E
0L
0x
1L
1x
1Q
0Q
#320000
0!
0A
19
#330000
1"
1!
1B
1A
09
1/!
1C
0I
17
0D
0H
1K
0E
0L
0x
1Q
#340000
0!
0A
19
#350000
1!
1A
09
0,!
1+!
0/!
0.!
0-!
1L
1x
0J
1R
1M
0Q
0C
1I
1D
1H
0K
1E
04
13
07
06
05
0M
1Q
1P
0H
0E
0x
0P
#360000
0"
0!
0B
0A
19
#370000
1!
1A
09
1/!
1J
1C
0I
17
1H
#380000
0!
0A
19
#390000
1"
1!
1B
1A
09
0/!
1.!
0C
1I
0D
0H
07
16
1D
1H
1E
0E
#400000
0!
0A
19
#410000
1!
1A
09
1/!
1C
0I
17
0D
0H
1E
#420000
0"
0!
0B
0A
19
#430000
1!
1A
09
0/!
0.!
1-!
0C
1I
1D
1H
1K
0E
07
06
15
0H
0K
1E
1x
0x
#440000
0!
0A
19
#450000
1"
1!
1B
1A
09
1/!
1C
0I
17
1H
#460000
0!
0A
19
#470000
1!
1A
09
0/!
1.!
0C
1I
0D
0H
07
16
1D
1H
1K
0E
0K
1E
1x
0x
#480000
0"
0!
0B
0A
19
#490000
1!
1A
09
1/!
1C
0I
17
0D
0H
1K
0E
1x
#500000
0!
0A
19
#510000
1"
1!
1B
1A
09
1,!
0/!
0.!
0-!
0L
0x
0C
1I
1D
1H
0K
1E
14
07
06
05
1M
0Q
0H
0E
1L
1x
1P
0M
1Q
0P
#520000
0!
0A
19
#530000
1!
1A
09
1/!
1C
0I
17
1H
#540000
0"
0!
0B
0A
19
#550000
1!
1A
09
0/!
1.!
0C
1I
0D
0H
07
16
1D
1H
1E
0E
#560000
0!
0A
19
#570000
1"
1!
1B
1A
09
1/!
1C
0I
17
0D
0H
1E
#580000
0!
0A
19
#590000
1!
1A
09
0/!
0.!
1-!
0C
1I
1D
1H
1K
0E
07
06
15
0H
0K
1E
0L
0x
1L
1x
1M
0Q
0M
1Q
1P
0P
#600000
0"
0!
0B
0A
19
#610000
1!
1A
09
1/!
1C
0I
17
1H
#620000
0!
0A
19
#630000
1"
1!
1B
1A
09
0/!
1.!
0C
1I
0D
0H
07
16
1D
1H
1K
0E
0K
1E
0L
0x
1L
1x
1M
0Q
0M
1Q
1P
0P
#640000
0!
0A
19
#650000
1!
1A
09
1/!
1C
0I
17
0D
0H
1K
0E
0L
0x
1M
0Q
1P
#660000
0"
0!
0B
0A
19
#670000
1!
1A
09
0,!
0+!
1*!
0/!
0.!
0-!
1L
1x
0J
0M
1Q
0N
0P
0C
1I
1D
1H
0K
1E
04
03
12
07
06
05
0Q
1N
1P
1O
0H
0E
0x
0O
#680000
0!
0A
19
#690000
1"
1!
1B
1A
09
1/!
1J
1C
0I
17
1H
#700000
0!
0A
19
#710000
1!
1A
09
0/!
1.!
0C
1I
0D
0H
07
16
1D
1H
1E
0E
#720000
0"
0!
0B
0A
19
#730000
1!
1A
09
1/!
1C
0I
17
0D
0H
1E
#740000
0!
0A
19
#750000
1"
1!
1B
1A
09
0/!
0.!
1-!
0C
1I
1D
1H
1K
0E
07
06
15
0H
0K
1E
1x
0x
#760000
0!
0A
19
#770000
1!
1A
09
1/!
1C
0I
17
1H
#780000
0"
0!
0B
0A
19
#790000
1!
1A
09
0/!
1.!
0C
1I
0D
0H
07
16
1D
1H
1K
0E
0K
1E
1x
0x
#800000
0!
0A
19
#810000
1"
1!
1B
1A
09
1/!
1C
0I
17
0D
0H
1K
0E
1x
#820000
0!
0A
19
#830000
1!
1A
09
1,!
0/!
0.!
0-!
0L
0x
0C
1I
1D
1H
0K
1E
14
07
06
05
1Q
0H
0E
1L
1x
0Q
#840000
0"
0!
0B
0A
19
#850000
1!
1A
09
1/!
1C
0I
17
1H
#860000
0!
0A
19
#870000
1"
1!
1B
1A
09
0/!
1.!
0C
1I
0D
0H
07
16
1D
1H
1E
0E
#880000
0!
0A
19
#890000
1!
1A
09
1/!
1C
0I
17
0D
0H
1E
#900000
0"
0!
0B
0A
19
#910000
1!
1A
09
0/!
0.!
1-!
0C
1I
1D
1H
1K
0E
07
06
15
0H
0K
1E
0L
0x
1L
1x
1Q
0Q
#920000
0!
0A
19
#930000
1"
1!
1B
1A
09
1/!
1C
0I
17
1H
#940000
0!
0A
19
#950000
1!
1A
09
0/!
1.!
0C
1I
0D
0H
07
16
1D
1H
1K
0E
0K
1E
0L
0x
1L
1x
1Q
0Q
#960000
0"
0!
0B
0A
19
#970000
1!
1A
09
1/!
1C
0I
17
0D
0H
1K
0E
0L
0x
1Q
#980000
0!
0A
19
#990000
1"
1!
1B
1A
09
0,!
1+!
0/!
0.!
0-!
1L
1x
0J
1M
0Q
0C
1I
1D
1H
0K
1E
04
13
07
06
05
0M
1Q
0N
0P
0H
0E
0x
1N
1P
1O
0O
