Lab 2/simulation/qsim/g21_lab2.msim.vcd
$comment
	File created using the following command:
		vcd file g21_lab2.msim.vcd -direction
$end
$date
	Wed Oct 11 11:57:03 2017
$end
$version
	ModelSim Version 10.1d
$end
$timescale
	1ps
$end
$scope module g21_lab2_vlg_vec_tst $end
$var reg 1 ! clk $end
$var reg 6 " N [5:0] $end
$var wire 1 # P_EN [51] $end
$var wire 1 $ P_EN [50] $end
$var wire 1 % P_EN [49] $end
$var wire 1 & P_EN [48] $end
$var wire 1 ' P_EN [47] $end
$var wire 1 ( P_EN [46] $end
$var wire 1 ) P_EN [45] $end
$var wire 1 * P_EN [44] $end
$var wire 1 + P_EN [43] $end
$var wire 1 , P_EN [42] $end
$var wire 1 - P_EN [41] $end
$var wire 1 . P_EN [40] $end
$var wire 1 / P_EN [39] $end
$var wire 1 0 P_EN [38] $end
$var wire 1 1 P_EN [37] $end
$var wire 1 2 P_EN [36] $end
$var wire 1 3 P_EN [35] $end
$var wire 1 4 P_EN [34] $end
$var wire 1 5 P_EN [33] $end
$var wire 1 6 P_EN [32] $end
$var wire 1 7 P_EN [31] $end
$var wire 1 8 P_EN [30] $end
$var wire 1 9 P_EN [29] $end
$var wire 1 : P_EN [28] $end
$var wire 1 ; P_EN [27] $end
$var wire 1 < P_EN [26] $end
$var wire 1 = P_EN [25] $end
$var wire 1 > P_EN [24] $end
$var wire 1 ? P_EN [23] $end
$var wire 1 @ P_EN [22] $end
$var wire 1 A P_EN [21] $end
$var wire 1 B P_EN [20] $end
$var wire 1 C P_EN [19] $end
$var wire 1 D P_EN [18] $end
$var wire 1 E P_EN [17] $end
$var wire 1 F P_EN [16] $end
$var wire 1 G P_EN [15] $end
$var wire 1 H P_EN [14] $end
$var wire 1 I P_EN [13] $end
$var wire 1 J P_EN [12] $end
$var wire 1 K P_EN [11] $end
$var wire 1 L P_EN [10] $end
$var wire 1 M P_EN [9] $end
$var wire 1 N P_EN [8] $end
$var wire 1 O P_EN [7] $end
$var wire 1 P P_EN [6] $end
$var wire 1 Q P_EN [5] $end
$var wire 1 R P_EN [4] $end
$var wire 1 S P_EN [3] $end
$var wire 1 T P_EN [2] $end
$var wire 1 U P_EN [1] $end
$var wire 1 V P_EN [0] $end
$var wire 1 W sampler $end
$scope module i1 $end
$var wire 1 X gnd $end
$var wire 1 Y vcc $end
$var wire 1 Z unknown $end
$var tri1 1 [ devclrn $end
$var tri1 1 \ devpor $end
$var tri1 1 ] devoe $end
$var wire 1 ^ clk~combout $end
$var wire 1 _ clk~clkctrl_outclk $end
$var wire 1 ` inst|R1|altsyncram_component|auto_generated|q_a [51] $end
$var wire 1 a inst|R1|altsyncram_component|auto_generated|q_a [50] $end
$var wire 1 b inst|R1|altsyncram_component|auto_generated|q_a [49] $end
$var wire 1 c inst|R1|altsyncram_component|auto_generated|q_a [48] $end
$var wire 1 d inst|R1|altsyncram_component|auto_generated|q_a [47] $end
$var wire 1 e inst|R1|altsyncram_component|auto_generated|q_a [46] $end
$var wire 1 f inst|R1|altsyncram_component|auto_generated|q_a [45] $end
$var wire 1 g inst|R1|altsyncram_component|auto_generated|q_a [44] $end
$var wire 1 h inst|R1|altsyncram_component|auto_generated|q_a [43] $end
$var wire 1 i inst|R1|altsyncram_component|auto_generated|q_a [42] $end
$var wire 1 j inst|R1|altsyncram_component|auto_generated|q_a [41] $end
$var wire 1 k inst|R1|altsyncram_component|auto_generated|q_a [40] $end
$var wire 1 l inst|R1|altsyncram_component|auto_generated|q_a [39] $end
$var wire 1 m inst|R1|altsyncram_component|auto_generated|q_a [38] $end
$var wire 1 n inst|R1|altsyncram_component|auto_generated|q_a [37] $end
$var wire 1 o inst|R1|altsyncram_component|auto_generated|q_a [36] $end
$var wire 1 p inst|R1|altsyncram_component|auto_generated|q_a [35] $end
$var wire 1 q inst|R1|altsyncram_component|auto_generated|q_a [34] $end
$var wire 1 r inst|R1|altsyncram_component|auto_generated|q_a [33] $end
$var wire 1 s inst|R1|altsyncram_component|auto_generated|q_a [32] $end
$var wire 1 t inst|R1|altsyncram_component|auto_generated|q_a [31] $end
$var wire 1 u inst|R1|altsyncram_component|auto_generated|q_a [30] $end
$var wire 1 v inst|R1|altsyncram_component|auto_generated|q_a [29] $end
$var wire 1 w inst|R1|altsyncram_component|auto_generated|q_a [28] $end
$var wire 1 x inst|R1|altsyncram_component|auto_generated|q_a [27] $end
$var wire 1 y inst|R1|altsyncram_component|auto_generated|q_a [26] $end
$var wire 1 z inst|R1|altsyncram_component|auto_generated|q_a [25] $end
$var wire 1 { inst|R1|altsyncram_component|auto_generated|q_a [24] $end
$var wire 1 | inst|R1|altsyncram_component|auto_generated|q_a [23] $end
$var wire 1 } inst|R1|altsyncram_component|auto_generated|q_a [22] $end
$var wire 1 ~ inst|R1|altsyncram_component|auto_generated|q_a [21] $end
$var wire 1 !! inst|R1|altsyncram_component|auto_generated|q_a [20] $end
$var wire 1 "! inst|R1|altsyncram_component|auto_generated|q_a [19] $end
$var wire 1 #! inst|R1|altsyncram_component|auto_generated|q_a [18] $end
$var wire 1 $! inst|R1|altsyncram_component|auto_generated|q_a [17] $end
$var wire 1 %! inst|R1|altsyncram_component|auto_generated|q_a [16] $end
$var wire 1 &! inst|R1|altsyncram_component|auto_generated|q_a [15] $end
$var wire 1 '! inst|R1|altsyncram_component|auto_generated|q_a [14] $end
$var wire 1 (! inst|R1|altsyncram_component|auto_generated|q_a [13] $end
$var wire 1 )! inst|R1|altsyncram_component|auto_generated|q_a [12] $end
$var wire 1 *! inst|R1|altsyncram_component|auto_generated|q_a [11] $end
$var wire 1 +! inst|R1|altsyncram_component|auto_generated|q_a [10] $end
$var wire 1 ,! inst|R1|altsyncram_component|auto_generated|q_a [9] $end
$var wire 1 -! inst|R1|altsyncram_component|auto_generated|q_a [8] $end
$var wire 1 .! inst|R1|altsyncram_component|auto_generated|q_a [7] $end
$var wire 1 /! inst|R1|altsyncram_component|auto_generated|q_a [6] $end
$var wire 1 0! inst|R1|altsyncram_component|auto_generated|q_a [5] $end
$var wire 1 1! inst|R1|altsyncram_component|auto_generated|q_a [4] $end
$var wire 1 2! inst|R1|altsyncram_component|auto_generated|q_a [3] $end
$var wire 1 3! inst|R1|altsyncram_component|auto_generated|q_a [2] $end
$var wire 1 4! inst|R1|altsyncram_component|auto_generated|q_a [1] $end
$var wire 1 5! inst|R1|altsyncram_component|auto_generated|q_a [0] $end
$var wire 1 6! N~combout [5] $end
$var wire 1 7! N~combout [4] $end
$var wire 1 8! N~combout [3] $end
$var wire 1 9! N~combout [2] $end
$var wire 1 :! N~combout [1] $end
$var wire 1 ;! N~combout [0] $end
$var wire 1 <! inst|R1|altsyncram_component|auto_generated|ram_block1a16_PORTADATAOUT_bus [35] $end
$var wire 1 =! inst|R1|altsyncram_component|auto_generated|ram_block1a16_PORTADATAOUT_bus [34] $end
$var wire 1 >! inst|R1|altsyncram_component|auto_generated|ram_block1a16_PORTADATAOUT_bus [33] $end
$var wire 1 ?! inst|R1|altsyncram_component|auto_generated|ram_block1a16_PORTADATAOUT_bus [32] $end
$var wire 1 @! inst|R1|altsyncram_component|auto_generated|ram_block1a16_PORTADATAOUT_bus [31] $end
$var wire 1 A! inst|R1|altsyncram_component|auto_generated|ram_block1a16_PORTADATAOUT_bus [30] $end
$var wire 1 B! inst|R1|altsyncram_component|auto_generated|ram_block1a16_PORTADATAOUT_bus [29] $end
$var wire 1 C! inst|R1|altsyncram_component|auto_generated|ram_block1a16_PORTADATAOUT_bus [28] $end
$var wire 1 D! inst|R1|altsyncram_component|auto_generated|ram_block1a16_PORTADATAOUT_bus [27] $end
$var wire 1 E! inst|R1|altsyncram_component|auto_generated|ram_block1a16_PORTADATAOUT_bus [26] $end
$var wire 1 F! inst|R1|altsyncram_component|auto_generated|ram_block1a16_PORTADATAOUT_bus [25] $end
$var wire 1 G! inst|R1|altsyncram_component|auto_generated|ram_block1a16_PORTADATAOUT_bus [24] $end
$var wire 1 H! inst|R1|altsyncram_component|auto_generated|ram_block1a16_PORTADATAOUT_bus [23] $end
$var wire 1 I! inst|R1|altsyncram_component|auto_generated|ram_block1a16_PORTADATAOUT_bus [22] $end
$var wire 1 J! inst|R1|altsyncram_component|auto_generated|ram_block1a16_PORTADATAOUT_bus [21] $end
$var wire 1 K! inst|R1|altsyncram_component|auto_generated|ram_block1a16_PORTADATAOUT_bus [20] $end
$var wire 1 L! inst|R1|altsyncram_component|auto_generated|ram_block1a16_PORTADATAOUT_bus [19] $end
$var wire 1 M! inst|R1|altsyncram_component|auto_generated|ram_block1a16_PORTADATAOUT_bus [18] $end
$var wire 1 N! inst|R1|altsyncram_component|auto_generated|ram_block1a16_PORTADATAOUT_bus [17] $end
$var wire 1 O! inst|R1|altsyncram_component|auto_generated|ram_block1a16_PORTADATAOUT_bus [16] $end
$var wire 1 P! inst|R1|altsyncram_component|auto_generated|ram_block1a16_PORTADATAOUT_bus [15] $end
$var wire 1 Q! inst|R1|altsyncram_component|auto_generated|ram_block1a16_PORTADATAOUT_bus [14] $end
$var wire 1 R! inst|R1|altsyncram_component|auto_generated|ram_block1a16_PORTADATAOUT_bus [13] $end
$var wire 1 S! inst|R1|altsyncram_component|auto_generated|ram_block1a16_PORTADATAOUT_bus [12] $end
$var wire 1 T! inst|R1|altsyncram_component|auto_generated|ram_block1a16_PORTADATAOUT_bus [11] $end
$var wire 1 U! inst|R1|altsyncram_component|auto_generated|ram_block1a16_PORTADATAOUT_bus [10] $end
$var wire 1 V! inst|R1|altsyncram_component|auto_generated|ram_block1a16_PORTADATAOUT_bus [9] $end
$var wire 1 W! inst|R1|altsyncram_component|auto_generated|ram_block1a16_PORTADATAOUT_bus [8] $end
$var wire 1 X! inst|R1|altsyncram_component|auto_generated|ram_block1a16_PORTADATAOUT_bus [7] $end
$var wire 1 Y! inst|R1|altsyncram_component|auto_generated|ram_block1a16_PORTADATAOUT_bus [6] $end
$var wire 1 Z! inst|R1|altsyncram_component|auto_generated|ram_block1a16_PORTADATAOUT_bus [5] $end
$var wire 1 [! inst|R1|altsyncram_component|auto_generated|ram_block1a16_PORTADATAOUT_bus [4] $end
$var wire 1 \! inst|R1|altsyncram_component|auto_generated|ram_block1a16_PORTADATAOUT_bus [3] $end
$var wire 1 ]! inst|R1|altsyncram_component|auto_generated|ram_block1a16_PORTADATAOUT_bus [2] $end
$var wire 1 ^! inst|R1|altsyncram_component|auto_generated|ram_block1a16_PORTADATAOUT_bus [1] $end
$var wire 1 _! inst|R1|altsyncram_component|auto_generated|ram_block1a16_PORTADATAOUT_bus [0] $end
$var wire 1 `! inst|R1|altsyncram_component|auto_generated|ram_block1a0_PORTADATAOUT_bus [15] $end
$var wire 1 a! inst|R1|altsyncram_component|auto_generated|ram_block1a0_PORTADATAOUT_bus [14] $end
$var wire 1 b! inst|R1|altsyncram_component|auto_generated|ram_block1a0_PORTADATAOUT_bus [13] $end
$var wire 1 c! inst|R1|altsyncram_component|auto_generated|ram_block1a0_PORTADATAOUT_bus [12] $end
$var wire 1 d! inst|R1|altsyncram_component|auto_generated|ram_block1a0_PORTADATAOUT_bus [11] $end
$var wire 1 e! inst|R1|altsyncram_component|auto_generated|ram_block1a0_PORTADATAOUT_bus [10] $end
$var wire 1 f! inst|R1|altsyncram_component|auto_generated|ram_block1a0_PORTADATAOUT_bus [9] $end
$var wire 1 g! inst|R1|altsyncram_component|auto_generated|ram_block1a0_PORTADATAOUT_bus [8] $end
$var wire 1 h! inst|R1|altsyncram_component|auto_generated|ram_block1a0_PORTADATAOUT_bus [7] $end
$var wire 1 i! inst|R1|altsyncram_component|auto_generated|ram_block1a0_PORTADATAOUT_bus [6] $end
$var wire 1 j! inst|R1|altsyncram_component|auto_generated|ram_block1a0_PORTADATAOUT_bus [5] $end
$var wire 1 k! inst|R1|altsyncram_component|auto_generated|ram_block1a0_PORTADATAOUT_bus [4] $end
$var wire 1 l! inst|R1|altsyncram_component|auto_generated|ram_block1a0_PORTADATAOUT_bus [3] $end
$var wire 1 m! inst|R1|altsyncram_component|auto_generated|ram_block1a0_PORTADATAOUT_bus [2] $end
$var wire 1 n! inst|R1|altsyncram_component|auto_generated|ram_block1a0_PORTADATAOUT_bus [1] $end
$var wire 1 o! inst|R1|altsyncram_component|auto_generated|ram_block1a0_PORTADATAOUT_bus [0] $end
$upscope $end
$upscope $end
$enddefinitions $end
#0
$dumpvars
0!
b0 "
0V
0U
0T
0S
0R
0Q
0P
0O
0N
0M
0L
0K
0J
0I
0H
0G
0F
0E
0D
0C
0B
0A
0@
0?
0>
0=
0<
0;
0:
09
08
07
06
05
04
03
02
01
00
0/
0.
0-
0,
0+
0*
0)
0(
0'
0&
0%
0$
0#
xW
0X
1Y
xZ
1[
1\
1]
0^
0_
05!
04!
03!
02!
01!
00!
0/!
0.!
0-!
0,!
0+!
0*!
0)!
0(!
0'!
0&!
0%!
0$!
0#!
0"!
0!!
0~
0}
0|
0{
0z
0y
0x
0w
0v
0u
0t
0s
0r
0q
0p
0o
0n
0m
0l
0k
0j
0i
0h
0g
0f
0e
0d
0c
0b
0a
0`
0;!
0:!
09!
08!
07!
06!
0_!
0^!
0]!
0\!
0[!
0Z!
0Y!
0X!
0W!
0V!
0U!
0T!
0S!
0R!
0Q!
0P!
0O!
0N!
0M!
0L!
0K!
0J!
0I!
0H!
0G!
0F!
0E!
0D!
0C!
0B!
0A!
0@!
0?!
0>!
0=!
0<!
0o!
0n!
0m!
0l!
0k!
0j!
0i!
0h!
0g!
0f!
0e!
0d!
0c!
0b!
0a!
0`!
$end
#5000
1!
1^
1_
0W
#10000
0!
0^
0_
1W
#15000
1!
1^
1_
0W
1o!
1n!
1m!
1l!
1k!
1j!
1i!
1h!
1g!
1f!
1e!
1d!
1c!
1b!
1a!
1`!
1_!
1^!
1]!
1\!
1[!
1Z!
1Y!
1X!
1W!
1V!
1U!
1T!
1S!
1R!
1Q!
1P!
1O!
1N!
1M!
1L!
1K!
1J!
1I!
1H!
1G!
1F!
1E!
1D!
1C!
1B!
1A!
1@!
1?!
1>!
1=!
1<!
15!
14!
13!
12!
11!
10!
1/!
1.!
1-!
1,!
1+!
1*!
1)!
1(!
1'!
1&!
1%!
1$!
1#!
1"!
1!!
1~
1}
1|
1{
1z
1y
1x
1w
1v
1u
1t
1s
1r
1q
1p
1o
1n
1m
1l
1k
1j
1i
1h
1g
1f
1e
1d
1c
1b
1a
1`
1V
1U
1T
1S
1R
1Q
1P
1O
1N
1M
1L
1K
1J
1I
1H
1G
1F
1E
1D
1C
1B
1A
1@
1?
1>
1=
1<
1;
1:
19
18
17
16
15
14
13
12
11
10
1/
1.
1-
1,
1+
1*
1)
1(
1'
1&
1%
1$
1#
#20000
0!
0^
0_
1W
#25000
1!
1^
1_
0W
#30000
0!
0^
0_
1W
#35000
1!
1^
1_
0W
#40000
0!
0^
0_
1W
#45000
1!
1^
1_
0W
#50000
0!
0^
0_
1W
#55000
1!
1^
1_
0W
#60000
0!
0^
0_
1W
#65000
1!
1^
1_
0W
#70000
0!
0^
0_
1W
#75000
1!
1^
1_
0W
#80000
0!
0^
0_
1W
#85000
1!
1^
1_
0W
#90000
0!
0^
0_
1W
#95000
1!
1^
1_
0W
#100000
0!
0^
0_
1W
#105000
1!
1^
1_
0W
#110000
0!
0^
0_
1W
#115000
1!
1^
1_
0W
#120000
0!
0^
0_
1W
#125000
1!
1^
1_
0W
#130000
0!
0^
0_
1W
#135000
1!
1^
1_
0W
#140000
0!
0^
0_
1W
#145000
1!
1^
1_
0W
#150000
0!
0^
0_
1W
#155000
1!
1^
1_
0W
#160000
0!
0^
0_
1W
#165000
1!
1^
1_
0W
#170000
0!
0^
0_
1W
#175000
1!
1^
1_
0W
#180000
0!
0^
0_
1W
#185000
1!
1^
1_
0W
#190000
0!
0^
0_
1W
#195000
1!
1^
1_
0W
#200000
0!
0^
0_
1W
#205000
1!
1^
1_
0W
#210000
0!
0^
0_
1W
#215000
1!
1^
1_
0W
#220000
0!
0^
0_
1W
#225000
1!
1^
1_
0W
#230000
0!
0^
0_
1W
#235000
1!
1^
1_
0W
#240000
0!
0^
0_
1W
#245000
1!
1^
1_
0W
#250000
0!
0^
0_
1W
#255000
1!
1^
1_
0W
#260000
0!
0^
0_
1W
#265000
1!
1^
1_
0W
#270000
0!
0^
0_
1W
#275000
1!
1^
1_
0W
#280000
0!
0^
0_
1W
#285000
1!
1^
1_
0W
#290000
0!
0^
0_
1W
#295000
1!
1^
1_
0W
#300000
0!
0^
0_
1W
#305000
1!
1^
1_
0W
#310000
0!
0^
0_
1W
#315000
1!
1^
1_
0W
#320000
0!
0^
0_
1W
#325000
1!
1^
1_
0W
#330000
0!
0^
0_
1W
#335000
1!
1^
1_
0W
#340000
0!
0^
0_
1W
#345000
1!
1^
1_
0W
#350000
0!
0^
0_
1W
#355000
1!
1^
1_
0W
#360000
0!
0^
0_
1W
#365000
1!
1^
1_
0W
#370000
0!
0^
0_
1W
#375000
1!
1^
1_
0W
#380000
0!
0^
0_
1W
#385000
1!
1^
1_
0W
#390000
0!
0^
0_
1W
#395000
1!
1^
1_
0W
#400000
0!
0^
0_
1W
#405000
1!
1^
1_
0W
#410000
0!
0^
0_
1W
#415000
1!
1^
1_
0W
#420000
0!
0^
0_
1W
#425000
1!
1^
1_
0W
#430000
0!
0^
0_
1W
#435000
1!
1^
1_
0W
#440000
0!
0^
0_
1W
#445000
1!
1^
1_
0W
#450000
0!
0^
0_
1W
#455000
1!
1^
1_
0W
#460000
0!
0^
0_
1W
#465000
1!
1^
1_
0W
#470000
0!
0^
0_
1W
#475000
1!
1^
1_
0W
#480000
0!
0^
0_
1W
#485000
1!
1^
1_
0W
#490000
0!
0^
0_
1W
#495000
1!
1^
1_
0W
#500000
0!
0^
0_
1W
#505000
1!
1^
1_
0W
#510000
0!
0^
0_
1W
#515000
1!
1^
1_
0W
#520000
0!
0^
0_
1W
#525000
1!
1^
1_
0W
#530000
0!
0^
0_
1W
#535000
1!
1^
1_
0W
#540000
0!
0^
0_
1W
#545000
1!
1^
1_
0W
#550000
0!
0^
0_
1W
#555000
1!
1^
1_
0W
#560000
0!
0^
0_
1W
#565000
1!
1^
1_
0W
#570000
0!
0^
0_
1W
#575000
1!
1^
1_
0W
#580000
0!
0^
0_
1W
#585000
1!
1^
1_
0W
#590000
0!
0^
0_
1W
#595000
1!
1^
1_
0W
#600000
0!
0^
0_
1W
#605000
1!
1^
1_
0W
#610000
0!
0^
0_
1W
#615000
1!
1^
1_
0W
#620000
0!
0^
0_
1W
#625000
1!
1^
1_
0W
#630000
0!
0^
0_
1W
#635000
1!
1^
1_
0W
#640000
0!
0^
0_
1W
#645000
1!
1^
1_
0W
#650000
0!
0^
0_
1W
#655000
1!
1^
1_
0W
#660000
0!
0^
0_
1W
#665000
1!
1^
1_
0W
#670000
0!
0^
0_
1W
#675000
1!
1^
1_
0W
#680000
0!
0^
0_
1W
#685000
1!
1^
1_
0W
#690000
0!
0^
0_
1W
#695000
1!
1^
1_
0W
#700000
0!
0^
0_
1W
#705000
1!
1^
1_
0W
#710000
0!
0^
0_
1W
#715000
1!
1^
1_
0W
#720000
0!
0^
0_
1W
#725000
1!
1^
1_
0W
#730000
0!
0^
0_
1W
#735000
1!
1^
1_
0W
#740000
0!
0^
0_
1W
#745000
1!
1^
1_
0W
#750000
0!
0^
0_
1W
#755000
1!
1^
1_
0W
#760000
0!
0^
0_
1W
#765000
1!
1^
1_
0W
#770000
0!
0^
0_
1W
#775000
1!
1^
1_
0W
#780000
0!
0^
0_
1W
#785000
1!
1^
1_
0W
#790000
0!
0^
0_
1W
#795000
1!
1^
1_
0W
#800000
0!
0^
0_
1W
#805000
1!
1^
1_
0W
#810000
0!
0^
0_
1W
#815000
1!
1^
1_
0W
#820000
0!
0^
0_
1W
#825000
1!
1^
1_
0W
#830000
0!
0^
0_
1W
#835000
1!
1^
1_
0W
#840000
0!
0^
0_
1W
#845000
1!
1^
1_
0W
#850000
0!
0^
0_
1W
#855000
1!
1^
1_
0W
#860000
0!
0^
0_
1W
#865000
1!
1^
1_
0W
#870000
0!
0^
0_
1W
#875000
1!
1^
1_
0W
#880000
0!
0^
0_
1W
#885000
1!
1^
1_
0W
#890000
0!
0^
0_
1W
#895000
1!
1^
1_
0W
#900000
0!
0^
0_
1W
#905000
1!
1^
1_
0W
#910000
0!
0^
0_
1W
#915000
1!
1^
1_
0W
#920000
0!
0^
0_
1W
#925000
1!
1^
1_
0W
#930000
0!
0^
0_
1W
#935000
1!
1^
1_
0W
#940000
0!
0^
0_
1W
#945000
1!
1^
1_
0W
#950000
0!
0^
0_
1W
#955000
1!
1^
1_
0W
#960000
0!
0^
0_
1W
#965000
1!
1^
1_
0W
#970000
0!
0^
0_
1W
#975000
1!
1^
1_
0W
#980000
0!
0^
0_
1W
#985000
1!
1^
1_
0W
#990000
0!
0^
0_
1W
#995000
1!
1^
1_
0W
#1000000
b1 "
0!
1;!
0^
0_
1W
#1005000
1!
1^
1_
0W
#1010000
0!
0^
0_
1W
#1015000
1!
1^
1_
0W
0o!
05!
0V
#1020000
0!
0^
0_
1W
#1025000
1!
1^
1_
0W
#1030000
0!
0^
0_
1W
#1035000
1!
1^
1_
0W
#1040000
0!
0^
0_
1W
#1045000
1!
1^
1_
0W
#1050000
0!
0^
0_
1W
#1055000
1!
1^
1_
0W
#1060000
0!
0^
0_
1W
#1065000
1!
1^
1_
0W
#1070000
0!
0^
0_
1W
#1075000
1!
1^
1_
0W
#1080000
0!
0^
0_
1W
#1085000
1!
1^
1_
0W
#1090000
0!
0^
0_
1W
#1095000
1!
1^
1_
0W
#1100000
0!
0^
0_
1W
#1105000
1!
1^
1_
0W
#1110000
0!
0^
0_
1W
#1115000
1!
1^
1_
0W
#1120000
0!
0^
0_
1W
#1125000
1!
1^
1_
0W
#1130000
0!
0^
0_
1W
#1135000
1!
1^
1_
0W
#1140000
0!
0^
0_
1W
#1145000
1!
1^
1_
0W
#1150000
0!
0^
0_
1W
#1155000
1!
1^
1_
0W
#1160000
0!
0^
0_
1W
#1165000
1!
1^
1_
0W
#1170000
0!
0^
0_
1W
#1175000
1!
1^
1_
0W
#1180000
0!
0^
0_
1W
#1185000
1!
1^
1_
0W
#1190000
0!
0^
0_
1W
#1195000
1!
1^
1_
0W
#1200000
0!
0^
0_
1W
#1205000
1!
1^
1_
0W
#1210000
0!
0^
0_
1W
#1215000
1!
1^
1_
0W
#1220000
0!
0^
0_
1W
#1225000
1!
1^
1_
0W
#1230000
0!
0^
0_
1W
#1235000
1!
1^
1_
0W
#1240000
0!
0^
0_
1W
#1245000
1!
1^
1_
0W
#1250000
0!
0^
0_
1W
#1255000
1!
1^
1_
0W
#1260000
0!
0^
0_
1W
#1265000
1!
1^
1_
0W
#1270000
0!
0^
0_
1W
#1275000
1!
1^
1_
0W
#1280000
0!
0^
0_
1W
#1285000
1!
1^
1_
0W
#1290000
0!
0^
0_
1W
#1295000
1!
1^
1_
0W
#1300000
0!
0^
0_
1W
#1305000
1!
1^
1_
0W
#1310000
0!
0^
0_
1W
#1315000
1!
1^
1_
0W
#1320000
0!
0^
0_
1W
#1325000
1!
1^
1_
0W
#1330000
0!
0^
0_
1W
#1335000
1!
1^
1_
0W
#1340000
0!
0^
0_
1W
#1345000
1!
1^
1_
0W
#1350000
0!
0^
0_
1W
#1355000
1!
1^
1_
0W
#1360000
0!
0^
0_
1W
#1365000
1!
1^
1_
0W
#1370000
0!
0^
0_
1W
#1375000
1!
1^
1_
0W
#1380000
0!
0^
0_
1W
#1385000
1!
1^
1_
0W
#1390000
0!
0^
0_
1W
#1395000
1!
1^
1_
0W
#1400000
0!
0^
0_
1W
#1405000
1!
1^
1_
0W
#1410000
0!
0^
0_
1W
#1415000
1!
1^
1_
0W
#1420000
0!
0^
0_
1W
#1425000
1!
1^
1_
0W
#1430000
0!
0^
0_
1W
#1435000
1!
1^
1_
0W
#1440000
0!
0^
0_
1W
#1445000
1!
1^
1_
0W
#1450000
0!
0^
0_
1W
#1455000
1!
1^
1_
0W
#1460000
0!
0^
0_
1W
#1465000
1!
1^
1_
0W
#1470000
0!
0^
0_
1W
#1475000
1!
1^
1_
0W
#1480000
0!
0^
0_
1W
#1485000
1!
1^
1_
0W
#1490000
0!
0^
0_
1W
#1495000
1!
1^
1_
0W
#1500000
0!
0^
0_
1W
#1505000
1!
1^
1_
0W
#1510000
0!
0^
0_
1W
#1515000
1!
1^
1_
0W
#1520000
0!
0^
0_
1W
#1525000
1!
1^
1_
0W
#1530000
0!
0^
0_
1W
#1535000
1!
1^
1_
0W
#1540000
0!
0^
0_
1W
#1545000
1!
1^
1_
0W
#1550000
0!
0^
0_
1W
#1555000
1!
1^
1_
0W
#1560000
0!
0^
0_
1W
#1565000
1!
1^
1_
0W
#1570000
0!
0^
0_
1W
#1575000
1!
1^
1_
0W
#1580000
0!
0^
0_
1W
#1585000
1!
1^
1_
0W
#1590000
0!
0^
0_
1W
#1595000
1!
1^
1_
0W
#1600000
0!
0^
0_
1W
#1605000
1!
1^
1_
0W
#1610000
0!
0^
0_
1W
#1615000
1!
1^
1_
0W
#1620000
0!
0^
0_
1W
#1625000
1!
1^
1_
0W
#1630000
0!
0^
0_
1W
#1635000
1!
1^
1_
0W
#1640000
0!
0^
0_
1W
#1645000
1!
1^
1_
0W
#1650000
0!
0^
0_
1W
#1655000
1!
1^
1_
0W
#1660000
0!
0^
0_
1W
#1665000
1!
1^
1_
0W
#1670000
0!
0^
0_
1W
#1675000
1!
1^
1_
0W
#1680000
0!
0^
0_
1W
#1685000
1!
1^
1_
0W
#1690000
0!
0^
0_
1W
#1695000
1!
1^
1_
0W
#1700000
0!
0^
0_
1W
#1705000
1!
1^
1_
0W
#1710000
0!
0^
0_
1W
#1715000
1!
1^
1_
0W
#1720000
0!
0^
0_
1W
#1725000
1!
1^
1_
0W
#1730000
0!
0^
0_
1W
#1735000
1!
1^
1_
0W
#1740000
0!
0^
0_
1W
#1745000
1!
1^
1_
0W
#1750000
0!
0^
0_
1W
#1755000
1!
1^
1_
0W
#1760000
0!
0^
0_
1W
#1765000
1!
1^
1_
0W
#1770000
0!
0^
0_
1W
#1775000
1!
1^
1_
0W
#1780000
0!
0^
0_
1W
#1785000
1!
1^
1_
0W
#1790000
0!
0^
0_
1W
#1795000
1!
1^
1_
0W
#1800000
0!
0^
0_
1W
#1805000
1!
1^
1_
0W
#1810000
0!
0^
0_
1W
#1815000
1!
1^
1_
0W
#1820000
0!
0^
0_
1W
#1825000
1!
1^
1_
0W
#1830000
0!
0^
0_
1W
#1835000
1!
1^
1_
0W
#1840000
0!
0^
0_
1W
#1845000
1!
1^
1_
0W
#1850000
0!
0^
0_
1W
#1855000
1!
1^
1_
0W
#1860000
0!
0^
0_
1W
#1865000
1!
1^
1_
0W
#1870000
0!
0^
0_
1W
#1875000
1!
1^
1_
0W
#1880000
0!
0^
0_
1W
#1885000
1!
1^
1_
0W
#1890000
0!
0^
0_
1W
#1895000
1!
1^
1_
0W
#1900000
0!
0^
0_
1W
#1905000
1!
1^
1_
0W
#1910000
0!
0^
0_
1W
#1915000
1!
1^
1_
0W
#1920000
0!
0^
0_
1W
#1925000
1!
1^
1_
0W
#1930000
0!
0^
0_
1W
#1935000
1!
1^
1_
0W
#1940000
0!
0^
0_
1W
#1945000
1!
1^
1_
0W
#1950000
0!
0^
0_
1W
#1955000
1!
1^
1_
0W
#1960000
0!
0^
0_
1W
#1965000
1!
1^
1_
0W
#1970000
0!
0^
0_
1W
#1975000
1!
1^
1_
0W
#1980000
0!
0^
0_
1W
#1985000
1!
1^
1_
0W
#1990000
0!
0^
0_
1W
#1995000
1!
1^
1_
0W
#2000000
b11 "
b10 "
0!
0;!
1:!
0^
0_
1W
#2005000
1!
1^
1_
0W
#2010000
0!
0^
0_
1W
#2015000
1!
1^
1_
0W
0n!
04!
0U
#2020000
0!
0^
0_
1W
#2025000
1!
1^
1_
0W
#2030000
0!
0^
0_
1W
#2035000
1!
1^
1_
0W
#2040000
0!
0^
0_
1W
#2045000
1!
1^
1_
0W
#2050000
0!
0^
0_
1W
#2055000
1!
1^
1_
0W
#2060000
0!
0^
0_
1W
#2065000
1!
1^
1_
0W
#2070000
0!
0^
0_
1W
#2075000
1!
1^
1_
0W
#2080000
0!
0^
0_
1W
#2085000
1!
1^
1_
0W
#2090000
0!
0^
0_
1W
#2095000
1!
1^
1_
0W
#2100000
0!
0^
0_
1W
#2105000
1!
1^
1_
0W
#2110000
0!
0^
0_
1W
#2115000
1!
1^
1_
0W
#2120000
0!
0^
0_
1W
#2125000
1!
1^
1_
0W
#2130000
0!
0^
0_
1W
#2135000
1!
1^
1_
0W
#2140000
0!
0^
0_
1W
#2145000
1!
1^
1_
0W
#2150000
0!
0^
0_
1W
#2155000
1!
1^
1_
0W
#2160000
0!
0^
0_
1W
#2165000
1!
1^
1_
0W
#2170000
0!
0^
0_
1W
#2175000
1!
1^
1_
0W
#2180000
0!
0^
0_
1W
#2185000
1!
1^
1_
0W
#2190000
0!
0^
0_
1W
#2195000
1!
1^
1_
0W
#2200000
0!
0^
0_
1W
#2205000
1!
1^
1_
0W
#2210000
0!
0^
0_
1W
#2215000
1!
1^
1_
0W
#2220000
0!
0^
0_
1W
#2225000
1!
1^
1_
0W
#2230000
0!
0^
0_
1W
#2235000
1!
1^
1_
0W
#2240000
0!
0^
0_
1W
#2245000
1!
1^
1_
0W
#2250000
0!
0^
0_
1W
#2255000
1!
1^
1_
0W
#2260000
0!
0^
0_
1W
#2265000
1!
1^
1_
0W
#2270000
0!
0^
0_
1W
#2275000
1!
1^
1_
0W
#2280000
0!
0^
0_
1W
#2285000
1!
1^
1_
0W
