Lab 2/simulation/qsim/g21_lab2.msim.vcd
$comment
	File created using the following command:
		vcd file g21_lab2.msim.vcd -direction
$end
$date
	Thu Oct 12 10:22:17 2017
$end
$version
	ModelSim Version 10.1d
$end
$timescale
	1ps
$end
$scope module g21_lab2_vlg_vec_tst $end
$var reg 1 ! clk $end
$var reg 6 " N [5:0] $end
$var wire 1 # P_EN [51] $end
$var wire 1 $ P_EN [50] $end
$var wire 1 % P_EN [49] $end
$var wire 1 & P_EN [48] $end
$var wire 1 ' P_EN [47] $end
$var wire 1 ( P_EN [46] $end
$var wire 1 ) P_EN [45] $end
$var wire 1 * P_EN [44] $end
$var wire 1 + P_EN [43] $end
$var wire 1 , P_EN [42] $end
$var wire 1 - P_EN [41] $end
$var wire 1 . P_EN [40] $end
$var wire 1 / P_EN [39] $end
$var wire 1 0 P_EN [38] $end
$var wire 1 1 P_EN [37] $end
$var wire 1 2 P_EN [36] $end
$var wire 1 3 P_EN [35] $end
$var wire 1 4 P_EN [34] $end
$var wire 1 5 P_EN [33] $end
$var wire 1 6 P_EN [32] $end
$var wire 1 7 P_EN [31] $end
$var wire 1 8 P_EN [30] $end
$var wire 1 9 P_EN [29] $end
$var wire 1 : P_EN [28] $end
$var wire 1 ; P_EN [27] $end
$var wire 1 < P_EN [26] $end
$var wire 1 = P_EN [25] $end
$var wire 1 > P_EN [24] $end
$var wire 1 ? P_EN [23] $end
$var wire 1 @ P_EN [22] $end
$var wire 1 A P_EN [21] $end
$var wire 1 B P_EN [20] $end
$var wire 1 C P_EN [19] $end
$var wire 1 D P_EN [18] $end
$var wire 1 E P_EN [17] $end
$var wire 1 F P_EN [16] $end
$var wire 1 G P_EN [15] $end
$var wire 1 H P_EN [14] $end
$var wire 1 I P_EN [13] $end
$var wire 1 J P_EN [12] $end
$var wire 1 K P_EN [11] $end
$var wire 1 L P_EN [10] $end
$var wire 1 M P_EN [9] $end
$var wire 1 N P_EN [8] $end
$var wire 1 O P_EN [7] $end
$var wire 1 P P_EN [6] $end
$var wire 1 Q P_EN [5] $end
$var wire 1 R P_EN [4] $end
$var wire 1 S P_EN [3] $end
$var wire 1 T P_EN [2] $end
$var wire 1 U P_EN [1] $end
$var wire 1 V P_EN [0] $end
$var wire 1 W sampler $end
$scope module i1 $end
$var wire 1 X gnd $end
$var wire 1 Y vcc $end
$var wire 1 Z unknown $end
$var tri1 1 [ devclrn $end
$var tri1 1 \ devpor $end
$var tri1 1 ] devoe $end
$var wire 1 ^ clk~combout $end
$var wire 1 _ clk~clkctrl_outclk $end
$var wire 1 ` inst|R1|altsyncram_component|auto_generated|q_a [51] $end
$var wire 1 a inst|R1|altsyncram_component|auto_generated|q_a [50] $end
$var wire 1 b inst|R1|altsyncram_component|auto_generated|q_a [49] $end
$var wire 1 c inst|R1|altsyncram_component|auto_generated|q_a [48] $end
$var wire 1 d inst|R1|altsyncram_component|auto_generated|q_a [47] $end
$var wire 1 e inst|R1|altsyncram_component|auto_generated|q_a [46] $end
$var wire 1 f inst|R1|altsyncram_component|auto_generated|q_a [45] $end
$var wire 1 g inst|R1|altsyncram_component|auto_generated|q_a [44] $end
$var wire 1 h inst|R1|altsyncram_component|auto_generated|q_a [43] $end
$var wire 1 i inst|R1|altsyncram_component|auto_generated|q_a [42] $end
$var wire 1 j inst|R1|altsyncram_component|auto_generated|q_a [41] $end
$var wire 1 k inst|R1|altsyncram_component|auto_generated|q_a [40] $end
$var wire 1 l inst|R1|altsyncram_component|auto_generated|q_a [39] $end
$var wire 1 m inst|R1|altsyncram_component|auto_generated|q_a [38] $end
$var wire 1 n inst|R1|altsyncram_component|auto_generated|q_a [37] $end
$var wire 1 o inst|R1|altsyncram_component|auto_generated|q_a [36] $end
$var wire 1 p inst|R1|altsyncram_component|auto_generated|q_a [35] $end
$var wire 1 q inst|R1|altsyncram_component|auto_generated|q_a [34] $end
$var wire 1 r inst|R1|altsyncram_component|auto_generated|q_a [33] $end
$var wire 1 s inst|R1|altsyncram_component|auto_generated|q_a [32] $end
$var wire 1 t inst|R1|altsyncram_component|auto_generated|q_a [31] $end
$var wire 1 u inst|R1|altsyncram_component|auto_generated|q_a [30] $end
$var wire 1 v inst|R1|altsyncram_component|auto_generated|q_a [29] $end
$var wire 1 w inst|R1|altsyncram_component|auto_generated|q_a [28] $end
$var wire 1 x inst|R1|altsyncram_component|auto_generated|q_a [27] $end
$var wire 1 y inst|R1|altsyncram_component|auto_generated|q_a [26] $end
$var wire 1 z inst|R1|altsyncram_component|auto_generated|q_a [25] $end
$var wire 1 { inst|R1|altsyncram_component|auto_generated|q_a [24] $end
$var wire 1 | inst|R1|altsyncram_component|auto_generated|q_a [23] $end
$var wire 1 } inst|R1|altsyncram_component|auto_generated|q_a [22] $end
$var wire 1 ~ inst|R1|altsyncram_component|auto_generated|q_a [21] $end
$var wire 1 !! inst|R1|altsyncram_component|auto_generated|q_a [20] $end
$var wire 1 "! inst|R1|altsyncram_component|auto_generated|q_a [19] $end
$var wire 1 #! inst|R1|altsyncram_component|auto_generated|q_a [18] $end
$var wire 1 $! inst|R1|altsyncram_component|auto_generated|q_a [17] $end
$var wire 1 %! inst|R1|altsyncram_component|auto_generated|q_a [16] $end
$var wire 1 &! inst|R1|altsyncram_component|auto_generated|q_a [15] $end
$var wire 1 '! inst|R1|altsyncram_component|auto_generated|q_a [14] $end
$var wire 1 (! inst|R1|altsyncram_component|auto_generated|q_a [13] $end
$var wire 1 )! inst|R1|altsyncram_component|auto_generated|q_a [12] $end
$var wire 1 *! inst|R1|altsyncram_component|auto_generated|q_a [11] $end
$var wire 1 +! inst|R1|altsyncram_component|auto_generated|q_a [10] $end
$var wire 1 ,! inst|R1|altsyncram_component|auto_generated|q_a [9] $end
$var wire 1 -! inst|R1|altsyncram_component|auto_generated|q_a [8] $end
$var wire 1 .! inst|R1|altsyncram_component|auto_generated|q_a [7] $end
$var wire 1 /! inst|R1|altsyncram_component|auto_generated|q_a [6] $end
$var wire 1 0! inst|R1|altsyncram_component|auto_generated|q_a [5] $end
$var wire 1 1! inst|R1|altsyncram_component|auto_generated|q_a [4] $end
$var wire 1 2! inst|R1|altsyncram_component|auto_generated|q_a [3] $end
$var wire 1 3! inst|R1|altsyncram_component|auto_generated|q_a [2] $end
$var wire 1 4! inst|R1|altsyncram_component|auto_generated|q_a [1] $end
$var wire 1 5! inst|R1|altsyncram_component|auto_generated|q_a [0] $end
$var wire 1 6! N~combout [5] $end
$var wire 1 7! N~combout [4] $end
$var wire 1 8! N~combout [3] $end
$var wire 1 9! N~combout [2] $end
$var wire 1 :! N~combout [1] $end
$var wire 1 ;! N~combout [0] $end
$var wire 1 <! inst|R1|altsyncram_component|auto_generated|ram_block1a16_PORTADATAOUT_bus [35] $end
$var wire 1 =! inst|R1|altsyncram_component|auto_generated|ram_block1a16_PORTADATAOUT_bus [34] $end
$var wire 1 >! inst|R1|altsyncram_component|auto_generated|ram_block1a16_PORTADATAOUT_bus [33] $end
$var wire 1 ?! inst|R1|altsyncram_component|auto_generated|ram_block1a16_PORTADATAOUT_bus [32] $end
$var wire 1 @! inst|R1|altsyncram_component|auto_generated|ram_block1a16_PORTADATAOUT_bus [31] $end
$var wire 1 A! inst|R1|altsyncram_component|auto_generated|ram_block1a16_PORTADATAOUT_bus [30] $end
$var wire 1 B! inst|R1|altsyncram_component|auto_generated|ram_block1a16_PORTADATAOUT_bus [29] $end
$var wire 1 C! inst|R1|altsyncram_component|auto_generated|ram_block1a16_PORTADATAOUT_bus [28] $end
$var wire 1 D! inst|R1|altsyncram_component|auto_generated|ram_block1a16_PORTADATAOUT_bus [27] $end
$var wire 1 E! inst|R1|altsyncram_component|auto_generated|ram_block1a16_PORTADATAOUT_bus [26] $end
$var wire 1 F! inst|R1|altsyncram_component|auto_generated|ram_block1a16_PORTADATAOUT_bus [25] $end
$var wire 1 G! inst|R1|altsyncram_component|auto_generated|ram_block1a16_PORTADATAOUT_bus [24] $end
$var wire 1 H! inst|R1|altsyncram_component|auto_generated|ram_block1a16_PORTADATAOUT_bus [23] $end
$var wire 1 I! inst|R1|altsyncram_component|auto_generated|ram_block1a16_PORTADATAOUT_bus [22] $end
$var wire 1 J! inst|R1|altsyncram_component|auto_generated|ram_block1a16_PORTADATAOUT_bus [21] $end
$var wire 1 K! inst|R1|altsyncram_component|auto_generated|ram_block1a16_PORTADATAOUT_bus [20] $end
$var wire 1 L! inst|R1|altsyncram_component|auto_generated|ram_block1a16_PORTADATAOUT_bus [19] $end
$var wire 1 M! inst|R1|altsyncram_component|auto_generated|ram_block1a16_PORTADATAOUT_bus [18] $end
$var wire 1 N! inst|R1|altsyncram_component|auto_generated|ram_block1a16_PORTADATAOUT_bus [17] $end
$var wire 1 O! inst|R1|altsyncram_component|auto_generated|ram_block1a16_PORTADATAOUT_bus [16] $end
$var wire 1 P! inst|R1|altsyncram_component|auto_generated|ram_block1a16_PORTADATAOUT_bus [15] $end
$var wire 1 Q! inst|R1|altsyncram_component|auto_generated|ram_block1a16_PORTADATAOUT_bus [14] $end
$var wire 1 R! inst|R1|altsyncram_component|auto_generated|ram_block1a16_PORTADATAOUT_bus [13] $end
$var wire 1 S! inst|R1|altsyncram_component|auto_generated|ram_block1a16_PORTADATAOUT_bus [12] $end
$var wire 1 T! inst|R1|altsyncram_component|auto_generated|ram_block1a16_PORTADATAOUT_bus [11] $end
$var wire 1 U! inst|R1|altsyncram_component|auto_generated|ram_block1a16_PORTADATAOUT_bus [10] $end
$var wire 1 V! inst|R1|altsyncram_component|auto_generated|ram_block1a16_PORTADATAOUT_bus [9] $end
$var wire 1 W! inst|R1|altsyncram_component|auto_generated|ram_block1a16_PORTADATAOUT_bus [8] $end
$var wire 1 X! inst|R1|altsyncram_component|auto_generated|ram_block1a16_PORTADATAOUT_bus [7] $end
$var wire 1 Y! inst|R1|altsyncram_component|auto_generated|ram_block1a16_PORTADATAOUT_bus [6] $end
$var wire 1 Z! inst|R1|altsyncram_component|auto_generated|ram_block1a16_PORTADATAOUT_bus [5] $end
$var wire 1 [! inst|R1|altsyncram_component|auto_generated|ram_block1a16_PORTADATAOUT_bus [4] $end
$var wire 1 \! inst|R1|altsyncram_component|auto_generated|ram_block1a16_PORTADATAOUT_bus [3] $end
$var wire 1 ]! inst|R1|altsyncram_component|auto_generated|ram_block1a16_PORTADATAOUT_bus [2] $end
$var wire 1 ^! inst|R1|altsyncram_component|auto_generated|ram_block1a16_PORTADATAOUT_bus [1] $end
$var wire 1 _! inst|R1|altsyncram_component|auto_generated|ram_block1a16_PORTADATAOUT_bus [0] $end
$var wire 1 `! inst|R1|altsyncram_component|auto_generated|ram_block1a0_PORTADATAOUT_bus [15] $end
$var wire 1 a! inst|R1|altsyncram_component|auto_generated|ram_block1a0_PORTADATAOUT_bus [14] $end
$var wire 1 b! inst|R1|altsyncram_component|auto_generated|ram_block1a0_PORTADATAOUT_bus [13] $end
$var wire 1 c! inst|R1|altsyncram_component|auto_generated|ram_block1a0_PORTADATAOUT_bus [12] $end
$var wire 1 d! inst|R1|altsyncram_component|auto_generated|ram_block1a0_PORTADATAOUT_bus [11] $end
$var wire 1 e! inst|R1|altsyncram_component|auto_generated|ram_block1a0_PORTADATAOUT_bus [10] $end
$var wire 1 f! inst|R1|altsyncram_component|auto_generated|ram_block1a0_PORTADATAOUT_bus [9] $end
$var wire 1 g! inst|R1|altsyncram_component|auto_generated|ram_block1a0_PORTADATAOUT_bus [8] $end
$var wire 1 h! inst|R1|altsyncram_component|auto_generated|ram_block1a0_PORTADATAOUT_bus [7] $end
$var wire 1 i! inst|R1|altsyncram_component|auto_generated|ram_block1a0_PORTADATAOUT_bus [6] $end
$var wire 1 j! inst|R1|altsyncram_component|auto_generated|ram_block1a0_PORTADATAOUT_bus [5] $end
$var wire 1 k! inst|R1|altsyncram_component|auto_generated|ram_block1a0_PORTADATAOUT_bus [4] $end
$var wire 1 l! inst|R1|altsyncram_component|auto_generated|ram_block1a0_PORTADATAOUT_bus [3] $end
$var wire 1 m! inst|R1|altsyncram_component|auto_generated|ram_block1a0_PORTADATAOUT_bus [2] $end
$var wire 1 n! inst|R1|altsyncram_component|auto_generated|ram_block1a0_PORTADATAOUT_bus [1] $end
$var wire 1 o! inst|R1|altsyncram_component|auto_generated|ram_block1a0_PORTADATAOUT_bus [0] $end
$upscope $end
$upscope $end
$enddefinitions $end
#0
$dumpvars
0!
b0 "
0V
0U
0T
0S
0R
0Q
0P
0O
0N
0M
0L
0K
0J
0I
0H
0G
0F
0E
0D
0C
0B
0A
0@
0?
0>
0=
0<
0;
0:
09
08
07
06
05
04
03
02
01
00
0/
0.
0-
0,
0+
0*
0)
0(
0'
0&
0%
0$
0#
xW
0X
1Y
xZ
1[
1\
1]
0^
0_
05!
04!
03!
02!
01!
00!
0/!
0.!
0-!
0,!
0+!
0*!
0)!
0(!
0'!
0&!
0%!
0$!
0#!
0"!
0!!
0~
0}
0|
0{
0z
0y
0x
0w
0v
0u
0t
0s
0r
0q
0p
0o
0n
0m
0l
0k
0j
0i
0h
0g
0f
0e
0d
0c
0b
0a
0`
0;!
0:!
09!
08!
07!
06!
0_!
0^!
0]!
0\!
0[!
0Z!
0Y!
0X!
0W!
0V!
0U!
0T!
0S!
0R!
0Q!
0P!
0O!
0N!
0M!
0L!
0K!
0J!
0I!
0H!
0G!
0F!
0E!
0D!
0C!
0B!
0A!
0@!
0?!
0>!
0=!
0<!
0o!
0n!
0m!
0l!
0k!
0j!
0i!
0h!
0g!
0f!
0e!
0d!
0c!
0b!
0a!
0`!
$end
#10000
1!
1^
1_
0W
#20000
0!
0^
0_
1W
#30000
1!
1^
1_
0W
1o!
1n!
1m!
1l!
1k!
1j!
1i!
1h!
1g!
1f!
1e!
1d!
1c!
1b!
1a!
1`!
1_!
1^!
1]!
1\!
1[!
1Z!
1Y!
1X!
1W!
1V!
1U!
1T!
1S!
1R!
1Q!
1P!
1O!
1N!
1M!
1L!
1K!
1J!
1I!
1H!
1G!
1F!
1E!
1D!
1C!
1B!
1A!
1@!
1?!
1>!
1=!
1<!
15!
14!
13!
12!
11!
10!
1/!
1.!
1-!
1,!
1+!
1*!
1)!
1(!
1'!
1&!
1%!
1$!
1#!
1"!
1!!
1~
1}
1|
1{
1z
1y
1x
1w
1v
1u
1t
1s
1r
1q
1p
1o
1n
1m
1l
1k
1j
1i
1h
1g
1f
1e
1d
1c
1b
1a
1`
1V
1U
1T
1S
1R
1Q
1P
1O
1N
1M
1L
1K
1J
1I
1H
1G
1F
1E
1D
1C
1B
1A
1@
1?
1>
1=
1<
1;
1:
19
18
17
16
15
14
13
12
11
10
1/
1.
1-
1,
1+
1*
1)
1(
1'
1&
1%
1$
1#
#40000
0!
0^
0_
1W
#50000
1!
1^
1_
0W
#60000
0!
0^
0_
1W
#70000
1!
1^
1_
0W
#80000
0!
0^
0_
1W
#90000
1!
1^
1_
0W
#100000
0!
0^
0_
1W
#110000
1!
1^
1_
0W
#120000
0!
0^
0_
1W
#130000
1!
1^
1_
0W
#140000
0!
0^
0_
1W
#150000
1!
1^
1_
0W
#160000
0!
0^
0_
1W
#170000
1!
1^
1_
0W
#180000
0!
0^
0_
1W
#190000
1!
1^
1_
0W
#200000
0!
0^
0_
1W
#210000
1!
1^
1_
0W
#220000
0!
0^
0_
1W
#230000
1!
1^
1_
0W
#240000
0!
0^
0_
1W
#250000
1!
1^
1_
0W
#260000
0!
0^
0_
1W
#270000
1!
1^
1_
0W
#280000
0!
0^
0_
1W
#290000
1!
1^
1_
0W
#300000
0!
0^
0_
1W
#310000
1!
1^
1_
0W
#320000
0!
0^
0_
1W
#330000
1!
1^
1_
0W
#340000
0!
0^
0_
1W
#350000
1!
1^
1_
0W
#360000
0!
0^
0_
1W
#370000
1!
1^
1_
0W
#380000
0!
0^
0_
1W
#390000
1!
1^
1_
0W
#400000
0!
0^
0_
1W
#410000
1!
1^
1_
0W
#420000
0!
0^
0_
1W
#430000
1!
1^
1_
0W
#440000
0!
0^
0_
1W
#450000
1!
1^
1_
0W
#460000
0!
0^
0_
1W
#470000
1!
1^
1_
0W
#480000
0!
0^
0_
1W
#490000
1!
1^
1_
0W
#500000
0!
0^
0_
1W
#510000
1!
1^
1_
0W
#520000
0!
0^
0_
1W
#530000
1!
1^
1_
0W
#540000
0!
0^
0_
1W
#550000
1!
1^
1_
0W
#560000
0!
0^
0_
1W
#570000
1!
1^
1_
0W
#580000
0!
0^
0_
1W
#590000
1!
1^
1_
0W
#600000
0!
0^
0_
1W
#610000
1!
1^
1_
0W
#620000
0!
0^
0_
1W
#630000
1!
1^
1_
0W
#640000
0!
0^
0_
1W
#650000
1!
1^
1_
0W
#660000
0!
0^
0_
1W
#670000
1!
1^
1_
0W
#680000
0!
0^
0_
1W
#690000
1!
1^
1_
0W
#700000
0!
0^
0_
1W
#710000
1!
1^
1_
0W
#720000
0!
0^
0_
1W
#730000
1!
1^
1_
0W
#740000
0!
0^
0_
1W
#750000
1!
1^
1_
0W
#760000
0!
0^
0_
1W
#770000
1!
1^
1_
0W
#780000
0!
0^
0_
1W
#790000
1!
1^
1_
0W
#800000
0!
0^
0_
1W
#810000
1!
1^
1_
0W
#820000
0!
0^
0_
1W
#830000
1!
1^
1_
0W
#840000
0!
0^
0_
1W
#850000
1!
1^
1_
0W
#860000
0!
0^
0_
1W
#870000
1!
1^
1_
0W
#880000
0!
0^
0_
1W
#890000
1!
1^
1_
0W
#900000
0!
0^
0_
1W
#910000
1!
1^
1_
0W
#920000
0!
0^
0_
1W
#930000
1!
1^
1_
0W
#940000
0!
0^
0_
1W
#950000
1!
1^
1_
0W
#960000
0!
0^
0_
1W
#970000
1!
1^
1_
0W
#980000
0!
0^
0_
1W
#990000
1!
1^
1_
0W
#1000000
b1 "
0!
1;!
0^
0_
1W
#1010000
1!
1^
1_
0W
#1020000
0!
0^
0_
1W
#1030000
1!
1^
1_
0W
0o!
05!
0V
#1040000
0!
0^
0_
1W
#1050000
1!
1^
1_
0W
#1060000
0!
0^
0_
1W
#1070000
1!
1^
1_
0W
#1080000
0!
0^
0_
1W
#1090000
1!
1^
1_
0W
#1100000
0!
0^
0_
1W
#1110000
1!
1^
1_
0W
#1120000
0!
0^
0_
1W
#1130000
1!
1^
1_
0W
#1140000
0!
0^
0_
1W
#1150000
1!
1^
1_
0W
#1160000
0!
0^
0_
1W
#1170000
1!
1^
1_
0W
#1180000
0!
0^
0_
1W
#1190000
1!
1^
1_
0W
#1200000
0!
0^
0_
1W
#1210000
1!
1^
1_
0W
#1220000
0!
0^
0_
1W
#1230000
1!
1^
1_
0W
#1240000
0!
0^
0_
1W
#1250000
1!
1^
1_
0W
#1260000
0!
0^
0_
1W
#1270000
1!
1^
1_
0W
#1280000
0!
0^
0_
1W
#1290000
1!
1^
1_
0W
#1300000
0!
0^
0_
1W
#1310000
1!
1^
1_
0W
#1320000
0!
0^
0_
1W
#1330000
1!
1^
1_
0W
#1340000
0!
0^
0_
1W
#1350000
1!
1^
1_
0W
#1360000
0!
0^
0_
1W
#1370000
1!
1^
1_
0W
#1380000
0!
0^
0_
1W
#1390000
1!
1^
1_
0W
#1400000
0!
0^
0_
1W
#1410000
1!
1^
1_
0W
#1420000
0!
0^
0_
1W
#1430000
1!
1^
1_
0W
#1440000
0!
0^
0_
1W
#1450000
1!
1^
1_
0W
#1460000
0!
0^
0_
1W
#1470000
1!
1^
1_
0W
#1480000
0!
0^
0_
1W
#1490000
1!
1^
1_
0W
#1500000
0!
0^
0_
1W
#1510000
1!
1^
1_
0W
#1520000
0!
0^
0_
1W
#1530000
1!
1^
1_
0W
#1540000
0!
0^
0_
1W
#1550000
1!
1^
1_
0W
#1560000
0!
0^
0_
1W
#1570000
1!
1^
1_
0W
#1580000
0!
0^
0_
1W
#1590000
1!
1^
1_
0W
#1600000
0!
0^
0_
1W
#1610000
1!
1^
1_
0W
#1620000
0!
0^
0_
1W
#1630000
1!
1^
1_
0W
#1640000
0!
0^
0_
1W
#1650000
1!
1^
1_
0W
#1660000
0!
0^
0_
1W
#1670000
1!
1^
1_
0W
#1680000
0!
0^
0_
1W
#1690000
1!
1^
1_
0W
#1700000
0!
0^
0_
1W
#1710000
1!
1^
1_
0W
#1720000
0!
0^
0_
1W
#1730000
1!
1^
1_
0W
#1740000
0!
0^
0_
1W
#1750000
1!
1^
1_
0W
#1760000
0!
0^
0_
1W
#1770000
1!
1^
1_
0W
#1780000
0!
0^
0_
1W
#1790000
1!
1^
1_
0W
#1800000
0!
0^
0_
1W
#1810000
1!
1^
1_
0W
#1820000
0!
0^
0_
1W
#1830000
1!
1^
1_
0W
#1840000
0!
0^
0_
1W
#1850000
1!
1^
1_
0W
#1860000
0!
0^
0_
1W
#1870000
1!
1^
1_
0W
#1880000
0!
0^
0_
1W
#1890000
1!
1^
1_
0W
#1900000
0!
0^
0_
1W
#1910000
1!
1^
1_
0W
#1920000
0!
0^
0_
1W
#1930000
1!
1^
1_
0W
#1940000
0!
0^
0_
1W
#1950000
1!
1^
1_
0W
#1960000
0!
0^
0_
1W
#1970000
1!
1^
1_
0W
#1980000
0!
0^
0_
1W
#1990000
1!
1^
1_
0W
#2000000
b11 "
b10 "
0!
0;!
1:!
0^
0_
1W
#2010000
1!
1^
1_
0W
#2020000
0!
0^
0_
1W
#2030000
1!
1^
1_
0W
0n!
04!
0U
#2040000
0!
0^
0_
1W
#2050000
1!
1^
1_
0W
#2060000
0!
0^
0_
1W
#2070000
1!
1^
1_
0W
#2080000
0!
0^
0_
1W
#2090000
1!
1^
1_
0W
#2100000
0!
0^
0_
1W
#2110000
1!
1^
1_
0W
#2120000
0!
0^
0_
1W
#2130000
1!
1^
1_
0W
#2140000
0!
0^
0_
1W
#2150000
1!
1^
1_
0W
#2160000
0!
0^
0_
1W
#2170000
1!
1^
1_
0W
#2180000
0!
0^
0_
1W
#2190000
1!
1^
1_
0W
#2200000
0!
0^
0_
1W
#2210000
1!
1^
1_
0W
#2220000
0!
0^
0_
1W
#2230000
1!
1^
1_
0W
#2240000
0!
0^
0_
1W
#2250000
1!
1^
1_
0W
#2260000
0!
0^
0_
1W
#2270000
1!
1^
1_
0W
#2280000
0!
0^
0_
1W
#2290000
1!
1^
1_
0W
#2300000
0!
0^
0_
1W
#2310000
1!
1^
1_
0W
#2320000
0!
0^
0_
1W
#2330000
1!
1^
1_
0W
#2340000
0!
0^
0_
1W
#2350000
1!
1^
1_
0W
#2360000
0!
0^
0_
1W
#2370000
1!
1^
1_
0W
#2380000
0!
0^
0_
1W
#2390000
1!
1^
1_
0W
#2400000
0!
0^
0_
1W
#2410000
1!
1^
1_
0W
#2420000
0!
0^
0_
1W
#2430000
1!
1^
1_
0W
#2440000
0!
0^
0_
1W
#2450000
1!
1^
1_
0W
#2460000
0!
0^
0_
1W
#2470000
1!
1^
1_
0W
#2480000
0!
0^
0_
1W
#2490000
1!
1^
1_
0W
#2500000
0!
0^
0_
1W
#2510000
1!
1^
1_
0W
#2520000
0!
0^
0_
1W
#2530000
1!
1^
1_
0W
#2540000
0!
0^
0_
1W
#2550000
1!
1^
1_
0W
#2560000
0!
0^
0_
1W
#2570000
1!
1^
1_
0W
#2580000
0!
0^
0_
1W
#2590000
1!
1^
1_
0W
#2600000
0!
0^
0_
1W
#2610000
1!
1^
1_
0W
#2620000
0!
0^
0_
1W
#2630000
1!
1^
1_
0W
#2640000
0!
0^
0_
1W
#2650000
1!
1^
1_
0W
#2660000
0!
0^
0_
1W
#2670000
1!
1^
1_
0W
#2680000
0!
0^
0_
1W
#2690000
1!
1^
1_
0W
#2700000
0!
0^
0_
1W
#2710000
1!
1^
1_
0W
#2720000
0!
0^
0_
1W
#2730000
1!
1^
1_
0W
#2740000
0!
0^
0_
1W
#2750000
1!
1^
1_
0W
#2760000
0!
0^
0_
1W
#2770000
1!
1^
1_
0W
#2780000
0!
0^
0_
1W
#2790000
1!
1^
1_
0W
#2800000
0!
0^
0_
1W
#2810000
1!
1^
1_
0W
#2820000
0!
0^
0_
1W
#2830000
1!
1^
1_
0W
#2840000
0!
0^
0_
1W
#2850000
1!
1^
1_
0W
#2860000
0!
0^
0_
1W
#2870000
1!
1^
1_
0W
#2880000
0!
0^
0_
1W
#2890000
1!
1^
1_
0W
#2900000
0!
0^
0_
1W
#2910000
1!
1^
1_
0W
#2920000
0!
0^
0_
1W
#2930000
1!
1^
1_
0W
#2940000
0!
0^
0_
1W
#2950000
1!
1^
1_
0W
#2960000
0!
0^
0_
1W
#2970000
1!
1^
1_
0W
#2980000
0!
0^
0_
1W
#2990000
1!
1^
1_
0W
#3000000
b11 "
0!
1;!
0^
0_
1W
#3010000
1!
1^
1_
0W
#3020000
0!
0^
0_
1W
#3030000
1!
1^
1_
0W
0m!
03!
0T
#3040000
0!
0^
0_
1W
#3050000
1!
1^
1_
0W
#3060000
0!
0^
0_
1W
#3070000
1!
1^
1_
0W
#3080000
0!
0^
0_
1W
#3090000
1!
1^
1_
0W
#3100000
0!
0^
0_
1W
#3110000
1!
1^
1_
0W
#3120000
0!
0^
0_
1W
#3130000
1!
1^
1_
0W
#3140000
0!
0^
0_
1W
#3150000
1!
1^
1_
0W
#3160000
0!
0^
0_
1W
#3170000
1!
1^
1_
0W
#3180000
0!
0^
0_
1W
#3190000
1!
1^
1_
0W
#3200000
0!
0^
0_
1W
#3210000
1!
1^
1_
0W
#3220000
0!
0^
0_
1W
#3230000
1!
1^
1_
0W
#3240000
0!
0^
0_
1W
#3250000
1!
1^
1_
0W
#3260000
0!
0^
0_
1W
#3270000
1!
1^
1_
0W
#3280000
0!
0^
0_
1W
#3290000
1!
1^
1_
0W
#3300000
0!
0^
0_
1W
#3310000
1!
1^
1_
0W
#3320000
0!
0^
0_
1W
#3330000
1!
1^
1_
0W
#3340000
0!
0^
0_
1W
#3350000
1!
1^
1_
0W
#3360000
0!
0^
0_
1W
#3370000
1!
1^
1_
0W
#3380000
0!
0^
0_
1W
#3390000
1!
1^
1_
0W
#3400000
0!
0^
0_
1W
#3410000
1!
1^
1_
0W
#3420000
0!
0^
0_
1W
#3430000
1!
1^
1_
0W
#3440000
0!
0^
0_
1W
#3450000
1!
1^
1_
0W
#3460000
0!
0^
0_
1W
#3470000
1!
1^
1_
0W
#3480000
0!
0^
0_
1W
#3490000
1!
1^
1_
0W
#3500000
0!
0^
0_
1W
#3510000
1!
1^
1_
0W
#3520000
0!
0^
0_
1W
#3530000
1!
1^
1_
0W
#3540000
0!
0^
0_
1W
#3550000
1!
1^
1_
0W
#3560000
0!
0^
0_
1W
#3570000
1!
1^
1_
0W
#3580000
0!
0^
0_
1W
#3590000
1!
1^
1_
0W
#3600000
0!
0^
0_
1W
#3610000
1!
1^
1_
0W
#3620000
0!
0^
0_
1W
#3630000
1!
1^
1_
0W
#3640000
0!
0^
0_
1W
#3650000
1!
1^
1_
0W
#3660000
0!
0^
0_
1W
#3670000
1!
1^
1_
0W
#3680000
0!
0^
0_
1W
#3690000
1!
1^
1_
0W
#3700000
0!
0^
0_
1W
#3710000
1!
1^
1_
0W
#3720000
0!
0^
0_
1W
#3730000
1!
1^
1_
0W
#3740000
0!
0^
0_
1W
#3750000
1!
1^
1_
0W
#3760000
0!
0^
0_
1W
#3770000
1!
1^
1_
0W
#3780000
0!
0^
0_
1W
#3790000
1!
1^
1_
0W
#3800000
0!
0^
0_
1W
#3810000
1!
1^
1_
0W
#3820000
0!
0^
0_
1W
#3830000
1!
1^
1_
0W
#3840000
0!
0^
0_
1W
#3850000
1!
1^
1_
0W
#3860000
0!
0^
0_
1W
#3870000
1!
1^
1_
0W
#3880000
0!
0^
0_
1W
#3890000
1!
1^
1_
0W
#3900000
0!
0^
0_
1W
#3910000
1!
1^
1_
0W
#3920000
0!
0^
0_
1W
#3930000
1!
1^
1_
0W
#3940000
0!
0^
0_
1W
#3950000
1!
1^
1_
0W
#3960000
0!
0^
0_
1W
#3970000
1!
1^
1_
0W
#3980000
0!
0^
0_
1W
#3990000
1!
1^
1_
0W
#4000000
b111 "
b101 "
b100 "
0!
0;!
0:!
19!
0^
0_
1W
#4010000
1!
1^
1_
0W
#4020000
0!
0^
0_
1W
#4030000
1!
1^
1_
0W
0l!
02!
0S
#4040000
0!
0^
0_
1W
#4050000
1!
1^
1_
0W
#4060000
0!
0^
0_
1W
#4070000
1!
1^
1_
0W
#4080000
0!
0^
0_
1W
#4090000
1!
1^
1_
0W
#4100000
0!
0^
0_
1W
#4110000
1!
1^
1_
0W
#4120000
0!
0^
0_
1W
#4130000
1!
1^
1_
0W
#4140000
0!
0^
0_
1W
#4150000
1!
1^
1_
0W
#4160000
0!
0^
0_
1W
#4170000
1!
1^
1_
0W
#4180000
0!
0^
0_
1W
#4190000
1!
1^
1_
0W
#4200000
0!
0^
0_
1W
#4210000
1!
1^
1_
0W
#4220000
0!
0^
0_
1W
#4230000
1!
1^
1_
0W
#4240000
0!
0^
0_
1W
#4250000
1!
1^
1_
0W
#4260000
0!
0^
0_
1W
#4270000
1!
1^
1_
0W
#4280000
0!
0^
0_
1W
#4290000
1!
1^
1_
0W
#4300000
0!
0^
0_
1W
#4310000
1!
1^
1_
0W
#4320000
0!
0^
0_
1W
#4330000
1!
1^
1_
0W
#4340000
0!
0^
0_
1W
#4350000
1!
1^
1_
0W
#4360000
0!
0^
0_
1W
#4370000
1!
1^
1_
0W
#4380000
0!
0^
0_
1W
#4390000
1!
1^
1_
0W
#4400000
0!
0^
0_
1W
#4410000
1!
1^
1_
0W
#4420000
0!
0^
0_
1W
#4430000
1!
1^
1_
0W
#4440000
0!
0^
0_
1W
#4450000
1!
1^
1_
0W
#4460000
0!
0^
0_
1W
#4470000
1!
1^
1_
0W
#4480000
0!
0^
0_
1W
