Lab 2/simulation/qsim/g21_lab2.msim.vcd
$comment
	File created using the following command:
		vcd file g21_lab2.msim.vcd -direction
$end
$date
	Tue Oct 03 14:50:41 2017
$end
$version
	ModelSim Version 10.1d
$end
$timescale
	1ps
$end
$scope module g21_7_segment_decoder_vlg_vec_tst $end
$var reg 4 ! code [3:0] $end
$var reg 1 " mode $end
$var wire 1 # segments_out [6] $end
$var wire 1 $ segments_out [5] $end
$var wire 1 % segments_out [4] $end
$var wire 1 & segments_out [3] $end
$var wire 1 ' segments_out [2] $end
$var wire 1 ( segments_out [1] $end
$var wire 1 ) segments_out [0] $end
$var wire 1 * sampler $end
$scope module i1 $end
$var wire 1 + gnd $end
$var wire 1 , vcc $end
$var wire 1 - unknown $end
$var tri1 1 . devclrn $end
$var tri1 1 / devpor $end
$var tri1 1 0 devoe $end
$var wire 1 1 mode~combout $end
$var wire 1 2 Mux6~1_combout $end
$var wire 1 3 Mux6~0_combout $end
$var wire 1 4 Mux6~2_combout $end
$var wire 1 5 Mux5~0_combout $end
$var wire 1 6 Mux5~1_combout $end
$var wire 1 7 Mux4~0_combout $end
$var wire 1 8 Mux4~1_combout $end
$var wire 1 9 Mux3~0_combout $end
$var wire 1 : Mux3~1_combout $end
$var wire 1 ; Mux2~0_combout $end
$var wire 1 < Mux2~1_combout $end
$var wire 1 = Mux1~0_combout $end
$var wire 1 > Mux1~1_combout $end
$var wire 1 ? Mux1~2_combout $end
$var wire 1 @ Mux0~0_combout $end
$var wire 1 A Mux0~1_combout $end
$var wire 1 B Mux0~2_combout $end
$var wire 1 C code~combout [3] $end
$var wire 1 D code~combout [2] $end
$var wire 1 E code~combout [1] $end
$var wire 1 F code~combout [0] $end
$upscope $end
$upscope $end
$enddefinitions $end
#0
$dumpvars
b0 !
0"
0)
0(
0'
0&
0%
0$
1#
x*
0+
1,
x-
1.
1/
10
01
02
03
04
05
06
07
08
19
0:
0;
0<
0=
0>
0?
0@
0A
1B
0F
0E
0D
0C
$end
#25000
1"
11
0*
1A
1:
0B
1&
0#
#50000
b1 !
0"
1F
01
1*
09
15
12
0:
16
14
0&
1(
1)
#75000
1"
11
0*
1@
1>
1=
17
05
02
1?
18
06
04
1$
1'
0(
0)
#100000
b11 !
b10 !
0"
0F
1E
01
1*
0@
0>
0=
1;
0?
1?
0$
1$
#125000
1"
11
0*
1@
1<
07
13
08
1%
0'
#150000
b11 !
0"
1F
01
1*
0@
19
15
#175000
1"
11
0*
1>
1=
0<
1:
05
12
0?
14
0%
1&
0$
1)
#200000
b111 !
b101 !
b100 !
0"
0F
0E
1D
01
1*
1@
0=
03
1?
0?
1$
0$
#225000
1"
11
0*
0@
0>
1<
0:
15
13
02
16
04
1%
0&
1(
0)
#250000
b101 !
0"
1F
01
1*
09
1:
0:
1&
0&
#275000
1"
11
0*
1@
1>
0<
17
0%
#300000
b111 !
b110 !
0"
0F
1E
01
1*
0@
05
03
06
16
0(
1(
#325000
1"
11
0*
0A
1@
0>
1<
07
15
13
1B
1?
06
1%
1#
1$
0(
#350000
b111 !
0"
1F
01
1*
0@
03
#375000
1"
11
0*
1A
1@
1>
0<
13
0B
0?
0%
0#
0$
#400000
b1111 !
b1011 !
b1001 !
b1000 !
0"
0F
0E
0D
1C
01
1*
0A
0@
05
03
1B
14
0B
04
1#
1)
0#
0)
#425000
1"
11
0*
1A
0>
1<
17
1%
#450000
b1001 !
0"
1F
01
1*
1>
15
12
#475000
1"
11
0*
1@
0>
0<
07
02
1B
0%
1#
#500000
b1011 !
b1010 !
0"
0F
1E
01
1*
0@
1>
0;
19
05
1?
16
0B
0?
1:
06
1$
1(
0#
0$
1&
0(
#525000
1"
11
0*
1@
0>
0:
13
1B
1?
14
0&
1#
1$
1)
#550000
b1011 !
0"
1F
01
1*
0@
1>
09
15
1:
0B
0?
0:
16
1&
0#
0$
0&
1(
#575000
1"
11
0*
0>
12
1?
1$
#600000
b1111 !
b1101 !
b1100 !
0"
0F
0E
1D
01
1*
1@
1>
03
0?
18
1B
04
0$
1'
1#
0)
#625000
1"
11
0*
0@
0>
1:
17
05
13
02
0B
08
06
14
1&
0#
0'
0(
1)
#650000
b1101 !
0"
1F
01
1*
1>
1=
0:
1?
0&
1$
#675000
1"
11
0*
1@
0>
1<
1:
07
15
1B
18
16
1%
1&
1#
1'
1(
#700000
b1111 !
b1110 !
0"
0F
1E
01
1*
0@
1>
0=
0<
1;
03
0:
0B
0?
04
0%
0&
0#
0$
0)
#725000
1"
11
0*
0A
1@
0>
1<
1:
05
13
1B
1?
14
1%
1&
1#
1$
1)
#750000
b1111 !
0"
1F
01
1*
0@
1>
1=
0;
19
03
0:
0B
0?
0<
1:
04
0&
0#
0$
0%
1&
0)
#775000
1"
11
0*
1A
1@
0>
1<
15
13
1B
1?
14
1%
1#
1$
1)
#800000
b111 !
b11 !
b1 !
b0 !
0"
0F
0E
0D
0C
01
1*
0A
0@
0=
0<
05
03
0:
08
0B
04
1B
0?
06
0%
0&
0'
0#
0)
1#
0$
0(
#825000
1"
11
0*
1A
1:
0B
1&
0#
#850000
b1 !
0"
1F
01
1*
09
15
12
0:
16
14
0&
1(
1)
#875000
1"
11
0*
1@
1>
1=
17
05
02
1?
18
06
04
1$
1'
0(
0)
#900000
b11 !
b10 !
0"
0F
1E
01
1*
0@
0>
0=
1;
0?
1?
0$
1$
#925000
1"
11
0*
1@
1<
07
13
08
1%
0'
#950000
b11 !
0"
1F
01
1*
0@
19
15
#975000
1"
11
0*
1>
1=
0<
1:
05
12
0?
14
0%
1&
0$
1)
